""
"Test Method","UG Lab Glass 3 Pt Bend mm_N.msm"
"Sample I. D.","AR.mss"
"Specimen Number","10"

"Load (N)","Crosshead (mm)"

6.6,0.00000
7.1,0.00000
6.7,0.00000
7.5,0.00200
6.2,0.00200
6.7,0.00200
9.3,0.00400
7.3,0.00600
6.9,0.00600
7.3,0.00600
8.5,0.00800
8.8,0.00800
6.1,0.00800
7.5,0.01000
8.7,0.01000
6.9,0.01200
6.6,0.01200
6.3,0.01400
7.4,0.01400
6.8,0.01500
6.3,0.01600
9.7,0.01600
6.7,0.01800
6.7,0.01800
6.7,0.01800
6.1,0.02000
7.6,0.02000
8.0,0.02200
6.6,0.02200
6.6,0.02400
5.9,0.02400
7.8,0.02400
7.2,0.02600
5.4,0.02600
6.3,0.02800
5.1,0.02800
7.8,0.03000
7.7,0.03000
5.9,0.03000
6.1,0.03200
6.9,0.03200
7.4,0.03200
7.0,0.03400
6.5,0.03400
5.7,0.03600
6.0,0.03600
7.0,0.03800
7.7,0.03800
9.3,0.04000
8.9,0.04000
10.1,0.04000
7.9,0.04200
6.7,0.04200
6.8,0.04400
8.5,0.04400
7.3,0.04600
8.3,0.04600
7.2,0.04600
6.7,0.04800
7.1,0.04800
6.3,0.04800
7.5,0.05000
9.8,0.05000
7.5,0.05200
7.5,0.05200
6.1,0.05400
7.3,0.05400
9.7,0.05600
7.5,0.05600
7.3,0.05600
6.7,0.05800
7.8,0.05800
7.7,0.05800
6.1,0.06000
7.7,0.06200
6.4,0.06200
8.2,0.06200
9.2,0.06400
9.0,0.06400
7.0,0.06400
7.6,0.06600
6.5,0.06600
6.4,0.06800
8.6,0.06800
6.9,0.07000
6.9,0.07000
8.3,0.07200
9.4,0.07200
9.4,0.07200
6.7,0.07400
6.4,0.07400
8.2,0.07400
7.3,0.07600
9.4,0.07600
8.8,0.07800
7.6,0.07800
6.6,0.08000
7.7,0.08000
7.4,0.08000
5.3,0.08200
7.9,0.08200
7.5,0.08400
7.1,0.08400
7.6,0.08600
7.7,0.08600
8.2,0.08600
7.8,0.08800
7.1,0.08800
6.3,0.08800
7.2,0.09000
5.6,0.09000
5.9,0.09200
7.0,0.09200
7.0,0.09400
8.0,0.09400
9.9,0.09600
6.6,0.09600
6.4,0.09600
7.3,0.09800
8.9,0.09800
6.8,0.09800
6.4,0.10000
4.9,0.10200
8.0,0.10200
7.1,0.10200
8.8,0.10400
8.1,0.10400
6.9,0.10400
7.1,0.10600
8.2,0.10600
8.1,0.10800
7.7,0.10800
7.2,0.11000
6.6,0.11000
6.9,0.11200
6.8,0.11200
5.1,0.11200
6.1,0.11400
6.7,0.11400
7.7,0.11400
7.8,0.11600
5.2,0.11600
6.8,0.11800
7.5,0.11800
8.0,0.12000
9.3,0.12000
7.3,0.12000
6.2,0.12200
6.3,0.12200
5.8,0.12400
7.6,0.12400
7.8,0.12600
7.1,0.12600
6.9,0.12600
7.6,0.12800
8.2,0.12800
8.3,0.12800
10.2,0.13000
9.3,0.13000
9.2,0.13200
10.3,0.13200
6.4,0.13400
6.6,0.13400
6.8,0.13600
8.7,0.13600
7.1,0.13600
7.6,0.13800
7.5,0.13800
6.4,0.14000
6.5,0.14000
8.7,0.14200
6.9,0.14200
8.5,0.14200
6.5,0.14400
8.2,0.14400
9.8,0.14400
8.4,0.14600
7.2,0.14600
7.6,0.14800
7.5,0.14800
8.1,0.15000
8.9,0.15000
8.3,0.15200
8.9,0.15200
7.2,0.15200
9.3,0.15400
9.6,0.15400
8.0,0.15400
8.5,0.15600
5.9,0.15600
8.6,0.15800
7.2,0.15800
8.2,0.16000
5.7,0.16000
6.5,0.16000
8.1,0.16200
7.5,0.16200
6.6,0.16400
7.8,0.16400
6.7,0.16600
8.3,0.16600
6.6,0.16800
5.4,0.16800
7.1,0.16800
5.7,0.17000
6.9,0.17000
8.7,0.17000
7.7,0.17200
7.6,0.17400
6.7,0.17400
9.8,0.17400
10.3,0.17600
7.5,0.17600
7.1,0.17600
7.4,0.17800
7.6,0.17800
8.8,0.18000
7.8,0.18000
7.7,0.18200
8.3,0.18200
7.4,0.18400
8.8,0.18400
7.4,0.18400
7.2,0.18600
7.9,0.18600
7.5,0.18600
6.6,0.18800
9.4,0.18800
6.7,0.19000
6.3,0.19000
5.8,0.19200
6.8,0.19200
6.7,0.19200
5.6,0.19400
6.6,0.19400
5.4,0.19600
7.9,0.19600
7.5,0.19800
7.7,0.19800
6.2,0.19800
6.0,0.20000
6.1,0.20000
7.4,0.20000
6.8,0.20200
6.7,0.20200
6.7,0.20400
8.4,0.20400
7.9,0.20600
7.8,0.20600
6.8,0.20800
6.4,0.20800
6.8,0.20800
7.7,0.21000
8.8,0.21000
7.6,0.21000
5.0,0.21200
6.3,0.21200
7.0,0.21400
8.4,0.21400
7.3,0.21600
7.8,0.21600
6.3,0.21600
10.0,0.21800
9.4,0.21800
7.4,0.22000
7.3,0.22000
6.8,0.22200
7.7,0.22200
8.6,0.22200
7.0,0.22400
6.9,0.22400
7.6,0.22500
8.7,0.22600
7.2,0.22600
6.2,0.22800
7.3,0.22800
7.2,0.23000
6.6,0.23000
7.3,0.23200
7.3,0.23200
7.2,0.23200
6.9,0.23400
5.8,0.23400
6.3,0.23600
6.2,0.23600
5.5,0.23800
6.9,0.23800
8.2,0.23800
9.4,0.24000
10.0,0.24000
8.9,0.24000
7.9,0.24200
7.8,0.24200
7.4,0.24400
8.1,0.24400
8.0,0.24600
6.2,0.24600
6.1,0.24800
8.4,0.24800
7.4,0.24800
9.0,0.25000
7.5,0.25000
7.7,0.25000
9.4,0.25200
9.1,0.25200
9.5,0.25400
8.7,0.25400
9.1,0.25600
9.4,0.25600
8.3,0.25600
6.5,0.25800
6.2,0.25800
7.4,0.25800
6.9,0.26000
7.4,0.26200
9.6,0.26200
8.7,0.26200
7.9,0.26400
8.2,0.26400
8.6,0.26400
8.0,0.26600
8.3,0.26600
7.4,0.26800
7.7,0.26800
9.5,0.27000
7.2,0.27000
8.4,0.27200
8.5,0.27200
9.1,0.27200
8.4,0.27400
9.4,0.27400
8.7,0.27600
7.8,0.27600
8.4,0.27800
6.9,0.27800
7.5,0.27800
8.8,0.28000
9.2,0.28000
9.9,0.28000
9.0,0.28200
11.4,0.28200
9.5,0.28400
11.2,0.28400
10.7,0.28600
12.8,0.28600
13.3,0.28800
13.9,0.28800
12.1,0.28800
12.0,0.29000
12.9,0.29000
12.7,0.29000
12.6,0.29200
12.5,0.29200
13.2,0.29400
15.0,0.29400
16.5,0.29600
16.5,0.29600
15.6,0.29600
16.1,0.29800
17.1,0.29800
16.6,0.30000
18.2,0.30000
15.8,0.30200
14.3,0.30200
14.1,0.30200
16.1,0.30400
18.1,0.30400
17.5,0.30400
17.5,0.30600
18.5,0.30600
20.1,0.30800
18.1,0.30800
17.9,0.31000
19.6,0.31000
20.3,0.31200
19.2,0.31200
20.4,0.31200
20.6,0.31400
20.4,0.31400
22.1,0.31400
22.1,0.31600
22.7,0.31600
22.7,0.31800
21.9,0.31800
21.4,0.32000
24.7,0.32000
23.4,0.32000
23.5,0.32200
21.7,0.32200
23.8,0.32400
24.7,0.32400
26.3,0.32600
27.2,0.32600
25.9,0.32600
24.6,0.32800
26.7,0.32800
27.6,0.32800
26.2,0.33000
27.1,0.33000
27.0,0.33200
28.4,0.33200
28.7,0.33400
27.1,0.33400
28.9,0.33600
29.0,0.33600
30.3,0.33600
29.6,0.33800
29.6,0.33800
31.8,0.33800
30.0,0.34000
32.2,0.34200
32.5,0.34200
33.5,0.34200
33.1,0.34400
33.1,0.34400
33.8,0.34400
34.5,0.34600
34.0,0.34600
34.4,0.34800
35.4,0.34800
34.7,0.35000
35.4,0.35000
36.3,0.35200
35.7,0.35200
36.0,0.35200
34.8,0.35400
37.4,0.35400
37.6,0.35400
35.4,0.35600
35.0,0.35600
35.9,0.35800
38.4,0.35800
39.4,0.36000
37.4,0.36000
38.7,0.36000
40.2,0.36200
38.2,0.36200
39.0,0.36400
39.3,0.36400
41.0,0.36600
40.2,0.36600
41.5,0.36800
39.7,0.36800
41.7,0.36800
41.6,0.37000
39.7,0.37000
44.3,0.37000
42.5,0.37200
42.2,0.37200
45.1,0.37400
43.1,0.37400
45.7,0.37600
45.4,0.37600
45.2,0.37600
45.2,0.37800
45.1,0.37800
45.6,0.38000
45.0,0.38000
45.5,0.38200
48.1,0.38200
47.2,0.38400
48.4,0.38400
49.4,0.38400
49.5,0.38600
49.4,0.38600
48.7,0.38600
49.1,0.38800
50.8,0.38800
51.6,0.39000
51.4,0.39000
50.7,0.39200
52.2,0.39200
51.1,0.39200
51.5,0.39400
51.1,0.39400
51.2,0.39600
52.5,0.39600
52.2,0.39800
54.9,0.39800
53.8,0.39800
55.2,0.40000
53.9,0.40000
53.4,0.40000
54.5,0.40200
53.8,0.40200
53.0,0.40400
55.7,0.40400
56.3,0.40600
58.4,0.40600
58.5,0.40800
58.3,0.40800
57.5,0.40800
57.2,0.41000
58.3,0.41000
59.4,0.41000
56.6,0.41200
58.3,0.41200
58.2,0.41400
60.7,0.41400
60.0,0.41600
58.9,0.41600
60.2,0.41600
59.9,0.41800
60.9,0.41800
59.7,0.42000
60.1,0.42000
62.1,0.42200
61.7,0.42200
62.1,0.42200
62.2,0.42400
61.8,0.42400
62.7,0.42400
64.8,0.42600
62.5,0.42600
63.6,0.42800
65.1,0.42800
65.7,0.43000
63.3,0.43000
67.2,0.43200
66.6,0.43200
66.6,0.43200
66.7,0.43400
66.9,0.43400
68.1,0.43400
65.0,0.43600
67.4,0.43600
66.1,0.43800
68.6,0.43800
71.0,0.44000
71.0,0.44000
71.1,0.44000
69.5,0.44200
69.3,0.44200
71.6,0.44400
71.7,0.44400
71.7,0.44600
71.1,0.44600
71.8,0.44600
72.8,0.44800
73.5,0.44800
72.1,0.44800
74.8,0.45000
72.7,0.45000
75.9,0.45200
74.7,0.45200
74.4,0.45400
72.9,0.45400
74.1,0.45600
75.4,0.45600
74.7,0.45600
76.1,0.45800
74.0,0.45800
75.3,0.45800
75.4,0.46000
75.5,0.46200
78.1,0.46200
77.7,0.46200
76.9,0.46400
78.9,0.46400
80.1,0.46400
79.8,0.46600
78.9,0.46600
80.1,0.46800
80.9,0.46800
81.9,0.47000
81.6,0.47000
82.1,0.47200
82.2,0.47200
82.7,0.47200
81.7,0.47400
84.4,0.47400
83.8,0.47400
82.9,0.47600
84.4,0.47800
83.2,0.47800
84.7,0.47800
84.8,0.48000
86.6,0.48000
84.6,0.48000
86.6,0.48200
85.2,0.48200
87.1,0.48400
86.8,0.48400
87.4,0.48600
87.9,0.48600
88.3,0.48800
90.4,0.48800
88.2,0.48800
86.8,0.49000
89.6,0.49000
88.1,0.49000
90.1,0.49200
87.9,0.49200
90.2,0.49400
89.7,0.49400
92.1,0.49600
94.9,0.49600
91.0,0.49600
92.8,0.49800
93.1,0.49800
94.1,0.50000
93.8,0.50000
93.1,0.50200
93.5,0.50200
95.2,0.50200
94.9,0.50400
95.2,0.50400
93.8,0.50400
96.8,0.50600
95.5,0.50600
97.0,0.50800
98.4,0.50800
96.7,0.51000
96.0,0.51000
96.5,0.51200
96.6,0.51200
96.7,0.51200
98.7,0.51400
98.4,0.51400
97.3,0.51400
99.8,0.51600
101.1,0.51600
101.2,0.51800
101.9,0.51800
100.1,0.52000
102.1,0.52000
102.3,0.52000
104.3,0.52200
101.6,0.52200
102.1,0.52400
102.1,0.52400
101.1,0.52600
103.3,0.52600
104.1,0.52800
105.0,0.52800
105.9,0.52800
106.1,0.53000
105.3,0.53000
107.7,0.53000
104.9,0.53200
106.7,0.53200
106.3,0.53400
107.7,0.53400
106.9,0.53600
106.1,0.53600
106.9,0.53600
108.1,0.53800
109.0,0.53800
108.6,0.54000
106.6,0.54000
108.8,0.54200
109.8,0.54200
112.5,0.54200
110.3,0.54400
112.4,0.54400
111.6,0.54400
112.9,0.54600
113.1,0.54600
112.5,0.54800
111.9,0.54800
112.8,0.55000
113.9,0.55000
114.9,0.55200
115.0,0.55200
114.1,0.55200
115.0,0.55400
116.4,0.55400
116.5,0.55400
115.6,0.55600
114.6,0.55800
115.4,0.55800
116.5,0.55800
117.2,0.56000
116.1,0.56000
117.7,0.56000
117.6,0.56200
118.0,0.56200
119.4,0.56400
119.3,0.56400
121.3,0.56600
119.9,0.56600
119.9,0.56800
118.8,0.56800
120.1,0.56800
120.4,0.57000
118.9,0.57000
119.8,0.57000
118.6,0.57200
120.7,0.57200
120.5,0.57400
120.7,0.57400
121.3,0.57600
124.8,0.57600
123.3,0.57600
122.9,0.57800
123.8,0.57800
122.5,0.58000
123.5,0.58000
124.4,0.58200
125.4,0.58200
126.2,0.58200
127.0,0.58400
128.3,0.58400
128.8,0.58400
128.5,0.58600
128.3,0.58600
128.0,0.58800
129.1,0.58800
128.6,0.59000
129.1,0.59000
129.3,0.59200
130.1,0.59200
131.4,0.59200
131.4,0.59400
130.8,0.59400
130.8,0.59400
130.5,0.59600
133.3,0.59600
132.5,0.59800
132.8,0.59800
131.8,0.60000
131.8,0.60000
133.9,0.60000
133.6,0.60200
132.8,0.60200
134.0,0.60400
133.5,0.60400
135.5,0.60600
134.7,0.60600
136.9,0.60600
137.0,0.60800
136.1,0.60800
137.9,0.60800
140.1,0.61000
138.0,0.61000
136.5,0.61200
136.9,0.61200
136.5,0.61400
138.6,0.61400
136.4,0.61600
138.6,0.61600
138.6,0.61600
138.7,0.61800
140.6,0.61800
141.2,0.61800
141.7,0.62000
141.0,0.62000
141.3,0.62200
140.9,0.62200
142.6,0.62400
141.4,0.62400
142.6,0.62400
143.0,0.62600
144.2,0.62600
145.4,0.62800
144.4,0.62800
145.0,0.63000
145.3,0.63000
144.5,0.63000
144.9,0.63200
146.4,0.63200
144.9,0.63200
146.5,0.63400
147.5,0.63400
146.4,0.63600
147.2,0.63600
147.7,0.63800
146.2,0.63800
148.3,0.64000
150.8,0.64000
151.2,0.64000
150.2,0.64200
148.8,0.64200
151.6,0.64200
152.4,0.64400
149.6,0.64500
150.2,0.64600
149.5,0.64600
150.2,0.64800
150.5,0.64800
152.1,0.64800
153.6,0.65000
154.5,0.65000
154.8,0.65200
155.4,0.65200
154.7,0.65400
154.2,0.65400
155.3,0.65400
153.5,0.65600
154.2,0.65600
154.0,0.65800
156.2,0.65800
154.2,0.65800
154.5,0.66000
155.2,0.66000
157.9,0.66200
156.5,0.66200
156.6,0.66400
156.9,0.66400
157.2,0.66400
159.2,0.66600
158.9,0.66600
159.2,0.66800
159.2,0.66800
159.5,0.67000
160.1,0.67000
162.1,0.67000
162.1,0.67200
161.0,0.67200
163.1,0.67400
163.1,0.67400
164.2,0.67400
163.2,0.67600
162.6,0.67600
163.9,0.67800
163.2,0.67800
163.3,0.68000
162.9,0.68000
162.5,0.68000
164.2,0.68200
163.5,0.68200
166.1,0.68400
165.7,0.68400
166.5,0.68600
164.6,0.68600
166.2,0.68600
167.1,0.68800
165.9,0.68800
166.1,0.68800
167.6,0.69000
169.0,0.69000
169.5,0.69200
167.4,0.69200
168.3,0.69400
166.1,0.69400
171.7,0.69600
172.5,0.69600
170.6,0.69600
171.7,0.69800
171.1,0.69800
171.2,0.70000
172.4,0.70000
173.0,0.70200
173.8,0.70200
173.7,0.70200
173.2,0.70400
174.5,0.70400
175.3,0.70400
175.4,0.70600
175.4,0.70600
177.6,0.70800
176.1,0.70800
177.8,0.71000
175.9,0.71000
177.1,0.71200
177.1,0.71200
178.3,0.71200
177.8,0.71400
177.9,0.71400
178.0,0.71400
176.4,0.71600
180.0,0.71600
181.8,0.71800
180.1,0.71800
180.3,0.72000
179.9,0.72000
180.9,0.72000
183.6,0.72200
179.8,0.72200
182.3,0.72400
180.7,0.72400
183.2,0.72600
182.1,0.72600
182.5,0.72600
182.4,0.72800
184.6,0.72800
184.6,0.72800
186.4,0.73000
185.6,0.73000
12.3,0.73200
12.3,0.73200


