""
"Test Method","UG Lab Glass 3 Pt Bend mm_N.msm"
"Sample I. D.","AR.mss"
"Specimen Number","4"

"Load (N)","Crosshead (mm)"

0.8,0.00000
1.1,0.00000
0.7,0.00200
0.4,0.00200
-0.7,0.00400
-1.1,0.00400
2.4,0.00400
1.0,0.00600
0.4,0.00600
0.9,0.00600
-0.7,0.00800
1.9,0.00800
0.8,0.01000
1.9,0.01000
1.0,0.01200
1.5,0.01200
2.3,0.01200
0.8,0.01400
0.8,0.01400
-1.4,0.01600
1.7,0.01600
3.3,0.01800
2.2,0.01800
0.9,0.01800
1.9,0.02000
1.2,0.02000
0.6,0.02000
1.0,0.02200
0.4,0.02200
0.3,0.02400
-0.3,0.02400
-0.8,0.02600
-0.1,0.02600
0.4,0.02800
-0.4,0.02800
0.7,0.02800
-0.3,0.03000
2.3,0.03000
0.6,0.03000
1.8,0.03200
-0.3,0.03400
0.6,0.03400
1.0,0.03400
-1.6,0.03600
-1.1,0.03600
-0.5,0.03600
-0.7,0.03800
0.7,0.03800
0.9,0.04000
1.2,0.04000
2.3,0.04200
0.7,0.04200
2.3,0.04400
2.4,0.04400
0.9,0.04400
1.1,0.04600
0.6,0.04600
0.6,0.04600
0.9,0.04800
1.0,0.04800
0.2,0.05000
0.1,0.05000
0.9,0.05200
0.5,0.05200
0.8,0.05200
1.6,0.05400
2.6,0.05400
1.3,0.05600
1.2,0.05600
0.9,0.05800
1.2,0.05800
-0.9,0.05800
-0.2,0.06000
2.9,0.06000
1.6,0.06200
1.6,0.06200
1.4,0.06200
0.7,0.06400
3.3,0.06400
0.5,0.06600
1.6,0.06600
0.1,0.06800
0.5,0.06800
2.0,0.06800
1.5,0.07000
-2.3,0.07000
0.0,0.07000
-0.3,0.07200
-0.9,0.07200
1.3,0.07400
0.3,0.07400
0.6,0.07600
0.6,0.07600
0.2,0.07600
0.6,0.07800
-0.1,0.07800
1.0,0.08000
-1.0,0.08000
-0.5,0.08200
0.0,0.08200
-1.6,0.08200
0.4,0.08400
-1.5,0.08400
0.4,0.08600
0.3,0.08600
0.0,0.08600
0.8,0.08800
-0.6,0.08800
0.2,0.09000
-0.3,0.09000
-0.8,0.09200
0.5,0.09200
-1.6,0.09200
-0.8,0.09400
-1.4,0.09400
1.0,0.09400
-0.4,0.09600
-1.3,0.09800
0.0,0.09800
1.6,0.09800
3.2,0.10000
1.7,0.10000
1.0,0.10000
-0.1,0.10200
1.6,0.10200
-0.1,0.10400
-3.3,0.10400
-1.7,0.10600
-2.4,0.10600
-0.8,0.10800
0.0,0.10800
-1.2,0.10800
-1.4,0.11000
-1.5,0.11000
2.0,0.11000
-0.9,0.11200
-0.5,0.11200
-0.1,0.11400
-1.1,0.11400
0.8,0.11600
0.6,0.11600
-0.8,0.11600
-1.0,0.11800
-0.2,0.11800
-0.1,0.12000
0.1,0.12000
0.2,0.12200
1.8,0.12200
1.6,0.12400
1.0,0.12400
-0.6,0.12400
-1.0,0.12600
-1.7,0.12600
-1.0,0.12600
0.8,0.12800
0.2,0.12800
0.4,0.13000
-0.5,0.13000
0.1,0.13200
0.4,0.13200
0.5,0.13200
0.5,0.13400
0.6,0.13400
0.2,0.13600
1.0,0.13600
-0.7,0.13800
-0.4,0.13800
-0.2,0.13800
-2.2,0.14000
-2.1,0.14000
0.9,0.14000
-0.9,0.14200
1.3,0.14200
0.9,0.14400
-0.3,0.14400
0.6,0.14600
0.6,0.14600
-0.4,0.14800
-0.7,0.14800
-1.4,0.14800
0.4,0.15000
-1.1,0.15000
-1.3,0.15200
-2.0,0.15200
-0.3,0.15400
2.2,0.15400
2.0,0.15400
1.3,0.15600
1.2,0.15600
2.0,0.15600
1.6,0.15800
1.3,0.15800
0.7,0.16000
-1.9,0.16000
0.9,0.16200
1.3,0.16200
2.6,0.16400
2.5,0.16400
0.5,0.16400
0.5,0.16600
2.9,0.16600
0.2,0.16600
-0.5,0.16800
1.5,0.16800
-0.7,0.17000
1.3,0.17000
1.8,0.17200
0.7,0.17200
-1.2,0.17200
-0.4,0.17400
-1.6,0.17400
1.7,0.17600
1.0,0.17600
0.2,0.17800
2.3,0.17800
0.9,0.18000
1.3,0.18000
1.3,0.18000
0.9,0.18200
2.0,0.18200
0.6,0.18200
2.1,0.18400
0.5,0.18400
2.2,0.18600
1.1,0.18600
-0.7,0.18800
3.4,0.18800
0.4,0.18800
-0.3,0.19000
0.2,0.19000
0.1,0.19200
-0.3,0.19200
-0.1,0.19400
1.2,0.19400
-0.3,0.19400
-1.2,0.19600
1.3,0.19600
0.4,0.19600
1.5,0.19800
0.4,0.19800
-1.6,0.20000
1.1,0.20000
2.7,0.20200
1.8,0.20200
-1.4,0.20400
-0.6,0.20400
-0.9,0.20400
1.2,0.20600
-0.1,0.20600
-1.5,0.20800
-0.5,0.20800
-1.0,0.21000
1.4,0.21000
0.1,0.21000
-0.3,0.21200
1.6,0.21200
-0.1,0.21200
1.4,0.21400
-1.3,0.21400
-2.1,0.21600
0.1,0.21600
-0.1,0.21800
0.6,0.21800
0.6,0.22000
0.2,0.22000
0.0,0.22000
-1.6,0.22200
-0.2,0.22200
0.3,0.22200
-0.2,0.22400
1.5,0.22400
-0.9,0.22600
-0.6,0.22600
-0.5,0.22800
-1.4,0.22800
-1.1,0.22800
-0.5,0.23000
0.6,0.23000
0.4,0.23200
1.0,0.23200
0.5,0.23400
-0.9,0.23400
2.5,0.23400
2.2,0.23600
1.4,0.23600
0.6,0.23800
-0.4,0.23800
0.7,0.23800
0.6,0.24000
1.9,0.24000
-0.5,0.24200
0.9,0.24200
1.6,0.24400
1.3,0.24400
2.2,0.24400
0.1,0.24600
1.3,0.24600
-0.3,0.24800
0.2,0.24800
0.1,0.25000
-1.0,0.25000
-0.7,0.25000
-1.8,0.25200
1.9,0.25200
0.3,0.25400
-1.4,0.25400
-0.8,0.25400
1.4,0.25600
2.7,0.25600
2.6,0.25800
1.0,0.25800
1.0,0.26000
0.8,0.26000
0.5,0.26000
0.7,0.26200
0.7,0.26200
-0.2,0.26200
1.2,0.26400
2.4,0.26600
2.2,0.26600
1.8,0.26600
1.4,0.26800
-0.2,0.26800
2.6,0.26800
1.7,0.27000
1.0,0.27000
0.0,0.27200
1.9,0.27200
2.5,0.27400
2.8,0.27400
1.3,0.27400
1.5,0.27600
0.0,0.27600
2.4,0.27800
3.0,0.27800
1.9,0.27800
0.8,0.28000
-0.8,0.28000
-0.7,0.28200
-0.9,0.28200
-1.3,0.28400
1.0,0.28400
1.0,0.28400
-1.9,0.28600
1.9,0.28600
1.5,0.28600
2.1,0.28800
0.3,0.29000
2.2,0.29000
0.7,0.29000
3.6,0.29200
-0.7,0.29200
1.4,0.29200
-0.2,0.29400
0.5,0.29400
1.7,0.29600
-1.2,0.29600
0.2,0.29800
1.1,0.29800
3.2,0.29800
3.1,0.30000
1.9,0.30000
1.5,0.30200
0.8,0.30200
-0.3,0.30200
-0.3,0.30400
0.1,0.30400
-0.5,0.30600
2.4,0.30600
0.1,0.30800
-0.7,0.30800
1.6,0.30800
1.7,0.31000
-0.1,0.31000
1.9,0.31200
0.5,0.31200
0.8,0.31400
0.6,0.31400
2.3,0.31400
-0.1,0.31600
0.8,0.31600
0.3,0.31600
-1.0,0.31800
-0.8,0.31800
2.3,0.32000
1.2,0.32000
1.6,0.32200
1.7,0.32200
1.4,0.32400
1.0,0.32400
0.1,0.32400
-0.2,0.32600
0.4,0.32600
1.4,0.32600
1.8,0.32800
1.3,0.32800
0.7,0.33000
-0.5,0.33000
0.1,0.33200
0.0,0.33200
1.2,0.33200
1.5,0.33400
1.3,0.33400
1.8,0.33600
0.3,0.33600
1.8,0.33800
-1.3,0.33800
1.3,0.34000
2.1,0.34000
-1.3,0.34000
-0.4,0.34200
1.9,0.34200
1.4,0.34200
-0.4,0.34400
-0.9,0.34400
0.1,0.34600
1.4,0.34600
0.9,0.34800
-1.1,0.34800
-0.9,0.34800
-0.6,0.35000
1.9,0.35000
-0.2,0.35200
1.0,0.35200
1.2,0.35400
2.8,0.35400
3.6,0.35600
3.9,0.35600
4.0,0.35600
4.6,0.35800
5.0,0.35800
4.6,0.35800
5.0,0.36000
3.2,0.36000
6.4,0.36200
7.1,0.36200
5.9,0.36400
6.0,0.36400
7.1,0.36400
7.9,0.36600
7.7,0.36600
9.1,0.36800
9.1,0.36800
9.8,0.37000
7.3,0.37000
8.8,0.37000
9.8,0.37200
9.6,0.37200
11.9,0.37200
11.8,0.37400
9.9,0.37400
12.7,0.37600
11.9,0.37600
11.4,0.37800
12.8,0.37800
14.0,0.38000
15.0,0.38000
14.3,0.38000
12.6,0.38200
15.1,0.38200
13.4,0.38200
15.2,0.38400
14.8,0.38400
14.9,0.38600
16.3,0.38600
14.9,0.38800
17.4,0.38800
17.7,0.38800
17.0,0.39000
16.1,0.39000
17.2,0.39200
17.8,0.39200
19.9,0.39400
19.2,0.39400
17.4,0.39400
17.8,0.39600
18.3,0.39600
21.1,0.39600
20.3,0.39800
22.2,0.39800
21.7,0.40000
19.9,0.40000
21.5,0.40200
23.7,0.40200
21.7,0.40400
20.3,0.40400
22.6,0.40400
22.9,0.40600
24.2,0.40600
24.3,0.40600
23.0,0.40800
23.0,0.40800
26.2,0.41000
24.3,0.41000
25.5,0.41200
27.1,0.41200
28.1,0.41200
27.0,0.41400
25.8,0.41400
26.4,0.41600
26.7,0.41600
24.6,0.41800
29.0,0.41800
27.8,0.41800
29.9,0.42000
28.1,0.42000
28.3,0.42200
30.1,0.42200
30.6,0.42200
30.3,0.42400
28.6,0.42400
30.2,0.42600
30.1,0.42600
32.1,0.42800
31.0,0.42800
31.3,0.42800
32.8,0.43000
30.8,0.43000
34.1,0.43000
33.5,0.43200
31.9,0.43400
33.5,0.43400
34.5,0.43400
35.0,0.43600
35.3,0.43600
34.7,0.43600
35.7,0.43800
34.8,0.43800
35.3,0.44000
36.2,0.44000
35.9,0.44200
38.7,0.44200
38.3,0.44400
41.2,0.44400
40.8,0.44400
38.5,0.44600
38.3,0.44600
37.9,0.44600
39.2,0.44800
41.4,0.44800
39.8,0.45000
40.4,0.45000
40.0,0.45200
41.8,0.45200
42.7,0.45200
42.3,0.45400
44.4,0.45400
45.3,0.45600
44.6,0.45600
43.8,0.45800
44.6,0.45800
42.8,0.46000
44.5,0.46000
44.2,0.46000
44.9,0.46200
43.4,0.46200
46.4,0.46200
46.3,0.46400
46.9,0.46400
47.5,0.46600
48.7,0.46600
48.1,0.46800
47.1,0.46800
49.2,0.46800
47.3,0.47000
48.9,0.47000
47.7,0.47200
47.9,0.47200
48.7,0.47400
49.7,0.47400
49.8,0.47400
50.0,0.47600
51.1,0.47600
49.4,0.47600
52.2,0.47800
52.1,0.47800
52.1,0.48000
52.7,0.48000
51.3,0.48200
54.2,0.48200
54.4,0.48400
54.9,0.48400
53.7,0.48400
54.0,0.48600
56.6,0.48600
57.2,0.48600
54.6,0.48800
57.0,0.49000
56.2,0.49000
57.0,0.49000
58.3,0.49200
58.4,0.49200
56.6,0.49200
59.5,0.49400
57.8,0.49400
56.9,0.49600
59.6,0.49600
58.5,0.49800
59.9,0.49800
61.3,0.49800
60.7,0.50000
61.5,0.50000
61.6,0.50200
61.0,0.50200
59.9,0.50200
62.6,0.50400
60.4,0.50400
61.4,0.50600
62.0,0.50600
61.3,0.50800
65.6,0.50800
64.8,0.50800
63.1,0.51000
63.7,0.51000
62.6,0.51200
64.7,0.51200
67.4,0.51400
66.0,0.51400
65.4,0.51400
67.0,0.51600
66.0,0.51600
66.6,0.51600
68.0,0.51800
67.9,0.51800
68.9,0.52000
68.6,0.52000
72.2,0.52200
70.9,0.52200
69.1,0.52400
70.5,0.52400
70.4,0.52400
72.5,0.52600
71.2,0.52600
69.4,0.52800
69.8,0.52800
71.0,0.53000
73.6,0.53000
72.2,0.53000
73.3,0.53200
73.2,0.53200
74.2,0.53200
75.3,0.53400
74.9,0.53400
74.4,0.53600
75.6,0.53600
74.8,0.53800
76.2,0.53800
78.3,0.54000
77.4,0.54000
76.8,0.54000
74.9,0.54200
80.0,0.54200
79.8,0.54200
78.8,0.54400
78.9,0.54400
79.1,0.54600
80.0,0.54600
80.7,0.54800
79.6,0.54800
80.5,0.54800
81.5,0.55000
81.7,0.55000
81.5,0.55200
84.3,0.55200
83.3,0.55400
81.7,0.55400
83.9,0.55600
83.3,0.55600
83.8,0.55600
84.7,0.55800
84.7,0.55800
85.7,0.55800
86.5,0.56000
84.2,0.56000
85.4,0.56200
87.2,0.56200
85.1,0.56400
88.1,0.56400
88.3,0.56400
88.7,0.56600
90.0,0.56600
88.7,0.56800
89.3,0.56800
90.0,0.57000
88.6,0.57000
88.5,0.57000
88.8,0.57200
90.8,0.57200
90.2,0.57200
89.3,0.57400
90.2,0.57400
90.1,0.57600
92.9,0.57600
92.0,0.57800
92.7,0.57800
93.5,0.58000
92.4,0.58000
93.1,0.58000
92.8,0.58200
94.5,0.58200
93.2,0.58200
94.4,0.58400
95.0,0.58400
95.6,0.58600
97.3,0.58600
96.3,0.58800
97.4,0.58800
97.3,0.58800
96.9,0.59000
99.4,0.59000
97.3,0.59200
97.0,0.59200
98.2,0.59400
99.7,0.59400
98.8,0.59400
98.0,0.59600
97.8,0.59600
100.3,0.59600
101.0,0.59800
103.9,0.59800
100.8,0.60000
100.6,0.60000
102.9,0.60200
105.6,0.60200
103.3,0.60400
101.5,0.60400
103.2,0.60400
103.3,0.60600
103.7,0.60600
104.5,0.60600
103.9,0.60800
105.6,0.60800
105.4,0.61000
105.5,0.61000
107.5,0.61200
105.9,0.61200
106.6,0.61200
107.2,0.61400
107.6,0.61400
106.8,0.61600
109.6,0.61600
108.1,0.61800
108.3,0.61800
108.4,0.61800
109.3,0.62000
109.3,0.62000
108.2,0.62200
108.8,0.62200
111.3,0.62200
112.1,0.62400
111.6,0.62400
110.9,0.62600
111.4,0.62600
112.5,0.62800
111.9,0.62800
112.5,0.62800
114.3,0.63000
115.2,0.63000
116.1,0.63200
116.4,0.63200
116.3,0.63400
114.8,0.63400
114.4,0.63400
116.9,0.63600
116.9,0.63600
117.0,0.63600
117.1,0.63800
115.8,0.63800
118.2,0.64000
119.6,0.64000
120.7,0.64200
119.6,0.64200
119.2,0.64400
119.7,0.64400
119.6,0.64400
122.5,0.64600
121.2,0.64600
120.4,0.64600
119.3,0.64800
123.6,0.65000
121.9,0.65000
122.7,0.65000
121.5,0.65200
123.1,0.65200
124.4,0.65200
124.5,0.65400
124.8,0.65400
122.0,0.65600
124.0,0.65600
124.9,0.65800
125.0,0.65800
125.3,0.66000
127.3,0.66000
127.0,0.66000
125.4,0.66200
125.3,0.66200
127.8,0.66200
128.1,0.66400
126.7,0.66600
130.4,0.66600
129.5,0.66600
129.8,0.66800
129.4,0.66800
129.9,0.66800
131.1,0.67000
129.4,0.67000
129.2,0.67200
130.4,0.67200
130.3,0.67400
128.9,0.67400
131.2,0.67600
133.5,0.67600
134.5,0.67600
134.6,0.67800
132.7,0.67800
135.3,0.67800
134.6,0.68000
134.4,0.68000
135.6,0.68200
134.8,0.68200
137.2,0.68400
136.9,0.68400
135.7,0.68400
134.8,0.68600
136.9,0.68600
137.7,0.68800
139.2,0.68800
138.3,0.69000
137.3,0.69000
141.1,0.69000
141.9,0.69200
140.0,0.69200
141.8,0.69200
139.3,0.69400
139.1,0.69400
142.4,0.69600
141.8,0.69600
140.4,0.69800
141.0,0.69800
24.5,0.70000
-0.7,0.70000


