""
"Test Method","UG Lab Glass 3 Pt Bend mm_N.msm"
"Sample I. D.","AR.mss"
"Specimen Number","9"

"Load (N)","Crosshead (mm)"

5.9,0.00000
3.3,0.00000
4.0,0.00000
2.7,0.00200
4.0,0.00200
4.0,0.00200
1.8,0.00400
1.8,0.00400
1.9,0.00600
2.8,0.00600
3.1,0.00800
3.6,0.00800
1.1,0.01000
4.1,0.01000
5.0,0.01000
4.4,0.01200
4.4,0.01200
4.3,0.01200
5.6,0.01400
5.2,0.01400
3.9,0.01600
2.7,0.01600
3.8,0.01800
2.5,0.01800
3.5,0.01800
3.7,0.02000
4.9,0.02000
3.1,0.02200
2.4,0.02200
5.5,0.02400
4.8,0.02400
3.1,0.02400
3.1,0.02600
4.1,0.02600
3.8,0.02600
4.9,0.02800
4.7,0.02800
2.5,0.03000
2.9,0.03000
5.1,0.03200
5.8,0.03200
6.6,0.03200
5.1,0.03400
4.1,0.03400
4.1,0.03600
4.2,0.03600
4.1,0.03600
2.4,0.03800
2.0,0.03800
1.3,0.04000
2.9,0.04000
3.1,0.04200
1.3,0.04200
3.6,0.04200
2.6,0.04400
3.1,0.04400
2.0,0.04400
3.0,0.04600
3.8,0.04800
2.2,0.04800
4.1,0.04800
5.1,0.05000
2.4,0.05000
1.9,0.05000
2.8,0.05200
4.5,0.05200
4.2,0.05400
2.6,0.05400
3.9,0.05600
5.3,0.05600
4.2,0.05600
5.4,0.05800
5.1,0.05800
2.9,0.05800
2.2,0.06000
3.5,0.06000
3.2,0.06200
0.8,0.06200
1.5,0.06400
2.0,0.06400
5.1,0.06600
4.3,0.06600
4.6,0.06600
2.6,0.06800
1.8,0.06800
2.9,0.06800
2.2,0.07000
4.0,0.07200
3.0,0.07200
3.7,0.07200
2.7,0.07400
2.8,0.07400
3.1,0.07400
3.5,0.07600
4.1,0.07600
5.7,0.07800
4.9,0.07800
5.4,0.08000
5.9,0.08000
7.2,0.08200
5.0,0.08200
6.7,0.08200
7.0,0.08400
4.8,0.08400
6.5,0.08400
5.1,0.08600
7.3,0.08600
9.6,0.08800
7.3,0.08800
11.0,0.09000
10.1,0.09000
11.5,0.09000
12.3,0.09200
10.8,0.09200
9.4,0.09400
9.9,0.09400
8.8,0.09600
11.7,0.09600
10.9,0.09600
12.1,0.09800
13.9,0.09800
14.1,0.09800
14.6,0.10000
13.4,0.10000
14.8,0.10200
13.8,0.10200
16.6,0.10400
15.7,0.10400
15.4,0.10600
16.2,0.10600
14.3,0.10600
14.7,0.10800
17.0,0.10800
17.6,0.11000
18.0,0.11000
16.1,0.11200
16.3,0.11200
18.9,0.11200
16.7,0.11400
18.2,0.11400
17.8,0.11400
19.8,0.11600
19.9,0.11600
20.2,0.11800
19.3,0.11800
18.6,0.12000
18.7,0.12000
22.1,0.12200
21.0,0.12200
21.2,0.12200
22.6,0.12400
21.3,0.12400
22.0,0.12400
22.1,0.12600
22.5,0.12800
21.4,0.12800
22.1,0.12800
25.1,0.13000
23.4,0.13000
23.6,0.13000
24.0,0.13200
24.7,0.13200
26.0,0.13400
24.3,0.13400
26.7,0.13600
27.3,0.13600
27.3,0.13600
27.7,0.13800
26.7,0.13800
26.8,0.14000
28.3,0.14000
27.3,0.14000
28.9,0.14200
29.5,0.14200
30.6,0.14400
31.8,0.14400
30.8,0.14600
31.9,0.14600
32.8,0.14600
32.4,0.14800
31.8,0.14800
31.5,0.15000
31.9,0.15000
32.8,0.15200
31.6,0.15200
33.0,0.15200
34.3,0.15400
34.6,0.15400
35.0,0.15400
33.2,0.15600
33.6,0.15600
34.7,0.15800
35.8,0.15800
36.4,0.16000
36.7,0.16000
35.3,0.16200
35.2,0.16200
34.9,0.16200
37.1,0.16400
38.7,0.16400
39.0,0.16400
38.6,0.16600
37.8,0.16600
41.2,0.16800
38.3,0.16800
38.9,0.17000
39.5,0.17000
37.0,0.17000
38.7,0.17200
39.2,0.17200
39.9,0.17400
39.7,0.17400
39.7,0.17600
41.4,0.17600
43.0,0.17600
42.2,0.17800
43.6,0.17800
43.5,0.17800
43.9,0.18000
44.1,0.18000
44.5,0.18200
43.6,0.18200
43.9,0.18400
43.7,0.18400
45.4,0.18600
44.9,0.18600
44.5,0.18600
45.4,0.18800
44.6,0.18800
47.8,0.18800
46.9,0.19000
47.3,0.19000
46.1,0.19200
46.6,0.19200
47.4,0.19400
46.7,0.19400
47.8,0.19400
47.8,0.19600
48.5,0.19600
50.0,0.19800
52.5,0.19800
51.6,0.20000
49.9,0.20000
53.1,0.20000
52.7,0.20200
53.0,0.20200
54.0,0.20400
53.1,0.20400
52.4,0.20400
54.9,0.20600
55.0,0.20600
54.1,0.20800
54.4,0.20800
53.1,0.21000
55.2,0.21000
54.9,0.21000
55.3,0.21200
55.8,0.21200
55.5,0.21400
55.9,0.21400
57.4,0.21600
57.3,0.21600
56.5,0.21600
57.0,0.21800
55.6,0.21800
58.6,0.21800
58.7,0.22000
59.1,0.22000
61.4,0.22200
59.3,0.22200
61.4,0.22400
61.6,0.22400
61.5,0.22600
61.6,0.22600
61.3,0.22600
62.6,0.22800
62.0,0.22800
61.4,0.22800
61.3,0.23000
63.9,0.23000
65.4,0.23200
65.1,0.23200
66.9,0.23400
65.3,0.23400
65.7,0.23400
66.2,0.23600
67.0,0.23600
65.9,0.23800
66.4,0.23800
66.2,0.24000
67.4,0.24000
67.4,0.24000
69.4,0.24200
68.6,0.24200
71.0,0.24400
70.5,0.24400
70.1,0.24400
71.4,0.24600
70.2,0.24600
72.1,0.24800
71.7,0.24800
72.3,0.25000
71.8,0.25000
70.9,0.25000
71.6,0.25200
70.1,0.25200
72.1,0.25200
73.2,0.25400
72.4,0.25600
74.1,0.25600
73.7,0.25600
75.3,0.25800
75.2,0.25800
73.2,0.25800
76.5,0.26000
74.3,0.26000
75.4,0.26200
75.9,0.26200
76.6,0.26400
75.2,0.26400
78.8,0.26400
79.6,0.26600
78.5,0.26600
79.6,0.26800
78.9,0.26800
78.1,0.26800
80.6,0.27000
79.8,0.27000
79.7,0.27200
79.3,0.27200
79.6,0.27400
80.0,0.27400
81.4,0.27400
82.9,0.27600
81.6,0.27600
82.5,0.27800
83.7,0.27800
84.1,0.28000
83.3,0.28000
84.0,0.28000
82.9,0.28200
85.6,0.28200
85.9,0.28200
84.1,0.28400
86.5,0.28400
84.2,0.28600
85.2,0.28600
86.6,0.28800
87.9,0.28800
87.7,0.29000
87.4,0.29000
88.1,0.29000
89.6,0.29200
89.5,0.29200
88.2,0.29200
88.0,0.29400
86.9,0.29400
89.1,0.29600
90.5,0.29600
90.5,0.29800
93.1,0.29800
92.7,0.29800
93.1,0.30000
93.4,0.30000
92.3,0.30200
92.5,0.30200
93.8,0.30400
93.2,0.30400
93.9,0.30600
92.6,0.30600
95.0,0.30600
92.8,0.30800
96.1,0.30800
96.0,0.30800
96.3,0.31000
95.9,0.31000
96.1,0.31200
99.0,0.31200
98.1,0.31400
99.4,0.31400
98.8,0.31400
96.8,0.31600
96.9,0.31600
98.4,0.31800
97.7,0.31800
97.8,0.32000
96.1,0.32000
100.1,0.32000
101.3,0.32200
102.0,0.32200
101.8,0.32400
101.0,0.32400
100.2,0.32400
103.0,0.32600
102.3,0.32600
102.1,0.32800
102.4,0.32800
101.9,0.33000
102.9,0.33000
102.7,0.33000
103.3,0.33200
104.7,0.33200
104.1,0.33400
104.7,0.33400
107.6,0.33600
105.1,0.33600
105.6,0.33600
106.3,0.33800
106.1,0.33800
105.9,0.33800
107.8,0.34000
108.1,0.34000
108.7,0.34200
110.9,0.34200
109.5,0.34400
109.0,0.34400
111.1,0.34600
108.8,0.34600
113.0,0.34600
111.3,0.34800
110.5,0.34800
112.7,0.34800
113.3,0.35000
112.1,0.35000
112.5,0.35200
113.3,0.35200
111.0,0.35400
114.8,0.35400
113.9,0.35400
114.8,0.35600
115.4,0.35600
115.2,0.35800
116.3,0.35800
115.5,0.36000
116.1,0.36000
117.1,0.36000
118.5,0.36200
116.6,0.36200
116.5,0.36200
116.5,0.36400
116.3,0.36400
116.0,0.36600
118.4,0.36600
118.1,0.36800
118.3,0.36800
119.4,0.37000
119.0,0.37000
119.0,0.37000
117.0,0.37200
119.2,0.37200
121.8,0.37200
120.3,0.37400
121.9,0.37400
120.3,0.37600
122.9,0.37600
125.3,0.37800
123.4,0.37800
123.4,0.37800
124.2,0.38000
125.8,0.38000
126.1,0.38200
125.8,0.38200
124.4,0.38400
124.5,0.38400
126.3,0.38400
125.3,0.38600
126.7,0.38600
126.1,0.38600
128.3,0.38800
128.5,0.38800
128.8,0.39000
128.6,0.39000
128.2,0.39200
127.3,0.39200
128.8,0.39400
129.7,0.39400
128.5,0.39400
127.5,0.39600
130.3,0.39600
129.5,0.39600
132.7,0.39800
131.3,0.40000
131.3,0.40000
132.5,0.40000
134.3,0.40200
133.5,0.40200
133.1,0.40200
132.4,0.40400
134.8,0.40400
134.2,0.40600
136.2,0.40600
135.7,0.40800
137.3,0.40800
136.9,0.41000
136.2,0.41000
136.8,0.41000
137.6,0.41200
138.4,0.41200
136.6,0.41200
137.5,0.41400
137.3,0.41400
137.3,0.41600
139.3,0.41600
138.8,0.41800
139.1,0.41800
140.1,0.41800
138.7,0.42000
143.0,0.42000
140.6,0.42200
140.7,0.42200
143.1,0.42400
143.8,0.42400
143.3,0.42400
140.1,0.42600
141.5,0.42600
143.6,0.42600
144.4,0.42800
142.9,0.42800
143.6,0.43000
141.7,0.43000
145.7,0.43200
146.8,0.43200
146.6,0.43400
145.4,0.43400
145.9,0.43400
148.5,0.43600
147.3,0.43600
146.7,0.43800
146.4,0.43800
145.1,0.44000
148.0,0.44000
149.2,0.44000
149.8,0.44200
148.7,0.44200
150.2,0.44200
149.6,0.44400
151.1,0.44400
151.9,0.44600
151.1,0.44600
151.8,0.44800
151.1,0.44800
152.9,0.45000
152.5,0.45000
150.3,0.45000
151.9,0.45200
152.3,0.45200
153.4,0.45200
153.3,0.45400
153.5,0.45400
153.8,0.45600
153.5,0.45600
155.3,0.45800
156.9,0.45800
157.3,0.45800
154.9,0.46000
155.0,0.46000
154.4,0.46200
156.5,0.46200
156.1,0.46400
156.9,0.46400
157.9,0.46400
158.1,0.46600
159.6,0.46600
159.3,0.46600
159.7,0.46800
161.1,0.46800
160.2,0.47000
160.1,0.47000
163.4,0.47200
162.7,0.47200
159.8,0.47400
161.9,0.47400
162.7,0.47400
165.0,0.47600
163.7,0.47600
163.6,0.47600
163.5,0.47800
164.8,0.48000
165.6,0.48000
164.7,0.48000
164.0,0.48200
165.7,0.48200
167.3,0.48200
167.3,0.48400
168.4,0.48400
166.1,0.48600
166.2,0.48600
167.8,0.48800
166.7,0.48800
169.8,0.49000
168.7,0.49000
169.0,0.49000
168.6,0.49200
170.5,0.49200
168.5,0.49200
167.6,0.49400
169.1,0.49400
170.7,0.49600
171.4,0.49600
171.1,0.49800
172.3,0.49800
172.3,0.49800
171.7,0.50000
5.6,0.50000


