""
"Test Method","UG Lab Glass 3 Pt Bend mm_N.msm"
"Sample I. D.","Etched.mss"
"Specimen Number","3"

"Load (N)","Crosshead (mm)"

-0.6,0.00000
1.3,0.00200
-0.3,0.00400
0.5,0.00600
-0.5,0.00800
0.6,0.00800
3.1,0.01000
1.4,0.01200
-1.3,0.01400
0.8,0.01600
-0.1,0.01600
-0.3,0.01800
0.6,0.02000
-1.2,0.02200
-0.5,0.02400
0.7,0.02400
-0.5,0.02600
-1.9,0.02800
0.6,0.03000
1.0,0.03200
-0.1,0.03400
-1.7,0.03400
-0.6,0.03600
-0.7,0.03800
1.0,0.04000
1.0,0.04200
-1.0,0.04400
-0.5,0.04600
-2.7,0.04600
-1.9,0.04800
0.4,0.05000
0.2,0.05200
1.2,0.05400
-1.9,0.05600
-1.1,0.05600
-0.1,0.05800
-0.7,0.06000
0.8,0.06200
-1.7,0.06400
0.9,0.06600
0.5,0.06600
0.6,0.06800
1.6,0.07000
0.8,0.07200
-0.8,0.07400
1.0,0.07600
0.4,0.07800
-0.3,0.07800
1.1,0.08000
-1.2,0.08200
-1.4,0.08400
-0.3,0.08600
1.1,0.08800
-0.9,0.08800
-1.4,0.09000
-0.9,0.09200
-0.4,0.09400
-0.9,0.09600
-0.4,0.09600
-0.8,0.09800
1.7,0.10000
0.1,0.10200
-2.3,0.10400
1.8,0.10600
-0.4,0.10600
0.8,0.10800
-1.4,0.11000
1.2,0.11200
-0.7,0.11400
-0.1,0.11600
1.1,0.11800
1.0,0.11800
0.4,0.12000
2.1,0.12200
-0.1,0.12400
0.8,0.12600
1.7,0.12800
-0.8,0.12800
0.5,0.13000
-0.3,0.13200
0.8,0.13400
-0.4,0.13600
-0.4,0.13600
2.4,0.13800
-0.1,0.14000
0.1,0.14200
-0.3,0.14400
-3.7,0.14600
0.5,0.14600
-1.8,0.14800
-1.0,0.15000
1.0,0.15200
0.3,0.15400
0.4,0.15600
0.2,0.15800
0.5,0.15800
-0.8,0.16000
0.8,0.16200
2.1,0.16400
-0.6,0.16600
-2.2,0.16800
-0.6,0.16800
0.9,0.17000
-0.1,0.17200
0.5,0.17400
-1.3,0.17600
0.3,0.17600
-0.7,0.17800
-2.7,0.18000
-0.6,0.18200
1.5,0.18400
1.0,0.18600
0.6,0.18600
-0.5,0.19000
-1.1,0.19000
-1.1,0.19200
1.5,0.19400
2.0,0.19600
-1.3,0.19800
2.0,0.20000
-2.2,0.20000
0.5,0.20200
0.8,0.20400
2.0,0.20600
0.4,0.20800
-1.5,0.20800
-0.1,0.21000
2.0,0.21200
1.7,0.21400
0.4,0.21600
0.0,0.21600
0.9,0.21800
1.8,0.22000
0.5,0.22200
0.1,0.22400
2.1,0.22600
0.2,0.22600
1.4,0.22800
2.5,0.23000
2.3,0.23200
1.6,0.23400
-1.7,0.23600
3.2,0.23800
1.1,0.23800
1.4,0.24000
3.1,0.24200
3.3,0.24400
6.1,0.24600
4.8,0.24800
4.2,0.24800
6.4,0.25000
6.4,0.25200
10.4,0.25400
9.4,0.25600
9.6,0.25600
11.2,0.25800
9.6,0.26000
13.0,0.26200
11.6,0.26400
12.2,0.26600
12.1,0.26600
12.5,0.26800
15.5,0.27000
15.3,0.27200
16.4,0.27400
19.2,0.27600
16.3,0.27800
17.2,0.27800
17.3,0.28000
17.6,0.28200
20.6,0.28400
20.8,0.28600
19.2,0.28800
21.0,0.28800
21.0,0.29000
24.1,0.29200
21.4,0.29400
25.9,0.29600
25.5,0.29600
25.4,0.29800
28.2,0.30000
27.3,0.30200
25.1,0.30400
29.8,0.30600
29.1,0.30600
30.2,0.30800
27.6,0.31000
30.7,0.31200
30.7,0.31400
29.5,0.31600
33.0,0.31800
34.4,0.31800
35.7,0.32000
35.4,0.32200
34.4,0.32400
33.2,0.32600
35.3,0.32800
37.6,0.32800
39.3,0.33000
40.9,0.33200
38.6,0.33400
41.3,0.33600
41.1,0.33600
42.0,0.33800
42.1,0.34000
41.3,0.34200
44.5,0.34400
42.4,0.34400
43.7,0.34600
45.5,0.34800
44.3,0.35000
48.0,0.35200
47.1,0.35400
45.9,0.35400
49.2,0.35600
47.6,0.35800
48.8,0.36000
51.4,0.36200
48.9,0.36400
53.7,0.36600
54.8,0.36600
55.3,0.36800
52.6,0.37000
54.8,0.37200
55.8,0.37400
55.5,0.37600
55.9,0.37600
57.0,0.37800
58.5,0.38000
57.6,0.38200
59.6,0.38400
61.0,0.38400
60.3,0.38600
61.7,0.38800
62.9,0.39000
62.3,0.39200
63.9,0.39400
65.3,0.39600
65.0,0.39800
67.2,0.39800
67.2,0.40000
66.5,0.40200
67.6,0.40400
70.2,0.40600
72.2,0.40800
70.8,0.40800
69.1,0.41000
71.8,0.41200
70.8,0.41400
70.5,0.41600
73.5,0.41600
72.8,0.41800
75.3,0.42000
73.6,0.42200
75.2,0.42400
77.0,0.42400
77.6,0.42600
78.6,0.42800
77.3,0.43000
77.9,0.43200
80.0,0.43400
78.3,0.43400
81.5,0.43800
82.8,0.43800
82.2,0.44000
82.4,0.44200
84.0,0.44400
84.4,0.44600
85.8,0.44800
84.7,0.44800
88.9,0.45000
85.8,0.45200
86.4,0.45400
88.3,0.45600
88.7,0.45600
90.3,0.45800
90.3,0.46000
91.2,0.46200
91.2,0.46400
92.8,0.46600
93.0,0.46600
92.6,0.46800
94.9,0.47000
98.0,0.47200
94.3,0.47400
98.9,0.47400
97.6,0.47800
96.5,0.47800
98.6,0.48000
98.0,0.48200
99.7,0.48400
98.9,0.48600
100.5,0.48800
102.3,0.48800
102.2,0.49000
102.7,0.49200
102.1,0.49400
103.4,0.49600
106.8,0.49600
106.8,0.49800
105.2,0.50000
107.5,0.50200
106.3,0.50400
108.8,0.50400
108.2,0.50600
109.1,0.50800
110.8,0.51000
109.2,0.51200
112.1,0.51400
111.2,0.51400
111.9,0.51600
114.3,0.51800
113.2,0.52000
114.3,0.52200
115.2,0.52400
114.8,0.52600
114.8,0.52600
116.0,0.52800
117.6,0.53000
120.0,0.53200
118.4,0.53400
121.2,0.53600
120.6,0.53600
121.5,0.53800
123.8,0.54000
122.9,0.54200
127.9,0.54400
126.1,0.54400
125.3,0.54600
125.2,0.54800
126.5,0.55000
128.0,0.55200
129.2,0.55400
126.9,0.55400
130.1,0.55600
130.8,0.55800
130.8,0.56000
133.1,0.56200
132.0,0.56400
132.9,0.56600
133.6,0.56800
132.5,0.56800
136.7,0.57000
137.3,0.57200
138.3,0.57400
137.7,0.57600
137.9,0.57600
137.9,0.57800
137.9,0.58000
138.4,0.58200
141.1,0.58400
141.5,0.58600
142.6,0.58600
141.4,0.58800
143.0,0.59000
143.3,0.59200
144.5,0.59400
147.4,0.59600
145.7,0.59800
148.2,0.59800
147.4,0.60000
146.7,0.60200
148.0,0.60400
149.4,0.60600
149.7,0.60800
151.6,0.60800
153.3,0.61000
152.4,0.61200
151.9,0.61400
155.0,0.61600
157.1,0.61600
155.3,0.61800
156.8,0.62000
157.9,0.62200
157.4,0.62400
158.8,0.62600
158.3,0.62600
159.6,0.62800
161.1,0.63000
161.0,0.63200
161.5,0.63400
161.1,0.63400
161.7,0.63800
163.5,0.63800
164.5,0.64000
165.5,0.64200
166.6,0.64400
164.9,0.64600
166.2,0.64600
167.8,0.64800
168.6,0.65000
168.9,0.65200
167.3,0.65400
169.3,0.65600
170.1,0.65600
169.8,0.65800
172.6,0.66000
174.3,0.66200
174.7,0.66400
174.8,0.66400
175.2,0.66600
175.7,0.66800
173.9,0.67000
177.2,0.67200
177.8,0.67400
178.1,0.67400
180.0,0.67600
177.7,0.67800
179.9,0.68000
180.0,0.68200
181.9,0.68400
183.9,0.68600
182.7,0.68600
183.3,0.68800
183.8,0.69000
183.9,0.69200
185.2,0.69400
185.2,0.69600
189.5,0.69600
188.3,0.69800
186.9,0.70000
187.5,0.70200
190.5,0.70400
192.6,0.70600
192.5,0.70600
193.3,0.70800
193.1,0.71000
192.9,0.71200
194.3,0.71400
194.7,0.71600
195.9,0.71800
196.5,0.71800
196.8,0.72000
196.4,0.72200
199.5,0.72400
196.7,0.72600
200.4,0.72800
201.4,0.72800
202.6,0.73000
202.5,0.73200
202.6,0.73400
203.0,0.73600
204.6,0.73600
205.7,0.73800
207.7,0.74000
205.4,0.74200
206.6,0.74400
205.5,0.74600
207.4,0.74600
207.9,0.74800
209.6,0.75000
210.6,0.75200
210.7,0.75400
212.6,0.75600
212.0,0.75800
214.2,0.75800
213.9,0.76000
217.7,0.76200
216.8,0.76400
217.1,0.76600
215.7,0.76800
216.0,0.76800
218.6,0.77000
217.6,0.77200
216.2,0.77400
220.2,0.77600
219.1,0.77600
220.7,0.77800
219.5,0.78000
219.9,0.78200
224.4,0.78400
223.8,0.78600
226.5,0.78600
224.8,0.78800
225.3,0.79000
227.1,0.79200
226.7,0.79400
229.8,0.79600
228.4,0.79800
227.7,0.79800
229.9,0.80000
231.0,0.80200
230.7,0.80400
232.8,0.80600
232.9,0.80800
235.4,0.80800
236.1,0.81000
233.4,0.81200
235.0,0.81400
234.3,0.81600
237.3,0.81600
238.2,0.81800
239.4,0.82000
240.2,0.82200
238.5,0.82400
241.9,0.82600
240.8,0.82600
243.1,0.82800
242.4,0.83000
243.9,0.83200
245.9,0.83400
244.3,0.83600
246.3,0.83800
246.5,0.83800
248.9,0.84000
248.0,0.84200
248.4,0.84400
250.7,0.84600
247.8,0.84800
248.3,0.84800
250.0,0.85000
253.7,0.85200
251.6,0.85400
253.0,0.85600
254.8,0.85600
253.0,0.85800
254.2,0.86000
256.5,0.86200
256.7,0.86400
257.0,0.86600
255.7,0.86600
257.4,0.86800
258.8,0.87000
260.7,0.87200
261.1,0.87400
259.9,0.87400
264.0,0.87800
262.2,0.87800
262.2,0.88000
265.2,0.88200
264.8,0.88400
268.6,0.88600
264.1,0.88800
265.9,0.88800
268.5,0.89000
268.6,0.89200
269.3,0.89400
269.2,0.89600
270.3,0.89600
272.7,0.89800
272.0,0.90000
272.7,0.90200
273.7,0.90400
273.1,0.90600
274.4,0.90600
275.5,0.90800
275.8,0.91000
276.5,0.91200
275.1,0.91400
277.9,0.91600
280.0,0.91800
279.4,0.91800
281.2,0.92000
281.7,0.92200
282.2,0.92400
281.8,0.92600
281.5,0.92800
282.9,0.92800
285.2,0.93000
286.8,0.93200
285.4,0.93400
285.1,0.93600
285.6,0.93600
289.1,0.93800
292.2,0.94000
289.3,0.94200
290.9,0.94400
291.5,0.94600
289.5,0.94600
292.3,0.95000
294.6,0.95000
293.7,0.95200
294.6,0.95400
294.3,0.95600
295.0,0.95800
297.6,0.96000
297.3,0.96000
300.6,0.96200
300.5,0.96400
299.4,0.96600
301.1,0.96800
300.5,0.96800
302.0,0.97000
301.5,0.97200
301.7,0.97400
304.1,0.97600
305.4,0.97600
306.3,0.97800
307.1,0.98000
305.5,0.98200
307.2,0.98400
308.1,0.98600
309.3,0.98600
308.6,0.98800
307.7,0.99000
311.6,0.99200
311.6,0.99400
311.6,0.99600
312.7,0.99800
312.3,0.99800
314.0,1.00000
316.1,1.00200
315.6,1.00400
315.8,1.00600
318.2,1.00800
317.6,1.00800
317.7,1.01000
317.7,1.01200
319.2,1.01400
318.4,1.01600
322.4,1.01600
322.5,1.01800
323.4,1.02000
323.9,1.02200
324.3,1.02400
323.8,1.02600
324.7,1.02600
327.3,1.02800
326.9,1.03000
325.0,1.03200
327.8,1.03400
327.8,1.03600
330.0,1.03800
331.3,1.03800
330.4,1.04000
330.8,1.04200
333.4,1.04400
331.4,1.04600
331.4,1.04800
333.2,1.04800
334.6,1.05000
337.5,1.05200
336.2,1.05400
337.6,1.05600
338.7,1.05600
337.3,1.05800
338.8,1.06000
339.7,1.06200
339.1,1.06400
342.1,1.06600
343.1,1.06600
342.7,1.06800
341.6,1.07000
343.1,1.07200
344.6,1.07400
345.5,1.07600
347.3,1.07800
345.5,1.07800
347.4,1.08000
347.4,1.08200
347.0,1.08400
350.0,1.08600
350.5,1.08800
352.2,1.08800
351.3,1.09000
351.8,1.09200
352.5,1.09400
352.4,1.09600
354.9,1.09600
355.7,1.09800
353.9,1.10000
353.9,1.10200
357.9,1.10400
355.9,1.10600
359.4,1.10600
357.6,1.10800
359.4,1.11000
358.8,1.11200
358.9,1.11400
362.2,1.11600
363.0,1.11800
362.4,1.11800
365.4,1.12000
364.7,1.12200
365.2,1.12400
365.6,1.12600
1.7,1.12600


