""
"Test Method","UG Lab Glass 3 Pt Bend mm_N.msm"
"Sample I. D.","Etched.mss"
"Specimen Number","2"

"Load (N)","Crosshead (mm)"

-2.3,0.00000
-2.3,0.00200
-1.6,0.00200
-1.3,0.00200
-1.1,0.00400
-1.9,0.00400
-2.0,0.00600
-2.0,0.00600
-0.9,0.00800
-0.8,0.00800
0.8,0.00800
-2.2,0.01000
-0.9,0.01000
2.6,0.01200
1.0,0.01200
-1.4,0.01400
0.1,0.01400
-0.5,0.01400
-3.5,0.01600
-0.7,0.01600
-1.4,0.01600
-0.7,0.01800
-0.7,0.01800
0.5,0.02000
1.3,0.02000
0.4,0.02200
0.8,0.02200
0.5,0.02400
-1.1,0.02400
-0.7,0.02400
-0.6,0.02600
0.3,0.02600
-1.0,0.02600
-2.5,0.02800
-1.0,0.02800
-0.3,0.03000
-0.8,0.03000
-2.2,0.03200
-2.2,0.03200
1.0,0.03200
-1.5,0.03400
0.5,0.03400
-1.4,0.03600
-1.6,0.03600
-0.1,0.03800
0.3,0.03800
0.2,0.03800
-1.0,0.04000
-1.7,0.04000
0.5,0.04000
1.2,0.04200
0.4,0.04200
-0.6,0.04400
0.5,0.04400
2.2,0.04600
-0.2,0.04600
0.7,0.04800
-0.4,0.04800
0.2,0.04800
-1.9,0.05000
-1.0,0.05000
-2.0,0.05000
-0.5,0.05200
-1.9,0.05400
-1.2,0.05400
0.7,0.05400
-1.5,0.05600
-1.2,0.05600
-0.6,0.05600
0.0,0.05800
-0.1,0.05800
-1.1,0.06000
-0.4,0.06000
-1.0,0.06200
-0.2,0.06200
1.6,0.06400
0.9,0.06400
-0.5,0.06400
0.6,0.06600
1.2,0.06600
1.4,0.06600
0.3,0.06800
0.3,0.06800
-0.9,0.07000
-2.6,0.07000
-0.3,0.07200
-1.6,0.07200
0.6,0.07200
-0.9,0.07400
-0.6,0.07400
1.8,0.07600
0.1,0.07600
1.4,0.07800
-0.2,0.07800
-1.2,0.07800
-0.8,0.08000
-0.7,0.08000
-0.4,0.08200
-0.8,0.08200
-2.4,0.08200
-0.8,0.08400
0.5,0.08400
1.0,0.08600
-1.0,0.08600
0.8,0.08800
-0.8,0.08800
0.8,0.08800
2.0,0.09000
1.1,0.09000
-2.2,0.09000
-1.2,0.09200
0.0,0.09200
-0.9,0.09400
-1.3,0.09400
0.1,0.09600
-2.4,0.09600
-0.2,0.09600
0.0,0.09800
2.2,0.09800
-0.4,0.10000
-0.4,0.10000
1.5,0.10200
-0.6,0.10200
0.9,0.10200
-1.9,0.10400
-0.2,0.10400
0.3,0.10400
-0.5,0.10600
0.1,0.10600
-1.2,0.10800
-1.2,0.10800
2.4,0.11000
0.2,0.11000
1.5,0.11200
-1.5,0.11200
-1.2,0.11200
-0.8,0.11400
-1.5,0.11400
-1.0,0.11400
-0.3,0.11600
-0.8,0.11600
0.6,0.11800
0.3,0.11800
0.3,0.12000
-1.0,0.12000
-1.8,0.12000
-1.1,0.12200
-0.8,0.12200
0.0,0.12400
0.1,0.12400
-1.9,0.12600
-2.3,0.12600
-1.4,0.12800
-1.4,0.12800
-1.4,0.12800
-0.4,0.13000
-1.1,0.13000
0.2,0.13000
1.4,0.13200
1.4,0.13200
1.1,0.13400
0.2,0.13400
-1.5,0.13600
-0.5,0.13600
-0.4,0.13600
-1.3,0.13800
-1.2,0.13800
-0.6,0.14000
1.1,0.14000
1.5,0.14200
0.2,0.14200
0.0,0.14200
-0.3,0.14400
0.4,0.14400
-0.2,0.14400
-2.5,0.14600
-0.2,0.14600
0.2,0.14800
0.7,0.14800
-0.4,0.15000
-1.1,0.15000
-1.8,0.15200
0.2,0.15200
-0.6,0.15200
-1.8,0.15400
-2.3,0.15400
0.3,0.15400
0.5,0.15600
0.4,0.15800
0.7,0.15800
-0.6,0.15800
-1.0,0.16000
-2.3,0.16000
-1.4,0.16000
-1.9,0.16200
-1.1,0.16200
0.6,0.16400
-0.8,0.16400
-0.5,0.16600
-0.6,0.16600
1.3,0.16800
0.1,0.16800
-1.0,0.16800
0.3,0.17000
-0.8,0.17000
-0.1,0.17000
-1.1,0.17200
-0.7,0.17400
0.2,0.17400
1.4,0.17400
-0.5,0.17600
-0.5,0.17600
-0.4,0.17600
0.5,0.17800
1.4,0.17800
-0.3,0.18000
-1.4,0.18000
-0.8,0.18200
0.3,0.18200
0.9,0.18200
0.6,0.18400
0.6,0.18400
0.4,0.18600
1.4,0.18600
3.6,0.18600
2.0,0.18800
-0.3,0.18800
-0.9,0.19000
-1.4,0.19000
0.4,0.19200
-1.1,0.19200
-1.8,0.19200
-1.6,0.19400
-2.5,0.19400
0.5,0.19400
-2.3,0.19600
0.3,0.19800
-0.8,0.19800
0.6,0.19800
0.1,0.20000
-2.0,0.20000
-1.8,0.20000
-2.9,0.20200
-3.4,0.20200
0.9,0.20400
-3.2,0.20400
-0.8,0.20600
-1.9,0.20600
-1.0,0.20600
0.2,0.20800
-0.5,0.20800
1.3,0.20800
0.4,0.21000
1.4,0.21000
1.0,0.21200
0.6,0.21200
-0.1,0.21400
0.3,0.21400
-0.5,0.21600
0.4,0.21600
3.5,0.21600
1.7,0.21800
4.6,0.21800
2.9,0.21800
3.8,0.22000
3.4,0.22000
4.0,0.22200
3.4,0.22200
0.6,0.22400
5.0,0.22400
6.2,0.22400
5.1,0.22600
5.0,0.22600
6.0,0.22800
4.9,0.22800
6.8,0.23000
6.7,0.23000
8.5,0.23000
8.4,0.23200
7.1,0.23200
8.7,0.23200
10.6,0.23400
8.0,0.23400
8.0,0.23600
7.6,0.23600
9.0,0.23800
10.0,0.23800
8.0,0.24000
10.2,0.24000
8.8,0.24000
10.8,0.24200
10.9,0.24200
12.3,0.24200
10.6,0.24400
13.6,0.24400
11.9,0.24600
13.6,0.24600
11.9,0.24800
10.9,0.24800
12.5,0.24800
12.9,0.25000
15.1,0.25000
16.1,0.25200
15.7,0.25200
14.5,0.25400
17.1,0.25400
16.7,0.25600
16.3,0.25600
14.0,0.25600
14.9,0.25800
14.5,0.25800
15.9,0.25800
16.8,0.26000
16.4,0.26000
16.5,0.26200
18.5,0.26200
18.6,0.26400
20.9,0.26400
19.0,0.26400
17.5,0.26600
21.2,0.26600
21.5,0.26800
20.0,0.26800
21.2,0.27000
20.9,0.27000
21.5,0.27200
23.7,0.27200
22.4,0.27200
21.1,0.27400
25.5,0.27400
23.0,0.27400
25.3,0.27600
24.9,0.27600
25.5,0.27800
26.7,0.27800
24.2,0.28000
25.6,0.28000
27.7,0.28000
24.4,0.28200
24.8,0.28200
26.3,0.28400
27.4,0.28400
26.6,0.28600
27.7,0.28600
28.8,0.28600
28.7,0.28800
28.3,0.28800
29.3,0.28800
28.8,0.29000
28.3,0.29000
28.4,0.29200
30.1,0.29200
29.2,0.29400
29.1,0.29400
31.8,0.29600
31.7,0.29600
31.2,0.29600
30.9,0.29800
34.3,0.29800
32.5,0.29800
32.8,0.30000
33.6,0.30000
32.7,0.30200
33.2,0.30200
34.1,0.30400
32.6,0.30400
33.3,0.30400
34.7,0.30600
34.3,0.30600
34.0,0.30800
37.3,0.30800
36.3,0.31000
37.9,0.31000
36.7,0.31000
38.0,0.31200
36.7,0.31200
37.3,0.31200
38.4,0.31400
37.2,0.31400
37.8,0.31600
39.1,0.31600
39.7,0.31800
39.9,0.31800
42.5,0.32000
40.7,0.32000
40.9,0.32000
40.6,0.32200
43.4,0.32200
42.5,0.32200
41.9,0.32400
42.3,0.32600
43.1,0.32600
44.3,0.32600
44.3,0.32800
43.8,0.32800
43.4,0.32800
44.3,0.33000
45.5,0.33000
45.7,0.33200
45.3,0.33200
45.6,0.33400
45.4,0.33400
44.5,0.33600
45.2,0.33600
47.5,0.33600
44.8,0.33800
45.9,0.33800
48.1,0.33800
49.7,0.34000
47.8,0.34000
46.7,0.34200
47.6,0.34200
48.4,0.34400
50.7,0.34400
49.7,0.34400
48.3,0.34600
48.6,0.34600
49.0,0.34800
50.8,0.34800
52.0,0.35000
51.9,0.35000
52.3,0.35000
52.3,0.35200
53.1,0.35200
52.2,0.35400
53.7,0.35400
53.5,0.35400
53.4,0.35600
53.9,0.35600
52.4,0.35800
54.1,0.35800
54.5,0.36000
54.1,0.36000
55.7,0.36000
56.1,0.36200
56.3,0.36200
56.8,0.36400
56.7,0.36400
57.9,0.36600
57.3,0.36600
59.0,0.36600
59.7,0.36800
58.8,0.36800
59.4,0.36800
62.0,0.37000
59.9,0.37000
58.7,0.37200
58.1,0.37200
61.9,0.37400
61.9,0.37400
61.5,0.37600
61.8,0.37600
61.9,0.37600
62.0,0.37800
63.1,0.37800
63.5,0.37800
64.1,0.38000
63.3,0.38000
62.8,0.38200
63.8,0.38200
63.2,0.38400
64.7,0.38400
65.9,0.38400
65.7,0.38600
66.0,0.38600
68.4,0.38800
66.1,0.38800
68.5,0.39000
67.0,0.39000
67.3,0.39000
68.3,0.39200
68.1,0.39200
68.0,0.39200
70.8,0.39400
70.2,0.39400
70.2,0.39600
69.3,0.39600
70.3,0.39800
72.0,0.39800
71.4,0.40000
71.0,0.40000
72.9,0.40000
71.1,0.40200
71.1,0.40200
71.5,0.40200
71.1,0.40400
70.9,0.40400
72.3,0.40600
74.3,0.40600
72.7,0.40800
72.7,0.40800
73.2,0.40800
73.9,0.41000
75.1,0.41000
76.2,0.41200
73.8,0.41200
75.9,0.41400
76.7,0.41400
74.6,0.41400
73.9,0.41600
74.3,0.41600
75.5,0.41600
77.0,0.41800
77.3,0.41800
78.8,0.42000
80.4,0.42000
78.9,0.42200
78.4,0.42200
80.2,0.42400
79.1,0.42400
80.8,0.42400
78.8,0.42600
81.6,0.42600
80.8,0.42600
81.3,0.42800
84.4,0.42800
83.1,0.43000
84.1,0.43000
84.1,0.43200
83.6,0.43200
84.3,0.43200
84.2,0.43400
83.9,0.43400
83.2,0.43600
84.5,0.43600
84.7,0.43800
84.9,0.43800
85.0,0.44000
84.8,0.44000
85.5,0.44000
86.9,0.44200
87.5,0.44200
86.9,0.44200
88.7,0.44400
87.6,0.44400
88.9,0.44600
89.0,0.44600
89.3,0.44800
88.5,0.44800
87.9,0.44800
87.2,0.45000
89.9,0.45000
15.6,0.45200
0.7,0.45200


