""
"Test Method","UG Lab Glass 3 Pt Bend mm_N.msm"
"Sample I. D.","IonExchange.mss"
"Specimen Number","9"

"Load (N)","Crosshead (mm)"

-0.8,0.00000
-2.8,0.00200
-0.9,0.00400
1.9,0.00600
0.4,0.00600
0.5,0.00800
-1.2,0.01000
-0.4,0.01200
-0.1,0.01400
-2.7,0.01400
-1.4,0.01600
-0.4,0.01800
-0.1,0.02000
0.2,0.02200
-0.7,0.02400
-2.1,0.02600
-2.6,0.02800
-2.0,0.02800
-0.9,0.03000
2.4,0.03200
-1.4,0.03400
-0.2,0.03600
-1.3,0.03800
0.7,0.03800
-0.9,0.04000
-2.9,0.04200
-2.2,0.04400
-1.0,0.04600
-0.6,0.04600
-0.4,0.04800
0.2,0.05000
0.5,0.05200
-1.4,0.05400
-2.6,0.05600
-1.7,0.05600
-1.7,0.05800
-0.7,0.06000
-0.8,0.06200
-0.2,0.06400
0.4,0.06600
-0.8,0.06800
-1.0,0.06800
-0.9,0.07000
-4.1,0.07200
0.8,0.07400
1.4,0.07600
-0.5,0.07800
-0.2,0.07800
-1.7,0.08000
-1.5,0.08200
-0.4,0.08400
-1.6,0.08600
0.2,0.08600
-0.8,0.08800
-1.7,0.09000
-1.3,0.09200
-0.9,0.09400
0.2,0.09400
-1.8,0.09600
-1.2,0.09800
-0.8,0.10000
-2.0,0.10200
-1.0,0.10400
-1.2,0.10400
-2.6,0.10600
-1.9,0.10800
-1.5,0.11000
-0.4,0.11200
-1.7,0.11400
-0.6,0.11600
-0.7,0.11600
-1.4,0.11800
1.0,0.12000
-1.7,0.12200
-2.8,0.12400
-2.6,0.12600
-0.4,0.12600
1.8,0.12800
0.0,0.13000
0.2,0.13200
-0.1,0.13400
0.1,0.13400
1.9,0.13600
1.7,0.13800
-0.5,0.14000
-0.7,0.14200
-1.3,0.14400
-0.4,0.14400
1.2,0.14600
-3.5,0.14800
-0.4,0.15000
0.7,0.15200
-0.7,0.15400
-0.4,0.15600
-2.0,0.15600
-0.8,0.15800
-0.3,0.16000
-0.5,0.16200
0.9,0.16400
-0.3,0.16600
0.1,0.16600
-0.6,0.16800
0.9,0.17000
1.6,0.17200
-0.7,0.17400
0.9,0.17400
1.4,0.17600
0.2,0.17800
0.7,0.18000
-0.7,0.18200
0.7,0.18400
0.3,0.18400
-1.9,0.18600
0.0,0.18800
-0.9,0.19000
-1.6,0.19200
0.7,0.19400
1.8,0.19600
0.4,0.19600
0.1,0.19800
-0.4,0.20000
0.4,0.20200
-0.7,0.20400
-0.9,0.20600
-0.1,0.20600
-1.7,0.20800
-0.6,0.21000
-0.9,0.21200
-0.5,0.21400
-1.3,0.21400
-0.4,0.21600
1.3,0.21800
-0.7,0.22000
-0.9,0.22200
-2.6,0.22400
-2.1,0.22600
-2.2,0.22800
-0.6,0.22800
-2.0,0.23000
0.1,0.23200
-1.6,0.23400
-1.0,0.23600
-3.4,0.23800
0.1,0.23800
-0.7,0.24000
-0.7,0.24200
0.7,0.24400
-0.5,0.24600
-0.8,0.24600
1.5,0.24800
-0.8,0.25000
2.1,0.25200
-1.1,0.25400
-1.6,0.25600
-1.3,0.25600
-0.9,0.25800
-1.3,0.26000
-0.7,0.26200
-0.2,0.26400
0.6,0.26600
-3.8,0.26800
-0.7,0.26800
-0.7,0.27000
0.7,0.27200
-1.6,0.27400
0.6,0.27600
-1.8,0.27800
-0.3,0.27800
1.0,0.28000
-1.4,0.28200
-0.2,0.28400
-3.0,0.28600
0.2,0.28600
0.4,0.28800
-0.2,0.29000
-1.0,0.29200
-0.3,0.29400
1.4,0.29400
-1.2,0.29600
0.7,0.29800
-1.1,0.30000
-1.8,0.30200
0.0,0.30400
1.0,0.30400
-0.6,0.30800
0.9,0.30800
0.0,0.31000
-1.8,0.31200
0.2,0.31400
-2.7,0.31600
0.7,0.31800
0.6,0.31800
2.5,0.32000
1.1,0.32200
0.1,0.32400
1.3,0.32600
2.2,0.32600
0.7,0.32800
1.7,0.33000
-0.4,0.33200
-0.4,0.33400
-2.5,0.33600
-1.1,0.33600
-1.0,0.33800
-0.5,0.34000
0.2,0.34200
-1.8,0.34400
-2.0,0.34600
-2.4,0.34800
-2.1,0.35000
-0.6,0.35000
-1.6,0.35200
-1.3,0.35400
0.5,0.35600
-2.9,0.35800
0.2,0.35800
-0.6,0.36000
-2.4,0.36200
-1.7,0.36400
-0.8,0.36600
-4.2,0.36800
-1.8,0.36800
-1.4,0.37000
0.1,0.37200
-1.9,0.37400
-1.6,0.37600
-0.3,0.37800
-2.4,0.38000
-1.5,0.38000
-0.4,0.38200
-0.4,0.38400
-1.2,0.38600
-1.5,0.38800
-0.4,0.38800
-0.5,0.39000
-3.6,0.39200
1.2,0.39400
-1.5,0.39600
-1.4,0.39800
0.6,0.39800
0.6,0.40000
-0.8,0.40200
-1.2,0.40400
-2.0,0.40600
0.9,0.40600
0.7,0.40800
-1.2,0.41000
-2.7,0.41200
-2.2,0.41400
-2.0,0.41600
-0.2,0.41600
-0.7,0.41800
0.3,0.42000
-1.8,0.42200
-0.1,0.42400
-2.1,0.42600
-0.9,0.42800
1.2,0.42800
-0.8,0.43000
0.7,0.43200
-3.5,0.43400
-1.9,0.43600
-0.5,0.43800
-1.0,0.43800
-2.4,0.44000
-0.4,0.44200
-4.5,0.44400
-3.9,0.44600
-2.3,0.44600
-0.8,0.44800
-2.2,0.45000
-1.0,0.45200
-0.4,0.45400
-2.7,0.45600
-1.4,0.45600
-0.7,0.45800
0.5,0.46000
1.6,0.46200
1.3,0.46400
1.6,0.46600
0.3,0.46800
2.3,0.46800
3.5,0.47000
7.0,0.47200
5.0,0.47400
7.0,0.47600
6.7,0.47800
7.4,0.47800
5.1,0.48000
7.4,0.48200
9.7,0.48400
9.5,0.48600
10.2,0.48600
9.1,0.48800
11.8,0.49000
12.1,0.49200
11.9,0.49400
13.3,0.49600
12.9,0.49600
14.0,0.49800
13.1,0.50000
12.7,0.50200
15.7,0.50400
16.6,0.50600
16.3,0.50800
17.9,0.50800
18.0,0.51000
18.3,0.51200
20.4,0.51400
19.7,0.51600
20.8,0.51800
21.6,0.51800
20.2,0.52000
23.7,0.52200
24.1,0.52400
23.1,0.52600
26.6,0.52600
23.2,0.52800
27.5,0.53000
27.1,0.53200
26.6,0.53400
28.1,0.53600
27.8,0.53600
31.3,0.53800
29.3,0.54000
32.4,0.54200
27.8,0.54400
30.3,0.54600
33.4,0.54800
32.4,0.54800
33.3,0.55000
34.7,0.55200
35.0,0.55400
36.8,0.55600
36.9,0.55800
37.0,0.55800
38.5,0.56000
40.9,0.56200
40.8,0.56400
42.5,0.56600
38.9,0.56600
41.0,0.56800
41.8,0.57000
44.0,0.57200
43.8,0.57400
43.0,0.57600
44.9,0.57600
43.8,0.57800
46.4,0.58000
47.0,0.58200
48.7,0.58400
48.2,0.58600
49.1,0.58800
49.4,0.58800
50.2,0.59000
50.3,0.59200
53.0,0.59400
52.6,0.59600
53.3,0.59800
55.1,0.59800
53.2,0.60000
54.6,0.60200
55.8,0.60400
55.9,0.60600
57.3,0.60600
56.2,0.60800
57.0,0.61000
59.4,0.61200
58.4,0.61400
59.5,0.61400
60.3,0.61600
59.6,0.61800
61.1,0.62000
61.0,0.62200
62.2,0.62400
63.9,0.62400
63.3,0.62600
65.2,0.62800
66.1,0.63000
66.8,0.63200
66.8,0.63400
66.4,0.63600
67.6,0.63600
69.2,0.63800
70.5,0.64000
71.7,0.64200
69.1,0.64400
70.8,0.64600
71.8,0.64600
72.3,0.64800
75.1,0.65000
74.5,0.65200
74.2,0.65400
76.4,0.65400
76.6,0.65600
76.9,0.65800
78.7,0.66000
79.1,0.66200
78.5,0.66400
77.8,0.66400
78.2,0.66600
79.0,0.66800
80.7,0.67000
81.9,0.67200
81.6,0.67400
86.0,0.67600
84.5,0.67600
85.6,0.67800
83.4,0.68000
86.0,0.68200
86.8,0.68400
86.0,0.68600
87.9,0.68600
89.0,0.68800
90.5,0.69000
91.3,0.69200
91.1,0.69400
92.4,0.69400
91.1,0.69600
94.0,0.69800
93.0,0.70000
93.3,0.70200
92.4,0.70400
97.3,0.70400
97.6,0.70600
97.9,0.70800
95.9,0.71000
97.2,0.71200
100.1,0.71400
97.6,0.71600
98.9,0.71600
101.5,0.71800
101.1,0.72000
102.0,0.72200
103.6,0.72400
104.0,0.72600
103.4,0.72600
105.3,0.72800
106.7,0.73000
107.1,0.73200
107.5,0.73400
108.4,0.73400
109.8,0.73600
111.7,0.73800
113.4,0.74000
111.2,0.74200
113.2,0.74400
110.8,0.74400
112.3,0.74600
112.1,0.74800
114.1,0.75000
115.1,0.75200
114.2,0.75400
115.1,0.75600
116.9,0.75600
117.5,0.75800
119.2,0.76000
120.4,0.76200
120.0,0.76400
120.4,0.76600
118.7,0.76600
121.8,0.76800
120.7,0.77000
121.4,0.77200
124.1,0.77400
123.0,0.77400
125.5,0.77600
128.1,0.77800
126.6,0.78000
125.9,0.78200
126.6,0.78200
130.0,0.78400
128.8,0.78600
127.8,0.78800
129.5,0.79000
131.0,0.79200
132.3,0.79200
133.9,0.79400
133.1,0.79600
135.7,0.79800
135.4,0.80000
134.3,0.80200
136.1,0.80400
136.9,0.80400
139.6,0.80600
139.6,0.80800
138.3,0.81000
138.3,0.81200
139.8,0.81400
139.8,0.81400
141.7,0.81600
141.7,0.81800
142.7,0.82000
142.2,0.82200
145.0,0.82200
145.8,0.82400
145.0,0.82600
147.2,0.82800
145.7,0.83000
147.1,0.83200
148.0,0.83200
146.7,0.83400
150.5,0.83600
149.4,0.83800
151.1,0.84000
149.7,0.84200
150.2,0.84400
152.3,0.84400
152.2,0.84600
154.3,0.84800
154.0,0.85000
156.2,0.85200
157.6,0.85400
156.7,0.85400
156.4,0.85600
156.1,0.85800
157.5,0.86000
157.2,0.86200
160.0,0.86200
160.5,0.86400
159.9,0.86600
160.7,0.86800
160.9,0.87000
165.2,0.87200
162.9,0.87200
167.7,0.87600
164.8,0.87600
165.1,0.87800
167.2,0.88000
165.8,0.88200
168.3,0.88400
168.5,0.88600
167.8,0.88600
170.2,0.88800
170.9,0.89000
171.9,0.89200
171.6,0.89400
175.3,0.89400
175.1,0.89600
173.1,0.89800
173.7,0.90000
175.1,0.90200
175.8,0.90200
178.2,0.90400
177.8,0.90600
178.0,0.90800
178.4,0.91000
176.6,0.91200
180.7,0.91200
180.8,0.91400
180.9,0.91600
184.5,0.91800
183.3,0.92000
183.2,0.92200
184.1,0.92400
185.2,0.92400
187.4,0.92600
188.3,0.92800
187.9,0.93000
188.7,0.93200
188.0,0.93400
188.5,0.93400
187.3,0.93600
191.0,0.93800
191.0,0.94000
190.7,0.94200
192.8,0.94200
193.7,0.94400
191.1,0.94600
192.8,0.94800
194.6,0.95000
197.6,0.95000
196.9,0.95200
195.8,0.95400
197.5,0.95600
198.0,0.95800
200.1,0.96000
202.9,0.96000
200.1,0.96400
202.1,0.96400
202.4,0.96600
201.1,0.96800
202.2,0.97000
203.7,0.97200
206.8,0.97400
203.9,0.97400
204.0,0.97600
204.6,0.97800
204.9,0.98000
208.9,0.98200
206.6,0.98200
208.5,0.98400
211.1,0.98600
209.9,0.98800
211.6,0.99000
211.2,0.99200
213.1,0.99200
215.2,0.99400
213.3,0.99600
215.6,0.99800
214.1,1.00000
215.5,1.00200
216.2,1.00400
217.1,1.00400
216.4,1.00600
216.8,1.00800
216.8,1.01000
218.8,1.01200
218.6,1.01400
219.6,1.01400
221.4,1.01600
221.7,1.01800
223.5,1.02000
222.7,1.02200
221.0,1.02200
225.2,1.02400
226.5,1.02600
229.8,1.02800
229.1,1.03000
227.8,1.03200
230.2,1.03200
228.0,1.03400
232.2,1.03600
231.5,1.03800
231.2,1.04000
232.0,1.04200
233.2,1.04400
232.1,1.04600
233.4,1.04600
236.3,1.04800
236.5,1.05000
236.4,1.05200
236.0,1.05400
238.6,1.05400
237.3,1.05600
239.6,1.05800
239.8,1.06000
238.5,1.06200
243.0,1.06200
241.4,1.06400
242.5,1.06600
242.4,1.06800
244.1,1.07000
246.1,1.07200
244.3,1.07200
249.0,1.07600
249.1,1.07600
247.3,1.07800
249.7,1.08000
249.7,1.08200
248.8,1.08400
253.1,1.08500
251.6,1.08600
252.1,1.08800
251.4,1.09000
251.9,1.09200
253.7,1.09400
254.4,1.09400
255.1,1.09600
257.8,1.09800
256.0,1.10000
258.7,1.10200
257.8,1.10200
259.6,1.10400
259.7,1.10600
257.7,1.10800
261.8,1.11000
262.1,1.11200
261.3,1.11200
263.3,1.11600
263.6,1.11600
266.8,1.11800
264.8,1.12000
264.0,1.12200
265.5,1.12400
266.5,1.12400
267.7,1.12600
268.1,1.12800
268.7,1.13000
270.9,1.13200
270.7,1.13400
270.5,1.13400
273.5,1.13600
275.1,1.13800
274.6,1.14000
274.6,1.14200
275.2,1.14200
276.4,1.14400
276.7,1.14600
276.7,1.14800
276.4,1.15000
0.1,1.15000


