""
"Test Method","UG Lab Glass 3 Pt Bend mm_N.msm"
"Sample I. D.","Longitudinal.mss"
"Specimen Number","5"

"Load (N)","Crosshead (mm)"

-1.3,0.00000
-2.6,0.00000
-2.4,0.00000
-4.4,0.00000
-3.6,0.00000
-2.5,0.00000
-3.9,0.00000
-3.9,0.00000
-1.5,0.00000
-1.0,0.00000
-3.7,0.00000
-2.8,0.00200
-2.8,0.00200
-0.2,0.00400
-2.2,0.00600
-2.4,0.00800
-2.0,0.01000
-4.4,0.01000
-2.8,0.01200
-4.6,0.01400
-4.2,0.01600
-3.4,0.01800
-2.8,0.01800
-1.4,0.02000
-2.5,0.02200
-2.3,0.02400
-2.0,0.02600
-4.5,0.02700
-0.5,0.02800
-2.5,0.03000
-1.4,0.03200
-2.8,0.03400
-2.3,0.03600
-0.1,0.03700
-2.0,0.04000
-2.3,0.04000
-2.8,0.04200
-2.5,0.04400
-2.2,0.04600
-2.5,0.04800
-2.3,0.04800
-0.8,0.05000
-1.9,0.05200
-2.4,0.05400
-2.0,0.05600
-3.7,0.05800
-1.4,0.05800
-3.4,0.06000
-3.6,0.06200
-1.4,0.06400
-4.5,0.06600
-3.6,0.06800
-2.3,0.06800
-3.0,0.07000
0.8,0.07200
-2.2,0.07400
-4.9,0.07600
-3.8,0.07800
-4.8,0.08000
-2.8,0.08000
-2.3,0.08200
-2.2,0.08400
-2.0,0.08600
-0.7,0.08800
-3.0,0.09000
-2.4,0.09000
-2.0,0.09200
0.3,0.09400
-1.7,0.09600
-1.9,0.09800
-2.0,0.09800
-4.4,0.10000
-2.0,0.10200
-3.0,0.10400
-1.2,0.10600
-0.6,0.10600
-3.5,0.10800
-2.2,0.11000
-2.9,0.11200
-3.3,0.11400
-2.7,0.11600
-1.9,0.11700
-2.7,0.12000
-3.0,0.12000
-3.7,0.12200
-3.7,0.12400
-3.3,0.12600
-1.6,0.12800
-2.2,0.13000
-2.9,0.13000
-2.1,0.13200
-4.2,0.13400
-2.5,0.13600
-2.4,0.13800
-3.3,0.13800
-1.1,0.14000
-2.4,0.14200
-2.8,0.14400
-4.5,0.14600
-4.2,0.14600
-1.9,0.14800
-3.0,0.15000
-3.5,0.15200
-4.1,0.15400
-4.5,0.15600
-2.6,0.15600
-2.6,0.15800
-4.5,0.16000
-2.0,0.16200
-2.6,0.16400
-2.2,0.16600
-3.3,0.16800
-3.0,0.16800
-1.8,0.17000
-2.3,0.17200
0.4,0.17400
-0.6,0.17600
-2.4,0.17800
-2.3,0.17800
-3.6,0.18000
-2.2,0.18200
-1.5,0.18400
-2.7,0.18600
-3.0,0.18600
-2.3,0.18800
-4.4,0.19000
-2.2,0.19200
-2.8,0.19400
-1.5,0.19600
-3.2,0.19600
-2.6,0.19800
-1.4,0.20000
-2.8,0.20200
-1.0,0.20400
-3.9,0.20600
-2.2,0.20800
-1.5,0.20800
-3.7,0.21000
-0.5,0.21200
-2.4,0.21400
0.2,0.21600
-1.3,0.21800
-2.2,0.21800
-3.9,0.22000
-2.1,0.22200
-2.6,0.22400
-2.4,0.22600
-3.0,0.22800
-0.1,0.22800
-1.0,0.23000
-2.9,0.23200
-2.4,0.23400
-3.6,0.23600
-1.2,0.23800
-1.4,0.24000
-2.9,0.24000
-2.7,0.24200
-1.2,0.24400
-2.5,0.24600
-3.4,0.24800
-1.8,0.25000
-1.9,0.25000
-3.1,0.25200
-2.5,0.25400
-1.0,0.25600
-2.7,0.25800
-2.2,0.25800
-1.1,0.26000
-0.1,0.26200
-0.4,0.26400
-3.0,0.26600
-3.9,0.26800
-2.7,0.26800
-4.1,0.27200
-3.8,0.27200
-1.2,0.27400
-2.2,0.27600
-1.6,0.27800
-3.3,0.28000
-0.4,0.28000
-1.5,0.28200
-0.9,0.28400
0.3,0.28600
-3.2,0.28800
-0.6,0.29000
-1.1,0.29000
-2.7,0.29200
-0.3,0.29400
-3.5,0.29600
-1.5,0.29800
-1.8,0.29800
-2.7,0.30000
-2.1,0.30200
-1.8,0.30400
0.4,0.30600
0.7,0.30800
-1.4,0.30800
-0.8,0.31000
0.2,0.31200
-3.3,0.31400
-1.2,0.31600
-2.0,0.31600
-0.4,0.32000
-1.5,0.32000
-1.7,0.32200
-2.1,0.32400
-2.3,0.32600
-1.9,0.32800
0.2,0.33000
-0.4,0.33000
-0.9,0.33200
-2.2,0.33400
-2.7,0.33600
-2.8,0.33800
-1.2,0.33800
-0.6,0.34000
-1.6,0.34200
-5.2,0.34400
-1.4,0.34600
-2.8,0.34600
-0.3,0.34800
-0.1,0.35000
-3.3,0.35200
-3.1,0.35400
-2.8,0.35600
-1.7,0.35600
-1.8,0.35900
-0.5,0.36000
-2.3,0.36200
-1.2,0.36400
-1.8,0.36600
-2.5,0.36800
-1.6,0.37000
-2.7,0.37000
-1.6,0.37200
-2.3,0.37400
-1.5,0.37600
-3.8,0.37800
-3.4,0.37800
-1.8,0.38000
-3.1,0.38200
-2.1,0.38400
-2.0,0.38600
-2.4,0.38600
-2.4,0.38800
-2.8,0.39000
-2.4,0.39200
-1.6,0.39400
-2.8,0.39600
-3.1,0.39600
-2.2,0.39900
-1.9,0.40000
-3.3,0.40200
-0.6,0.40400
-1.3,0.40600
0.3,0.40800
-2.4,0.40800
-2.6,0.41000
-4.7,0.41200
-1.3,0.41400
-1.9,0.41600
-3.1,0.41800
-2.3,0.41800
-2.0,0.42000
-3.2,0.42200
-3.8,0.42400
-2.9,0.42600
-0.5,0.42600
-3.3,0.42800
0.1,0.43000
-2.3,0.43200
-1.8,0.43400
-1.5,0.43600
-2.0,0.43800
0.2,0.44000
-1.3,0.44000
-1.9,0.44200
-1.7,0.44400
-1.9,0.44600
-0.4,0.44800
-1.4,0.45000
-2.7,0.45000
-2.4,0.45200
-2.5,0.45400
-3.0,0.45600
-2.4,0.45800
-3.4,0.45800
-0.3,0.46000
-1.7,0.46200
-0.9,0.46400
-3.1,0.46600
-3.0,0.46800
-1.8,0.46800
-2.4,0.47000
-1.3,0.47200
0.3,0.47400
-3.3,0.47600
-3.7,0.47800
-2.7,0.48000
-5.4,0.48000
-1.7,0.48200
-2.2,0.48400
-1.1,0.48600
-2.5,0.48800
-2.9,0.49000
-2.7,0.49000
-3.9,0.49200
-2.4,0.49400
-2.8,0.49600
-3.8,0.49800
-2.5,0.49800
-2.0,0.50000
-2.2,0.50200
-4.1,0.50400
-2.3,0.50600
-2.4,0.50800
-2.2,0.50800
-2.3,0.51000
-2.7,0.51200
-3.1,0.51400
-1.4,0.51600
-3.8,0.51800
-3.1,0.52000
-3.6,0.52000
-0.6,0.52200
-2.0,0.52400
-3.1,0.52600
-3.7,0.52800
-1.7,0.53000
-0.9,0.53000
-2.7,0.53200
-1.4,0.53400
-3.4,0.53600
-0.6,0.53800
-1.6,0.53800
-1.3,0.54000
-4.8,0.54200
-3.8,0.54400
-3.1,0.54600
-2.9,0.54800
-0.8,0.54800
-1.9,0.55100
-0.9,0.55200
-2.3,0.55400
-2.0,0.55600
-1.9,0.55800
-1.9,0.56000
-2.1,0.56200
-2.2,0.56200
-1.3,0.56400
-2.5,0.56600
-3.3,0.56800
-2.6,0.57000
-0.3,0.57000
-1.7,0.57200
-1.6,0.57400
0.1,0.57600
-2.5,0.57800
-3.4,0.58000
-2.9,0.58000
0.1,0.58200
-0.8,0.58400
-2.6,0.58600
-1.4,0.58800
-2.6,0.59000
-3.3,0.59200
-1.5,0.59200
-1.7,0.59400
-2.4,0.59600
-1.5,0.59800
-3.1,0.60000
-1.6,0.60200
-4.1,0.60200
-3.8,0.60400
-2.5,0.60600
-4.1,0.60800
-2.0,0.61000
-2.6,0.61000
-3.5,0.61200
-3.6,0.61400
-2.5,0.61600
-2.4,0.61800
-2.0,0.61900
-3.5,0.62000
-2.8,0.62200
-4.0,0.62400
-3.4,0.62600
-1.8,0.62800
-2.6,0.63000
-0.1,0.63200
-3.2,0.63200
-1.2,0.63400
-0.9,0.63600
-1.9,0.63800
-1.5,0.64000
-2.5,0.64200
-2.3,0.64200
-2.5,0.64400
-3.0,0.64600
-3.8,0.64800
-2.0,0.65000
-3.1,0.65000
-0.8,0.65200
-2.4,0.65400
-1.9,0.65600
-3.4,0.65800
-2.7,0.65800
-2.0,0.66000
-2.3,0.66200
-2.1,0.66400
-3.0,0.66600
-4.7,0.66800
-0.9,0.66800
-2.3,0.67100
-3.5,0.67200
-1.1,0.67400
-3.9,0.67600
-4.2,0.67800
-2.7,0.68000
-4.1,0.68100
-2.0,0.68200
-2.4,0.68400
-1.9,0.68600
-3.6,0.68800
-3.1,0.69000
-0.6,0.69000
0.9,0.69200
0.5,0.69400
3.5,0.69600
4.0,0.69800
3.5,0.69800
2.7,0.70000
4.9,0.70200
6.2,0.70400
5.4,0.70600
6.2,0.70800
8.2,0.70800
7.6,0.71200
8.3,0.71200
8.1,0.71400
10.5,0.71600
11.6,0.71800
11.4,0.72000
11.9,0.72000
11.1,0.72200
12.9,0.72400
14.3,0.72600
15.1,0.72800
17.2,0.73000
14.5,0.73000
15.0,0.73200
18.2,0.73400
17.5,0.73600
18.5,0.73800
20.5,0.73800
21.3,0.74000
21.0,0.74200
20.0,0.74400
23.3,0.74600
22.3,0.74800
22.6,0.74800
24.1,0.75000
25.2,0.75200
23.9,0.75400
24.2,0.75600
25.4,0.75800
27.2,0.76000
28.1,0.76000
26.8,0.76200
30.2,0.76400
29.0,0.76600
30.5,0.76800
31.2,0.77000
31.3,0.77000
34.3,0.77200
33.7,0.77400
36.6,0.77600
34.2,0.77800
33.8,0.78000
35.0,0.78000
37.0,0.78200
38.5,0.78400
38.9,0.78600
38.0,0.78800
40.7,0.79000
41.0,0.79200
40.3,0.79200
41.4,0.79400
42.2,0.79600
41.8,0.79800
41.7,0.80000
43.5,0.80200
43.5,0.80200
44.5,0.80400
47.1,0.80600
47.1,0.80800
47.3,0.81000
48.2,0.81000
48.6,0.81200
49.1,0.81400
49.9,0.81600
47.7,0.81800
51.8,0.81800
50.9,0.82000
51.0,0.82200
54.9,0.82400
52.8,0.82600
54.3,0.82800
55.4,0.82800
55.4,0.83000
54.6,0.83200
56.9,0.83400
58.5,0.83600
57.7,0.83600
58.0,0.84000
60.8,0.84000
60.6,0.84200
61.5,0.84400
62.2,0.84600
61.7,0.84800
64.2,0.84800
63.3,0.85000
64.5,0.85200
63.9,0.85400
65.1,0.85600
64.5,0.85800
66.7,0.85800
65.1,0.86000
69.3,0.86200
67.7,0.86400
68.2,0.86600
68.7,0.86600
69.2,0.86800
72.5,0.87000
72.6,0.87200
74.7,0.87400
73.7,0.87600
74.0,0.87600
74.7,0.88000
75.6,0.88000
79.3,0.88200
79.2,0.88400
77.7,0.88600
78.4,0.88800
76.3,0.88900
78.5,0.89000
78.8,0.89200
80.7,0.89400
81.1,0.89600
83.0,0.89800
81.7,0.89800
83.1,0.90000
82.6,0.90200
84.8,0.90400
84.9,0.90600
86.1,0.90600
87.0,0.90800
88.1,0.91000
89.1,0.91200
90.6,0.91400
89.9,0.91600
92.1,0.91600
90.3,0.92000
92.1,0.92000
92.1,0.92200
91.7,0.92400
92.9,0.92600
94.2,0.92800
94.0,0.92900
95.7,0.93000
93.3,0.93200
96.4,0.93400
96.2,0.93600
97.4,0.93800
99.7,0.93800
100.8,0.94000
101.4,0.94200
98.7,0.94400
102.0,0.94600
100.8,0.94600
103.0,0.94800
103.3,0.95000
106.2,0.95200
104.7,0.95400
105.2,0.95600
106.5,0.95600
107.0,0.95800
108.0,0.96000
108.9,0.96200
109.3,0.96400
108.7,0.96600
109.7,0.96800
109.8,0.96800
111.8,0.97000
112.8,0.97200
113.7,0.97400
114.2,0.97600
114.1,0.97800
115.8,0.97800
117.2,0.98000
117.2,0.98200
117.8,0.98400
120.0,0.98600
120.2,0.98600
122.0,0.98800
121.3,0.99000
120.5,0.99200
122.8,0.99400
121.7,0.99600
125.9,0.99600
124.4,0.99800
123.8,1.00000
126.3,1.00200
127.1,1.00400
126.9,1.00600
127.3,1.00800
126.3,1.00800
127.0,1.01000
128.9,1.01200
128.5,1.01400
130.7,1.01600
-2.3,1.01600


