""
"Test Method","UG Lab Glass 3 Pt Bend mm_N.msm"
"Sample I. D.","Radial.mss"
"Specimen Number","6"

"Load (N)","Crosshead (mm)"

2.1,0.00000
2.6,0.00200
0.7,0.00200
2.4,0.00200
1.8,0.00400
1.3,0.00400
1.3,0.00600
0.4,0.00600
3.2,0.00800
0.9,0.00800
0.6,0.01000
-1.2,0.01000
-0.2,0.01000
1.5,0.01200
0.6,0.01200
1.4,0.01400
-0.9,0.01400
3.4,0.01600
3.1,0.01600
-0.3,0.01600
0.9,0.01800
-0.1,0.01800
-0.7,0.01800
-0.9,0.02000
-1.8,0.02000
1.1,0.02200
0.3,0.02200
-0.6,0.02400
0.9,0.02400
2.1,0.02600
1.1,0.02600
-1.1,0.02600
0.4,0.02800
-1.6,0.02800
-0.2,0.02800
-1.7,0.03000
0.6,0.03000
0.5,0.03200
-1.8,0.03200
1.7,0.03400
2.6,0.03400
3.0,0.03400
0.2,0.03600
2.1,0.03600
3.0,0.03800
4.4,0.03800
3.4,0.04000
3.1,0.04000
1.9,0.04000
2.8,0.04200
5.4,0.04200
4.8,0.04200
3.5,0.04400
5.4,0.04400
5.5,0.04600
8.1,0.04600
6.0,0.04800
6.6,0.04800
5.8,0.05000
6.2,0.05000
7.0,0.05000
7.4,0.05200
7.2,0.05200
5.8,0.05200
5.8,0.05400
7.8,0.05400
7.4,0.05600
8.3,0.05600
10.1,0.05800
9.1,0.05800
10.6,0.05800
11.3,0.06000
7.8,0.06000
9.0,0.06200
9.9,0.06200
10.1,0.06400
11.1,0.06400
11.0,0.06400
11.4,0.06600
11.5,0.06600
13.6,0.06600
14.6,0.06800
15.5,0.06800
13.2,0.07000
15.0,0.07000
17.9,0.07200
15.9,0.07200
15.4,0.07400
15.5,0.07400
14.4,0.07400
15.5,0.07600
16.3,0.07600
16.8,0.07600
15.0,0.07800
14.6,0.08000
18.1,0.08000
20.3,0.08000
19.5,0.08200
20.7,0.08200
18.4,0.08200
19.6,0.08400
19.3,0.08400
19.9,0.08600
19.1,0.08600
19.2,0.08800
21.2,0.08800
23.0,0.09000
22.4,0.09000
21.7,0.09000
21.9,0.09200
23.1,0.09200
24.1,0.09200
22.5,0.09400
22.2,0.09400
21.6,0.09600
20.8,0.09600
22.9,0.09800
23.5,0.09800
24.8,0.09800
24.9,0.10000
24.2,0.10000
25.3,0.10200
25.8,0.10200
25.3,0.10400
25.0,0.10400
26.7,0.10400
27.2,0.10600
28.0,0.10600
26.8,0.10800
29.8,0.10800
27.3,0.10800
28.7,0.11000
29.9,0.11000
31.1,0.11200
28.7,0.11200
29.9,0.11400
29.5,0.11400
30.5,0.11400
31.0,0.11600
30.2,0.11600
30.0,0.11800
31.1,0.11800
31.3,0.12000
30.8,0.12000
31.4,0.12000
31.6,0.12200
34.5,0.12200
34.5,0.12200
33.9,0.12400
33.4,0.12400
33.9,0.12600
34.0,0.12600
35.3,0.12800
33.8,0.12800
34.7,0.13000
36.2,0.13000
34.8,0.13000
35.5,0.13200
37.0,0.13200
36.2,0.13200
37.9,0.13400
36.6,0.13400
39.0,0.13600
39.1,0.13600
37.9,0.13800
39.8,0.13800
39.0,0.13800
40.7,0.14000
41.1,0.14000
40.4,0.14000
40.6,0.14200
41.5,0.14400
42.0,0.14400
43.1,0.14400
41.5,0.14600
41.4,0.14600
42.2,0.14600
42.5,0.14800
43.2,0.14800
42.4,0.15000
43.7,0.15000
44.6,0.15200
44.5,0.15200
44.0,0.15400
43.5,0.15400
43.7,0.15400
44.4,0.15600
48.2,0.15600
47.1,0.15600
46.7,0.15800
48.8,0.15800
47.4,0.16000
46.1,0.16000
47.4,0.16200
47.5,0.16200
48.8,0.16200
48.4,0.16400
49.0,0.16400
50.0,0.16600
50.7,0.16600
51.2,0.16800
51.7,0.16800
51.3,0.16800
55.1,0.17000
53.0,0.17000
53.2,0.17000
51.0,0.17200
49.7,0.17200
54.1,0.17400
53.8,0.17400
52.7,0.17600
53.9,0.17600
55.3,0.17800
55.2,0.17800
55.1,0.17800
55.5,0.18000
54.3,0.18000
55.2,0.18000
55.2,0.18200
53.8,0.18400
55.9,0.18400
56.4,0.18400
56.6,0.18600
56.9,0.18600
56.9,0.18600
56.6,0.18800
57.5,0.18800
58.0,0.19000
59.5,0.19000
59.8,0.19200
59.2,0.19200
59.5,0.19400
58.9,0.19400
60.8,0.19400
60.0,0.19600
61.2,0.19600
61.6,0.19600
61.5,0.19800
61.4,0.19800
63.4,0.20000
62.8,0.20000
63.3,0.20200
63.6,0.20200
64.2,0.20200
66.0,0.20400
64.6,0.20400
62.3,0.20600
64.6,0.20600
64.5,0.20800
66.2,0.20800
65.7,0.20800
67.1,0.21000
66.8,0.21000
67.7,0.21200
68.2,0.21200
68.9,0.21200
67.3,0.21400
66.7,0.21400
68.8,0.21600
69.3,0.21600
69.3,0.21800
70.3,0.21800
70.3,0.21800
69.4,0.22000
70.9,0.22000
71.1,0.22200
71.5,0.22200
72.0,0.22400
71.6,0.22400
73.7,0.22400
74.0,0.22600
72.9,0.22600
73.9,0.22600
71.8,0.22800
74.9,0.22800
72.9,0.23000
73.5,0.23000
72.6,0.23200
72.0,0.23200
73.8,0.23400
77.8,0.23400
75.7,0.23400
76.2,0.23600
75.3,0.23600
77.6,0.23600
77.9,0.23800
74.6,0.23800
76.6,0.24000
75.3,0.24000
77.2,0.24200
77.7,0.24200
77.3,0.24200
78.0,0.24400
80.2,0.24400
78.7,0.24600
80.5,0.24600
80.5,0.24800
81.9,0.24800
80.7,0.24800
79.5,0.25000
82.5,0.25000
82.4,0.25000
81.5,0.25200
83.4,0.25200
82.5,0.25400
82.7,0.25400
85.9,0.25600
84.8,0.25600
84.5,0.25800
83.3,0.25800
86.1,0.25800
86.4,0.26000
85.1,0.26000
84.7,0.26000
84.1,0.26200
85.3,0.26400
86.5,0.26400
85.8,0.26400
85.2,0.26600
87.6,0.26600
89.1,0.26600
89.5,0.26800
91.5,0.26800
88.0,0.27000
90.0,0.27000
89.2,0.27200
91.4,0.27200
89.4,0.27200
89.2,0.27400
90.2,0.27400
91.9,0.27400
92.0,0.27600
92.6,0.27600
91.4,0.27800
92.3,0.27800
94.1,0.28000
92.9,0.28000
94.6,0.28200
94.6,0.28200
93.7,0.28200
92.8,0.28400
95.0,0.28400
93.7,0.28400
95.6,0.28600
94.4,0.28800
93.3,0.28800
97.5,0.28800
96.4,0.29000
96.6,0.29000
96.4,0.29000
100.1,0.29200
99.4,0.29200
98.9,0.29400
99.6,0.29400
97.8,0.29600
97.8,0.29600
0.8,0.29600


