""
"Test Method","UG Lab Glass 3 Pt Bend mm_N.msm"
"Sample I. D.","Radial.mss"
"Specimen Number","3"

"Load (N)","Crosshead (mm)"

-1.5,0.00000
-2.6,0.00200
-0.7,0.00200
-0.7,0.00200
0.1,0.00400
0.8,0.00400
1.4,0.00600
0.6,0.00600
-1.4,0.00800
-0.3,0.00800
0.3,0.00800
-1.6,0.01000
-1.8,0.01000
-2.7,0.01000
-0.5,0.01200
0.6,0.01200
-0.1,0.01400
0.5,0.01400
-1.7,0.01600
0.1,0.01600
-0.9,0.01800
-0.8,0.01800
-1.9,0.01800
-1.2,0.02000
-1.2,0.02000
0.7,0.02000
-0.5,0.02200
0.0,0.02300
1.4,0.02400
0.1,0.02400
-0.9,0.02600
-0.5,0.02600
-0.8,0.02600
-0.5,0.02800
0.1,0.02800
0.5,0.03000
-1.3,0.03000
-1.3,0.03200
-1.1,0.03200
2.6,0.03200
-0.6,0.03400
0.9,0.03400
-0.3,0.03400
-2.1,0.03600
-0.1,0.03600
-1.0,0.03800
-0.7,0.03800
-0.8,0.04000
-2.0,0.04000
-0.8,0.04200
-2.1,0.04200
-1.4,0.04200
-2.7,0.04400
-1.7,0.04400
0.0,0.04400
0.8,0.04600
-0.1,0.04600
-1.2,0.04800
0.3,0.04800
-0.2,0.05000
1.1,0.05000
-1.5,0.05000
-3.1,0.05200
-0.3,0.05200
-1.2,0.05400
-1.8,0.05400
-0.3,0.05600
-0.9,0.05600
-0.5,0.05600
-0.6,0.05800
-0.8,0.05800
1.5,0.06000
-1.5,0.06000
-0.9,0.06000
-2.3,0.06200
-1.2,0.06200
-3.0,0.06400
-1.6,0.06400
-2.4,0.06600
-3.9,0.06600
-1.6,0.06600
-1.0,0.06800
-0.7,0.06800
-2.2,0.07000
-4.0,0.07000
-1.6,0.07200
-0.2,0.07200
0.8,0.07200
-2.4,0.07400
-2.3,0.07400
0.4,0.07600
2.2,0.07600
-1.7,0.07600
-1.2,0.07800
-2.7,0.07800
-0.7,0.08000
1.3,0.08000
-0.1,0.08200
0.2,0.08200
-1.3,0.08200
-0.6,0.08400
-3.2,0.08400
-0.2,0.08600
-2.3,0.08600
-2.1,0.08800
-2.1,0.08800
-1.4,0.08800
-1.7,0.09000
-1.1,0.09000
-1.0,0.09100
0.2,0.09200
0.2,0.09200
0.7,0.09400
-2.2,0.09400
-0.9,0.09600
-1.5,0.09600
0.1,0.09800
1.4,0.09800
-1.4,0.09800
-1.7,0.10000
-1.0,0.10000
-0.2,0.10200
1.3,0.10200
1.6,0.10400
-0.1,0.10400
-1.4,0.10400
-0.9,0.10600
0.5,0.10600
-0.7,0.10600
-3.0,0.10800
-1.3,0.10800
-0.1,0.11000
0.2,0.11000
-2.3,0.11200
-2.0,0.11200
-1.5,0.11400
-2.0,0.11400
-2.6,0.11400
-0.7,0.11600
0.0,0.11600
-2.2,0.11800
-2.5,0.11800
-2.5,0.12000
-2.8,0.12000
-1.6,0.12000
-2.3,0.12200
-2.2,0.12200
-1.1,0.12200
-1.1,0.12400
-1.9,0.12400
-1.7,0.12600
1.1,0.12600
0.3,0.12800
0.0,0.12800
-2.4,0.13000
-2.4,0.13000
-1.1,0.13000
-2.1,0.13200
-1.7,0.13200
-3.5,0.13200
-2.4,0.13400
-2.7,0.13400
-0.3,0.13600
-0.3,0.13600
-0.4,0.13800
-1.8,0.13800
-2.4,0.13800
0.8,0.14000
-0.6,0.14000
-0.7,0.14200
-1.2,0.14200
-1.7,0.14400
-3.2,0.14400
-3.9,0.14600
-0.2,0.14600
-2.2,0.14600
-1.9,0.14800
-1.5,0.14800
-0.1,0.14800
-0.3,0.15000
-1.7,0.15000
-1.7,0.15200
-0.4,0.15200
-0.6,0.15400
-0.6,0.15400
-2.1,0.15400
-1.4,0.15600
-2.4,0.15600
-0.6,0.15600
0.2,0.15800
-1.9,0.16000
-0.2,0.16000
1.0,0.16000
1.2,0.16200
-0.2,0.16200
-0.8,0.16200
-0.7,0.16400
-1.4,0.16400
-0.3,0.16600
0.8,0.16600
-0.9,0.16800
0.3,0.16800
-3.5,0.16800
-1.9,0.17000
-2.2,0.17000
-2.6,0.17200
-2.4,0.17200
-2.7,0.17200
-0.7,0.17400
0.1,0.17400
-1.8,0.17600
-0.2,0.17600
-2.3,0.17800
-1.0,0.17800
-0.5,0.17800
0.7,0.18000
-0.6,0.18000
-0.1,0.18200
-0.4,0.18200
1.3,0.18400
0.0,0.18400
-0.9,0.18400
-0.3,0.18600
-0.5,0.18600
-1.1,0.18600
-1.3,0.18800
-2.6,0.18800
-3.7,0.19000
-1.1,0.19000
0.1,0.19200
0.5,0.19200
0.6,0.19400
0.1,0.19400
-0.9,0.19400
0.1,0.19600
-1.0,0.19600
-0.4,0.19800
-1.0,0.19800
-0.1,0.20000
0.1,0.20000
-1.2,0.20000
-1.0,0.20200
-0.4,0.20200
-2.5,0.20200
-1.6,0.20400
-1.7,0.20400
-1.0,0.20600
-0.5,0.20600
-1.2,0.20800
0.0,0.20800
-0.5,0.21000
0.1,0.21000
-0.2,0.21000
-1.8,0.21200
-1.7,0.21200
-0.3,0.21400
0.1,0.21400
0.0,0.21600
-2.8,0.21600
0.9,0.21600
1.6,0.21800
-0.2,0.21800
-1.4,0.21800
-4.0,0.22000
-2.2,0.22000
-2.2,0.22200
-0.6,0.22200
-2.1,0.22400
0.2,0.22400
-2.3,0.22600
0.9,0.22600
1.2,0.22600
-0.7,0.22800
-2.3,0.22800
-0.5,0.22800
0.3,0.23000
0.2,0.23000
-0.2,0.23200
-0.7,0.23200
-0.1,0.23400
-0.5,0.23400
0.3,0.23400
-0.9,0.23600
0.2,0.23600
-0.3,0.23800
1.3,0.23800
-0.1,0.24000
0.4,0.24000
-1.2,0.24000
-1.8,0.24200
-1.9,0.24200
-1.3,0.24400
-1.3,0.24400
-1.2,0.24400
-1.4,0.24600
-1.8,0.24600
1.6,0.24800
0.5,0.24800
-1.1,0.25000
1.0,0.25000
0.0,0.25000
-2.0,0.25200
-0.4,0.25200
-1.3,0.25300
-3.0,0.25400
-0.6,0.25600
0.5,0.25600
1.4,0.25600
-0.9,0.25800
-0.8,0.25800
0.5,0.25800
-0.2,0.26000
0.7,0.26000
0.4,0.26200
-0.4,0.26200
-2.7,0.26400
-1.2,0.26400
-1.5,0.26400
-2.2,0.26600
-0.3,0.26600
-0.9,0.26800
-0.9,0.26800
0.2,0.26800
-0.5,0.27000
-0.9,0.27000
-0.6,0.27200
0.1,0.27200
1.7,0.27400
-0.4,0.27400
-1.4,0.27400
-2.9,0.27600
1.0,0.27600
0.7,0.27800
-1.2,0.27800
0.3,0.28000
0.5,0.28000
-0.3,0.28000
0.6,0.28200
-2.1,0.28200
-1.9,0.28200
-1.8,0.28400
-1.5,0.28400
0.0,0.28600
-0.9,0.28600
-1.2,0.28800
-2.2,0.28800
-1.0,0.29000
-1.8,0.29000
0.3,0.29000
-0.2,0.29200
-2.3,0.29200
0.3,0.29200
-0.3,0.29400
0.2,0.29600
2.4,0.29600
0.1,0.29600
-0.3,0.29800
0.1,0.29800
0.0,0.29800
0.9,0.30000
0.7,0.30000
1.3,0.30200
1.9,0.30200
0.5,0.30400
1.2,0.30400
2.2,0.30500
1.9,0.30600
4.8,0.30600
4.4,0.30800
4.0,0.30800
3.0,0.30800
4.3,0.31000
2.1,0.31000
4.1,0.31200
6.5,0.31200
5.4,0.31400
5.4,0.31400
7.3,0.31400
7.0,0.31600
6.8,0.31600
6.6,0.31800
8.2,0.31800
9.0,0.32000
9.6,0.32000
10.2,0.32000
7.3,0.32200
8.7,0.32200
10.5,0.32400
10.5,0.32400
11.0,0.32400
11.7,0.32600
11.5,0.32600
11.9,0.32800
12.4,0.32800
12.6,0.33000
11.8,0.33000
11.1,0.33000
11.5,0.33200
14.0,0.33200
13.0,0.33200
14.0,0.33400
15.4,0.33600
15.3,0.33600
16.3,0.33600
16.8,0.33800
18.3,0.33800
18.3,0.33800
16.9,0.34000
16.8,0.34000
17.3,0.34200
17.1,0.34200
16.8,0.34400
17.1,0.34400
17.6,0.34600
17.5,0.34600
20.1,0.34600
17.7,0.34800
18.9,0.34800
20.7,0.34800
20.9,0.35000
21.1,0.35000
20.2,0.35200
20.8,0.35200
20.8,0.35400
21.6,0.35400
22.5,0.35400
22.0,0.35600
21.8,0.35600
25.2,0.35800
24.7,0.35800
24.5,0.36000
23.9,0.36000
25.2,0.36000
26.2,0.36200
26.1,0.36200
25.9,0.36200
26.5,0.36400
24.0,0.36400
25.7,0.36600
25.0,0.36600
25.1,0.36800
26.1,0.36800
28.9,0.36900
27.4,0.37000
28.0,0.37000
28.9,0.37200
26.3,0.37200
26.1,0.37200
27.0,0.37400
27.3,0.37400
29.7,0.37600
27.8,0.37600
30.5,0.37800
27.9,0.37800
30.9,0.37800
29.4,0.38000
30.2,0.38000
30.8,0.38200
32.6,0.38200
33.1,0.38400
34.6,0.38400
32.6,0.38400
32.1,0.38600
33.0,0.38600
33.4,0.38600
33.6,0.38800
35.0,0.38800
34.2,0.39000
35.8,0.39000
36.4,0.39200
35.9,0.39200
38.7,0.39400
35.1,0.39400
37.8,0.39400
40.0,0.39600
39.7,0.39600
39.6,0.39600
38.2,0.39800
36.9,0.39800
40.0,0.40000
39.4,0.40000
40.4,0.40200
41.1,0.40200
40.5,0.40200
40.3,0.40400
42.9,0.40400
42.7,0.40600
42.7,0.40600
40.1,0.40800
41.3,0.40800
45.3,0.41000
44.5,0.41000
42.2,0.41000
43.9,0.41200
44.3,0.41200
45.0,0.41200
47.3,0.41400
45.1,0.41400
45.1,0.41600
46.0,0.41600
47.5,0.41800
46.5,0.41800
48.6,0.41800
46.8,0.42000
47.3,0.42000
49.5,0.42200
48.7,0.42200
49.4,0.42400
49.1,0.42400
50.1,0.42600
49.9,0.42600
51.8,0.42600
54.1,0.42800
50.3,0.42800
52.4,0.42800
53.0,0.43000
52.3,0.43000
52.7,0.43200
52.8,0.43200
53.2,0.43400
54.2,0.43400
55.1,0.43400
55.5,0.43600
55.5,0.43600
55.5,0.43800
55.1,0.43800
56.1,0.44000
55.6,0.44000
54.8,0.44000
57.5,0.44200
57.4,0.44200
56.3,0.44200
57.4,0.44400
56.5,0.44400
56.3,0.44600
58.7,0.44600
61.4,0.44800
60.9,0.44800
58.5,0.45000
59.0,0.45000
58.7,0.45000
60.8,0.45200
61.1,0.45200
61.1,0.45200
60.3,0.45400
60.4,0.45600
63.1,0.45600
63.3,0.45600
65.3,0.45800
63.6,0.45800
62.8,0.45800
65.0,0.46000
64.9,0.46000
64.0,0.46200
64.5,0.46200
65.5,0.46400
66.6,0.46400
64.4,0.46400
65.6,0.46600
65.4,0.46600
64.4,0.46800
68.8,0.46800
68.3,0.46800
68.6,0.47000
68.9,0.47000
68.0,0.47200
69.2,0.47200
68.4,0.47400
67.6,0.47400
68.8,0.47400
69.3,0.47600
71.5,0.47600
71.4,0.47800
71.5,0.47800
71.9,0.48000
72.7,0.48000
71.1,0.48000
72.5,0.48200
72.7,0.48200
73.6,0.48200
73.0,0.48400
73.4,0.48400
75.7,0.48600
74.6,0.48600
75.8,0.48800
75.4,0.48800
76.3,0.49000
76.2,0.49000
77.3,0.49000
75.1,0.49200
77.4,0.49200
76.1,0.49200
78.3,0.49400
79.4,0.49400
78.8,0.49600
77.6,0.49600
78.0,0.49800
77.0,0.49800
77.8,0.49800
79.0,0.50000
80.0,0.50000
79.2,0.50200
82.5,0.50200
81.8,0.50400
82.6,0.50400
80.0,0.50400
81.8,0.50600
82.9,0.50600
82.8,0.50600
81.3,0.50800
81.5,0.50800
81.8,0.51000
85.2,0.51000
85.9,0.51200
84.2,0.51200
85.7,0.51400
85.5,0.51400
85.3,0.51400
86.5,0.51600
85.8,0.51600
87.9,0.51600
87.4,0.51800
89.0,0.52000
88.9,0.52000
89.7,0.52000
87.1,0.52200
89.3,0.52200
91.2,0.52200
92.4,0.52400
90.3,0.52400
89.9,0.52600
91.7,0.52600
90.3,0.52800
92.0,0.52800
92.6,0.53000
91.3,0.53000
90.5,0.53000
90.9,0.53200
92.1,0.53200
92.2,0.53200
92.9,0.53400
93.0,0.53400
0.8,0.53600


