""
"Test Method","UG Lab Glass 3 Pt Bend mm_N.msm"
"Sample I. D.","Radial.mss"
"Specimen Number","5"

"Load (N)","Crosshead (mm)"

0.5,0.00000
0.4,0.00200
-0.3,0.00200
-0.5,0.00200
-0.2,0.00400
1.1,0.00400
1.5,0.00600
0.4,0.00600
-0.4,0.00800
1.4,0.00800
-0.4,0.00800
0.1,0.01000
0.7,0.01000
-0.1,0.01000
-0.6,0.01200
1.5,0.01200
1.1,0.01400
0.5,0.01400
-0.4,0.01600
0.6,0.01600
2.2,0.01800
-0.2,0.01800
-0.9,0.01800
-1.0,0.02000
-0.3,0.02000
-0.8,0.02000
1.7,0.02200
0.8,0.02200
1.4,0.02400
0.9,0.02400
1.0,0.02600
2.2,0.02600
1.1,0.02600
1.1,0.02800
3.1,0.02800
1.3,0.03000
2.8,0.03000
1.4,0.03200
0.1,0.03200
-0.3,0.03200
1.5,0.03400
2.9,0.03400
2.1,0.03400
1.2,0.03600
1.8,0.03600
1.1,0.03800
2.7,0.03800
3.1,0.04000
0.7,0.04000
2.2,0.04200
0.2,0.04200
0.7,0.04200
-0.2,0.04400
-1.7,0.04400
0.4,0.04400
-0.1,0.04600
1.4,0.04600
2.8,0.04800
0.7,0.04800
1.6,0.05000
0.8,0.05000
0.5,0.05000
0.7,0.05200
0.2,0.05200
1.6,0.05400
0.7,0.05400
1.1,0.05600
2.8,0.05600
3.6,0.05800
1.8,0.05800
1.0,0.05800
0.4,0.06000
2.4,0.06000
2.8,0.06000
0.3,0.06200
0.8,0.06200
1.3,0.06400
0.8,0.06400
1.2,0.06600
-0.7,0.06600
-0.8,0.06600
-0.2,0.06800
1.4,0.06800
1.0,0.07000
-0.1,0.07000
0.1,0.07200
0.9,0.07200
1.3,0.07200
0.1,0.07400
-0.5,0.07400
1.9,0.07600
0.2,0.07600
0.3,0.07600
0.3,0.07800
1.1,0.07800
2.2,0.08000
2.0,0.08000
3.8,0.08200
4.0,0.08200
2.4,0.08200
2.6,0.08400
1.6,0.08400
3.7,0.08400
3.2,0.08600
3.4,0.08800
1.3,0.08800
3.7,0.08800
5.6,0.09000
4.9,0.09000
3.5,0.09000
4.8,0.09200
5.6,0.09200
6.2,0.09400
5.4,0.09400
6.4,0.09600
6.2,0.09600
7.9,0.09800
5.7,0.09800
5.8,0.09800
7.8,0.10000
6.2,0.10000
6.6,0.10000
7.2,0.10200
7.6,0.10200
9.6,0.10400
7.2,0.10400
7.7,0.10600
11.3,0.10600
11.6,0.10600
9.1,0.10800
10.0,0.10800
10.8,0.11000
10.5,0.11000
11.0,0.11200
11.3,0.11200
13.5,0.11200
12.3,0.11400
11.2,0.11400
13.4,0.11400
13.9,0.11600
14.7,0.11600
12.3,0.11800
11.0,0.11800
13.8,0.12000
15.2,0.12000
14.5,0.12200
14.3,0.12200
14.4,0.12200
16.4,0.12400
15.8,0.12400
16.5,0.12400
16.2,0.12600
16.1,0.12600
16.5,0.12800
17.4,0.12800
17.8,0.13000
18.4,0.13000
15.9,0.13000
17.2,0.13200
17.3,0.13200
19.4,0.13400
20.0,0.13400
18.8,0.13600
19.6,0.13600
22.5,0.13600
21.0,0.13800
24.0,0.13800
23.6,0.13800
21.0,0.14000
22.5,0.14000
21.0,0.14200
21.8,0.14200
23.1,0.14400
21.8,0.14400
23.9,0.14600
24.4,0.14600
26.5,0.14600
25.1,0.14800
24.8,0.14800
26.0,0.14800
26.2,0.15000
26.3,0.15000
27.4,0.15200
25.3,0.15200
27.6,0.15400
27.8,0.15400
28.5,0.15400
26.4,0.15600
27.9,0.15600
28.2,0.15800
28.7,0.15800
31.0,0.16000
29.1,0.16000
27.8,0.16200
29.0,0.16200
29.9,0.16200
28.4,0.16400
30.8,0.16400
29.2,0.16400
31.9,0.16600
32.8,0.16800
32.2,0.16800
33.7,0.16800
33.2,0.17000
34.0,0.17000
33.9,0.17000
35.5,0.17200
36.3,0.17200
33.3,0.17400
33.1,0.17400
35.3,0.17600
36.5,0.17600
33.9,0.17800
35.2,0.17800
36.3,0.17800
38.6,0.18000
37.9,0.18000
38.2,0.18000
38.4,0.18200
37.9,0.18200
41.0,0.18400
39.4,0.18400
39.1,0.18600
38.8,0.18600
38.1,0.18600
40.5,0.18800
41.1,0.18800
39.7,0.19000
42.3,0.19000
41.1,0.19200
42.8,0.19200
44.7,0.19200
44.2,0.19400
42.4,0.19400
41.8,0.19600
41.9,0.19600
44.8,0.19600
43.3,0.19800
44.2,0.19800
40.9,0.20000
43.7,0.20000
46.0,0.20200
46.7,0.20200
45.5,0.20200
46.6,0.20400
46.0,0.20400
47.1,0.20600
48.3,0.20600
46.2,0.20800
45.8,0.20800
48.7,0.20800
48.8,0.21000
48.9,0.21000
47.1,0.21000
50.0,0.21200
49.1,0.21200
51.1,0.21400
50.1,0.21400
53.0,0.21600
50.0,0.21600
50.3,0.21800
51.7,0.21800
51.9,0.21800
51.7,0.22000
51.0,0.22000
51.6,0.22000
51.7,0.22200
51.9,0.22200
53.8,0.22400
54.6,0.22400
52.2,0.22600
55.5,0.22600
56.2,0.22600
54.6,0.22800
55.0,0.22800
55.6,0.23000
54.5,0.23000
56.5,0.23200
56.2,0.23200
56.3,0.23200
58.0,0.23400
56.6,0.23400
59.8,0.23400
59.4,0.23600
60.7,0.23600
60.2,0.23800
61.0,0.23800
61.9,0.24000
59.5,0.24000
60.7,0.24200
60.7,0.24200
61.8,0.24200
61.7,0.24400
61.9,0.24400
61.0,0.24400
61.9,0.24600
61.7,0.24600
64.5,0.24800
63.2,0.24800
64.7,0.25000
64.6,0.25000
63.8,0.25000
65.2,0.25200
65.6,0.25200
65.2,0.25400
63.6,0.25400
63.8,0.25600
66.8,0.25600
68.2,0.25600
68.9,0.25800
68.7,0.25800
66.6,0.26000
67.3,0.26000
70.0,0.26000
67.5,0.26200
68.4,0.26200
67.0,0.26400
70.9,0.26400
69.5,0.26600
70.8,0.26600
71.9,0.26600
70.8,0.26800
71.7,0.26800
72.4,0.27000
72.5,0.27000
72.6,0.27200
72.3,0.27200
72.6,0.27200
72.2,0.27400
74.2,0.27400
75.2,0.27400
70.7,0.27600
73.3,0.27600
74.2,0.27800
75.0,0.27800
74.2,0.28000
74.8,0.28000
74.7,0.28200
75.6,0.28200
78.1,0.28200
77.2,0.28400
75.3,0.28400
75.4,0.28400
78.6,0.28600
78.3,0.28600
78.0,0.28800
77.6,0.28800
79.6,0.29000
80.1,0.29000
81.4,0.29000
81.3,0.29200
79.8,0.29200
80.1,0.29400
82.8,0.29400
80.5,0.29600
80.7,0.29600
81.7,0.29600
81.4,0.29800
82.4,0.29800
81.3,0.30000
83.1,0.30000
84.2,0.30000
84.4,0.30200
84.2,0.30200
84.0,0.30400
85.9,0.30400
86.1,0.30600
86.8,0.30600
86.2,0.30600
88.4,0.30800
86.8,0.30800
86.3,0.31000
87.5,0.31000
86.0,0.31200
88.7,0.31200
88.7,0.31200
88.4,0.31400
90.3,0.31400
90.1,0.31400
91.3,0.31600
91.8,0.31600
89.7,0.31800
90.4,0.31800
90.7,0.32000
88.4,0.32000
89.2,0.32200
90.6,0.32200
92.4,0.32200
92.4,0.32400
92.7,0.32400
95.0,0.32400
95.1,0.32600
93.5,0.32600
92.6,0.32800
94.7,0.32800
95.3,0.33000
95.2,0.33000
93.7,0.33000
93.6,0.33200
97.0,0.33200
95.9,0.33400
96.6,0.33400
96.2,0.33600
51.6,0.33600
0.9,0.33600


