""
"Test Method","UG Lab Glass 3 Pt Bend mm_N.msm"
"Sample I. D.","Radial.mss"
"Specimen Number","9"

"Load (N)","Crosshead (mm)"

1.8,0.00000
2.2,0.00000
2.8,0.00200
2.8,0.00200
3.2,0.00400
2.5,0.00400
4.1,0.00400
3.4,0.00600
3.7,0.00600
1.8,0.00800
1.1,0.00800
1.3,0.01000
0.6,0.01000
0.2,0.01000
1.3,0.01200
1.9,0.01200
2.4,0.01400
1.5,0.01400
3.1,0.01600
3.7,0.01600
2.1,0.01600
1.6,0.01800
0.1,0.01800
1.1,0.01800
2.0,0.02000
1.7,0.02000
1.7,0.02200
2.1,0.02200
2.9,0.02400
0.2,0.02400
2.7,0.02600
1.4,0.02600
-0.3,0.02600
3.9,0.02800
2.9,0.02800
-0.2,0.02800
2.5,0.03000
0.1,0.03000
1.1,0.03200
-0.7,0.03200
0.0,0.03400
0.2,0.03400
0.3,0.03400
0.6,0.03600
2.0,0.03600
1.8,0.03800
1.6,0.03800
2.5,0.04000
3.0,0.04000
2.4,0.04000
0.4,0.04200
-1.2,0.04200
-0.5,0.04400
1.7,0.04400
0.3,0.04400
2.2,0.04600
3.2,0.04600
3.8,0.04800
2.2,0.04800
2.0,0.05000
0.4,0.05000
1.9,0.05000
-1.9,0.05200
0.7,0.05200
0.2,0.05200
0.2,0.05400
0.7,0.05400
-0.1,0.05600
0.4,0.05600
3.3,0.05800
-0.6,0.05800
1.5,0.05800
2.6,0.06000
1.8,0.06000
1.3,0.06200
0.4,0.06200
1.4,0.06400
-0.1,0.06400
1.4,0.06600
-0.3,0.06600
0.2,0.06600
2.3,0.06800
1.4,0.06800
0.1,0.06800
1.0,0.07000
2.7,0.07000
2.9,0.07200
2.3,0.07200
1.2,0.07400
1.3,0.07400
3.5,0.07400
2.6,0.07600
2.5,0.07600
-0.2,0.07800
-1.0,0.07800
3.2,0.08000
3.5,0.08000
2.0,0.08000
2.9,0.08200
2.6,0.08200
3.1,0.08200
3.0,0.08400
0.7,0.08400
-0.2,0.08600
1.0,0.08600
0.1,0.08800
3.6,0.08800
1.2,0.09000
0.1,0.09000
1.0,0.09000
2.1,0.09200
2.0,0.09200
2.9,0.09200
1.4,0.09400
-0.1,0.09600
2.7,0.09600
3.4,0.09600
1.5,0.09800
1.1,0.09800
0.0,0.09800
0.4,0.10000
1.8,0.10000
1.8,0.10200
1.6,0.10200
2.6,0.10400
2.5,0.10400
2.4,0.10600
1.3,0.10600
1.0,0.10600
0.7,0.10800
1.7,0.10800
-0.1,0.10800
1.3,0.11000
-0.1,0.11000
-0.2,0.11200
0.1,0.11200
0.7,0.11400
1.8,0.11400
1.4,0.11400
0.3,0.11600
1.6,0.11600
3.2,0.11800
-0.3,0.11800
-0.1,0.12000
1.2,0.12000
-2.2,0.12200
2.5,0.12200
1.1,0.12200
2.6,0.12400
2.4,0.12400
1.8,0.12400
0.7,0.12600
2.2,0.12600
2.0,0.12800
1.3,0.12800
-0.1,0.13000
0.9,0.13000
0.9,0.13000
1.4,0.13200
0.8,0.13200
1.1,0.13400
1.6,0.13400
0.8,0.13600
2.8,0.13600
0.1,0.13800
1.2,0.13800
1.0,0.13800
1.7,0.14000
2.8,0.14000
1.1,0.14000
0.6,0.14200
1.2,0.14200
1.5,0.14400
0.8,0.14400
0.6,0.14600
0.8,0.14600
1.6,0.14600
1.8,0.14800
2.7,0.14800
2.3,0.15000
1.2,0.15000
2.3,0.15200
1.6,0.15200
1.8,0.15200
-0.8,0.15400
2.2,0.15400
1.1,0.15600
2.8,0.15600
1.1,0.15600
2.2,0.15800
2.4,0.15800
2.3,0.16000
2.2,0.16000
1.8,0.16200
0.9,0.16200
0.8,0.16200
0.2,0.16400
2.2,0.16400
1.5,0.16600
2.4,0.16600
0.2,0.16800
1.5,0.16800
0.6,0.16800
3.2,0.17000
3.0,0.17000
3.5,0.17000
1.5,0.17200
3.9,0.17200
4.2,0.17400
4.6,0.17400
2.3,0.17600
2.9,0.17600
4.4,0.17800
3.2,0.17800
4.3,0.17800
3.8,0.18000
6.1,0.18000
5.1,0.18000
6.3,0.18200
7.2,0.18200
6.5,0.18400
6.3,0.18400
5.2,0.18600
7.5,0.18600
8.2,0.18600
7.0,0.18800
6.7,0.18800
7.4,0.18800
11.1,0.19000
8.7,0.19200
10.5,0.19200
11.2,0.19200
10.0,0.19400
10.9,0.19400
12.1,0.19400
11.6,0.19600
11.0,0.19600
10.9,0.19800
13.8,0.19800
13.6,0.20000
13.8,0.20000
13.3,0.20200
12.2,0.20200
16.4,0.20200
15.4,0.20400
14.7,0.20400
15.9,0.20400
14.7,0.20600
16.6,0.20600
13.7,0.20800
16.1,0.20800
14.4,0.21000
15.0,0.21000
16.7,0.21000
17.1,0.21200
17.6,0.21200
18.3,0.21200
16.5,0.21400
20.5,0.21600
19.0,0.21600
21.3,0.21600
21.0,0.21800
19.3,0.21800
18.6,0.21800
21.8,0.22000
18.9,0.22000
19.6,0.22200
20.1,0.22200
20.5,0.22400
23.3,0.22400
23.8,0.22600
23.4,0.22600
22.7,0.22600
23.6,0.22800
24.9,0.22800
24.1,0.22800
24.4,0.23000
22.9,0.23000
22.7,0.23200
26.5,0.23200
25.2,0.23400
25.0,0.23400
26.8,0.23400
28.0,0.23600
27.9,0.23600
28.8,0.23800
28.3,0.23800
27.1,0.24000
28.9,0.24000
29.2,0.24000
27.3,0.24200
29.5,0.24200
27.4,0.24200
28.3,0.24400
30.5,0.24400
30.7,0.24600
31.1,0.24600
31.9,0.24800
32.5,0.24800
33.6,0.25000
32.9,0.25000
33.9,0.25000
32.4,0.25200
34.1,0.25200
35.2,0.25200
34.5,0.25400
33.5,0.25600
34.3,0.25600
34.7,0.25600
35.5,0.25800
36.6,0.25800
36.0,0.25800
36.9,0.26000
36.5,0.26000
35.6,0.26200
39.0,0.26200
37.4,0.26400
36.6,0.26400
38.5,0.26600
38.5,0.26600
40.6,0.26600
38.9,0.26800
38.8,0.26800
39.9,0.26800
40.0,0.27000
41.8,0.27000
43.1,0.27200
42.6,0.27200
42.2,0.27400
42.5,0.27400
42.8,0.27400
43.4,0.27600
44.3,0.27600
42.6,0.27800
42.0,0.27800
42.8,0.28000
45.4,0.28000
44.9,0.28000
44.7,0.28200
45.2,0.28200
45.7,0.28200
48.9,0.28400
46.8,0.28400
46.3,0.28600
46.3,0.28600
48.2,0.28800
47.0,0.28800
48.8,0.29000
47.9,0.29000
48.7,0.29000
50.0,0.29200
50.9,0.29200
51.3,0.29200
49.8,0.29400
49.9,0.29400
52.2,0.29600
52.3,0.29600
51.9,0.29800
53.4,0.29800
52.0,0.29800
53.4,0.30000
55.3,0.30000
54.9,0.30200
54.0,0.30200
54.1,0.30400
55.1,0.30400
55.5,0.30400
56.1,0.30600
56.5,0.30600
55.5,0.30600
55.7,0.30800
58.2,0.30800
55.9,0.31000
58.2,0.31000
55.6,0.31200
57.0,0.31200
58.0,0.31400
59.3,0.31400
60.3,0.31400
59.1,0.31600
60.3,0.31600
60.6,0.31600
60.3,0.31800
61.4,0.32000
59.5,0.32000
59.0,0.32000
60.4,0.32200
61.4,0.32200
62.0,0.32200
61.9,0.32400
63.5,0.32400
64.0,0.32600
64.1,0.32600
64.8,0.32800
65.6,0.32800
63.7,0.33000
62.5,0.33000
65.3,0.33000
65.4,0.33200
64.6,0.33200
64.4,0.33200
64.8,0.33400
65.9,0.33400
68.1,0.33600
67.3,0.33600
68.2,0.33800
67.4,0.33800
69.9,0.33800
68.5,0.34000
69.8,0.34000
67.7,0.34200
69.4,0.34200
70.4,0.34400
71.6,0.34400
71.0,0.34600
71.8,0.34600
73.3,0.34600
73.0,0.34800
74.1,0.34800
74.8,0.34800
74.4,0.35000
72.6,0.35000
73.4,0.35200
76.5,0.35200
75.0,0.35400
74.7,0.35400
73.1,0.35400
75.9,0.35600
75.0,0.35600
76.9,0.35800
79.1,0.35800
75.9,0.36000
77.8,0.36000
80.6,0.36000
78.8,0.36200
77.4,0.36200
78.5,0.36200
77.8,0.36400
79.2,0.36400
81.1,0.36600
80.5,0.36600
80.5,0.36800
79.8,0.36800
81.2,0.37000
81.1,0.37000
80.1,0.37000
80.6,0.37200
82.1,0.37200
82.2,0.37200
82.7,0.37400
80.9,0.37400
83.1,0.37600
82.1,0.37600
83.5,0.37800
84.2,0.37800
85.4,0.37800
84.2,0.38000
84.9,0.38000
87.1,0.38000
87.7,0.38200
86.5,0.38400
86.1,0.38400
88.0,0.38400
88.3,0.38600
89.2,0.38600
88.7,0.38600
85.8,0.38800
87.5,0.38800
90.6,0.39000
89.5,0.39000
90.6,0.39200
91.3,0.39200
91.7,0.39200
92.8,0.39400
92.5,0.39400
93.1,0.39600
92.0,0.39600
92.0,0.39600
93.4,0.39800
94.2,0.39800
93.6,0.40000
94.8,0.40000
95.4,0.40200
96.9,0.40200
96.3,0.40200
97.0,0.40400
96.6,0.40400
95.3,0.40600
94.3,0.40600
96.3,0.40800
97.5,0.40800
97.9,0.40800
99.5,0.41000
99.2,0.41000
99.2,0.41000
99.2,0.41200
98.8,0.41200
97.5,0.41400
98.4,0.41400
101.0,0.41600
101.6,0.41600
102.6,0.41800
101.0,0.41800
101.9,0.41800
103.2,0.42000
102.1,0.42000
102.6,0.42000
2.8,0.42200


