""
"Test Method","UG Lab Glass 3 Pt Bend mm_N.msm"
"Sample I. D.","Tempered.mss"
"Specimen Number","5"

"Load (N)","Crosshead (mm)"

0.5,0.00000
-1.2,0.00200
-0.7,0.00200
-0.5,0.00400
-0.1,0.00600
0.7,0.00800
-0.8,0.01000
-0.9,0.01200
-2.1,0.01200
0.6,0.01400
-1.7,0.01600
-1.9,0.01800
-0.7,0.02000
-1.5,0.02200
-0.9,0.02400
-1.0,0.02400
-2.4,0.02600
0.1,0.02800
-1.2,0.03000
-1.2,0.03200
0.8,0.03400
0.6,0.03400
-0.8,0.03600
-0.8,0.03800
0.1,0.04000
1.8,0.04200
-0.1,0.04200
2.0,0.04400
-0.2,0.04600
-1.0,0.04800
-1.3,0.05000
0.7,0.05200
-0.8,0.05200
-0.8,0.05600
-0.1,0.05600
-0.5,0.05800
-1.2,0.06000
-2.3,0.06200
0.0,0.06400
-0.7,0.06600
-1.0,0.06600
-1.4,0.06800
-2.5,0.07000
-3.6,0.07200
-0.9,0.07400
-0.1,0.07400
-0.2,0.07600
-1.0,0.07800
-1.9,0.08000
-1.8,0.08200
-0.7,0.08400
-0.1,0.08400
-2.1,0.08600
-0.5,0.08800
0.3,0.09000
-0.9,0.09200
-0.3,0.09400
-0.8,0.09600
0.6,0.09600
0.7,0.09800
0.4,0.10000
-0.7,0.10200
0.8,0.10400
0.4,0.10600
-1.0,0.10600
0.3,0.10800
0.1,0.11000
1.0,0.11200
-2.4,0.11400
-0.4,0.11400
0.1,0.11600
2.5,0.11800
-0.1,0.12000
-0.6,0.12200
-0.8,0.12200
-0.8,0.12400
-0.8,0.12600
0.3,0.12800
-0.5,0.13000
0.3,0.13200
-0.9,0.13200
-1.3,0.13400
-0.4,0.13600
-1.9,0.13800
-1.0,0.14000
-0.7,0.14200
-0.3,0.14400
-0.3,0.14400
-1.1,0.14600
2.4,0.14800
0.9,0.15000
2.6,0.15200
4.1,0.15400
2.5,0.15400
5.3,0.15600
6.4,0.15800
5.1,0.16000
6.4,0.16200
5.8,0.16200
7.6,0.16400
7.0,0.16600
8.6,0.16800
9.7,0.17000
8.0,0.17200
11.1,0.17200
10.0,0.17400
10.6,0.17600
12.2,0.17800
10.8,0.18000
13.5,0.18200
13.7,0.18400
14.1,0.18400
15.5,0.18600
15.8,0.18800
16.3,0.19000
17.5,0.19200
18.5,0.19400
19.8,0.19400
19.3,0.19600
21.3,0.19800
19.1,0.20000
19.6,0.20200
22.3,0.20200
21.9,0.20400
21.7,0.20600
24.6,0.20800
26.1,0.21000
26.3,0.21200
25.2,0.21200
28.3,0.21600
28.0,0.21600
28.5,0.21800
28.7,0.22000
27.1,0.22200
29.5,0.22400
29.9,0.22400
29.8,0.22600
32.8,0.22800
33.1,0.23000
33.0,0.23200
34.5,0.23400
34.2,0.23400
34.7,0.23600
35.3,0.23800
35.5,0.24000
37.9,0.24200
37.7,0.24200
36.0,0.24400
38.8,0.24600
38.5,0.24800
39.2,0.25000
40.8,0.25000
42.2,0.25200
44.7,0.25400
43.6,0.25600
43.5,0.25800
45.0,0.26000
43.3,0.26000
45.0,0.26200
46.2,0.26400
48.2,0.26600
49.0,0.26800
47.8,0.27000
50.4,0.27200
49.4,0.27200
50.7,0.27400
52.5,0.27600
52.3,0.27800
53.4,0.28000
52.2,0.28200
53.9,0.28200
57.5,0.28400
55.5,0.28600
57.6,0.28800
55.2,0.29000
57.2,0.29000
59.8,0.29200
58.7,0.29400
61.1,0.29600
61.4,0.29800
60.1,0.30000
62.4,0.30000
61.5,0.30200
63.1,0.30400
62.6,0.30600
63.8,0.30800
65.6,0.31000
66.3,0.31200
66.8,0.31200
66.7,0.31400
66.6,0.31600
68.7,0.31800
68.9,0.32000
70.6,0.32200
71.1,0.32200
71.6,0.32400
71.7,0.32600
75.2,0.32800
73.6,0.33000
74.5,0.33000
75.4,0.33200
76.0,0.33400
78.0,0.33600
76.4,0.33800
78.6,0.34000
77.8,0.34000
78.8,0.34200
81.5,0.34400
79.8,0.34600
81.4,0.34800
81.8,0.35000
82.9,0.35200
85.3,0.35200
84.7,0.35400
85.0,0.35600
83.2,0.35800
85.5,0.36000
85.6,0.36200
89.7,0.36200
88.7,0.36400
89.6,0.36600
90.6,0.36800
91.0,0.37000
88.6,0.37000
93.4,0.37200
93.7,0.37400
91.7,0.37600
94.4,0.37800
93.1,0.38000
94.1,0.38000
97.0,0.38200
97.3,0.38400
100.3,0.38600
97.7,0.38800
98.7,0.39000
100.9,0.39200
100.2,0.39200
100.4,0.39400
101.2,0.39600
102.3,0.39800
103.6,0.40000
103.4,0.40200
105.2,0.40200
103.7,0.40400
105.2,0.40600
109.1,0.40800
104.7,0.41000
111.1,0.41000
108.4,0.41200
107.5,0.41400
111.4,0.41600
110.7,0.41800
113.3,0.42000
112.7,0.42000
112.7,0.42200
113.0,0.42400
115.1,0.42600
117.5,0.42800
116.9,0.42800
116.3,0.43200
117.4,0.43200
118.8,0.43400
120.7,0.43600
120.0,0.43800
119.8,0.44000
122.4,0.44000
121.4,0.44200
120.3,0.44400
123.3,0.44600
122.6,0.44800
123.0,0.45000
124.5,0.45000
124.3,0.45200
128.2,0.45400
127.3,0.45600
126.6,0.45800
127.8,0.45800
128.4,0.46000
130.7,0.46200
129.0,0.46400
130.0,0.46600
131.1,0.46800
131.9,0.46800
132.3,0.47000
133.2,0.47200
134.9,0.47400
138.3,0.47600
137.0,0.47800
136.8,0.48000
137.0,0.48000
137.0,0.48200
139.5,0.48400
139.9,0.48600
140.2,0.48800
141.4,0.49000
140.9,0.49000
140.9,0.49200
142.3,0.49400
143.6,0.49600
145.8,0.49800
144.8,0.50000
146.0,0.50000
146.4,0.50200
147.7,0.50400
147.6,0.50600
149.5,0.50800
150.6,0.51000
150.2,0.51200
149.5,0.51200
152.1,0.51400
152.0,0.51600
153.2,0.51800
154.2,0.52000
155.1,0.52200
156.2,0.52200
152.3,0.52400
156.1,0.52600
156.1,0.52800
158.3,0.53000
158.8,0.53000
159.1,0.53200
157.0,0.53400
160.9,0.53600
159.0,0.53800
160.3,0.53800
161.1,0.54000
162.7,0.54200
163.7,0.54400
166.4,0.54600
165.3,0.54800
166.5,0.54800
166.0,0.55200
167.9,0.55200
169.9,0.55400
168.7,0.55600
170.2,0.55800
169.1,0.56000
170.9,0.56000
170.8,0.56200
173.6,0.56400
172.8,0.56600
172.4,0.56800
174.6,0.57000
174.4,0.57000
174.7,0.57200
175.4,0.57400
173.9,0.57600
178.1,0.57800
177.7,0.57800
178.2,0.58000
179.5,0.58200
179.9,0.58400
184.0,0.58600
182.0,0.58800
181.8,0.58800
184.1,0.59000
184.5,0.59200
184.4,0.59400
185.8,0.59600
186.3,0.59800
187.8,0.60000
186.1,0.60200
187.3,0.60200
189.6,0.60400
189.6,0.60600
190.4,0.60800
190.9,0.61000
191.7,0.61000
191.9,0.61200
192.5,0.61400
194.0,0.61600
195.8,0.61800
195.4,0.61800
196.7,0.62000
195.9,0.62200
198.1,0.62400
198.0,0.62600
200.0,0.62800
200.9,0.62800
201.4,0.63200
201.0,0.63200
203.3,0.63400
201.7,0.63600
203.3,0.63800
203.9,0.64000
204.8,0.64200
207.4,0.64200
206.3,0.64400
207.7,0.64600
209.4,0.64800
207.5,0.65000
209.9,0.65000
210.2,0.65200
212.1,0.65400
211.1,0.65600
211.6,0.65800
212.9,0.65800
209.7,0.66000
213.5,0.66200
216.4,0.66400
215.2,0.66600
215.0,0.66800
214.4,0.66800
215.4,0.67000
218.2,0.67200
219.5,0.67400
220.7,0.67600
220.3,0.67800
221.1,0.68000
221.3,0.68000
221.3,0.68200
222.7,0.68400
223.9,0.68600
223.2,0.68800
227.8,0.69000
224.5,0.69000
227.3,0.69200
226.9,0.69400
228.0,0.69600
231.8,0.69800
229.5,0.70000
227.4,0.70000
231.0,0.70200
230.1,0.70400
233.4,0.70600
232.9,0.70800
233.8,0.71000
235.2,0.71200
234.8,0.71200
236.1,0.71400
237.6,0.71600
237.0,0.71800
239.7,0.72000
239.8,0.72200
241.6,0.72200
240.4,0.72400
241.4,0.72600
241.6,0.72800
242.8,0.73000
245.4,0.73000
245.9,0.73200
244.6,0.73400
245.0,0.73600
244.9,0.73800
248.0,0.74000
248.6,0.74000
247.6,0.74200
249.0,0.74400
247.7,0.74600
249.2,0.74800
251.1,0.75000
250.9,0.75200
252.5,0.75200
252.6,0.75400
254.7,0.75600
253.2,0.75800
253.8,0.76000
255.6,0.76200
257.7,0.76200
256.9,0.76400
259.7,0.76600
257.7,0.76800
258.6,0.77000
261.5,0.77000
261.7,0.77200
261.2,0.77400
261.6,0.77600
261.8,0.77800
262.6,0.78000
265.6,0.78000
264.4,0.78200
266.6,0.78400
265.5,0.78600
267.3,0.78800
266.7,0.79000
268.7,0.79200
268.7,0.79200
267.8,0.79400
271.1,0.79600
273.2,0.79800
272.9,0.80000
272.7,0.80200
271.0,0.80200
274.6,0.80400
274.4,0.80600
276.8,0.80800
277.5,0.81000
276.4,0.81000
277.3,0.81200
276.7,0.81400
276.3,0.81600
282.1,0.81800
281.6,0.82000
282.1,0.82000
282.0,0.82200
283.0,0.82400
283.6,0.82600
282.9,0.82800
286.6,0.83000
286.7,0.83200
286.3,0.83200
287.3,0.83400
286.5,0.83600
286.6,0.83800
289.4,0.84000
289.7,0.84200
293.4,0.84200
291.8,0.84400
292.4,0.84600
291.8,0.84800
292.9,0.85000
296.2,0.85000
296.0,0.85200
295.6,0.85400
297.1,0.85600
294.1,0.85800
299.1,0.86000
298.5,0.86200
299.7,0.86400
300.3,0.86400
304.3,0.86600
302.4,0.86800
302.8,0.87000
303.6,0.87200
303.5,0.87400
303.6,0.87400
306.1,0.87600
307.9,0.87800
307.4,0.88000
310.0,0.88200
308.8,0.88200
310.1,0.88400
310.3,0.88600
310.6,0.88800
312.6,0.89000
311.4,0.89200
312.3,0.89200
313.8,0.89400
314.1,0.89600
316.0,0.89800
315.7,0.90000
314.0,0.90000
316.9,0.90400
318.2,0.90400
318.4,0.90600
319.4,0.90800
318.6,0.91000
320.5,0.91200
319.9,0.91200
321.1,0.91400
322.2,0.91600
323.1,0.91800
324.1,0.92000
326.0,0.92200
324.5,0.92200
327.6,0.92400
325.4,0.92600
328.9,0.92800
329.5,0.93000
330.7,0.93000
331.5,0.93200
331.7,0.93400
330.5,0.93600
333.4,0.93800
332.2,0.94000
334.9,0.94000
336.2,0.94200
337.2,0.94400
335.0,0.94600
337.8,0.94800
338.8,0.95000
338.4,0.95200
339.4,0.95200
341.5,0.95400
340.5,0.95600
341.6,0.95800
341.1,0.96000
341.0,0.96200
343.0,0.96200
346.1,0.96400
346.5,0.96600
346.2,0.96800
343.8,0.97000
348.8,0.97000
347.0,0.97200
350.4,0.97400
348.2,0.97600
348.8,0.97800
351.5,0.98000
350.0,0.98000
349.1,0.98200
351.4,0.98400
353.5,0.98600
354.6,0.98800
354.5,0.99000
354.2,0.99200
356.8,0.99200
356.7,0.99400
357.9,0.99600
359.1,0.99800
360.5,1.00000
362.5,1.00200
359.3,1.00200
361.3,1.00400
361.2,1.00600
361.7,1.00800
365.3,1.01000
363.7,1.01000
363.9,1.01200
365.4,1.01400
365.7,1.01600
367.0,1.01800
367.9,1.02000
366.4,1.02000
367.6,1.02400
370.1,1.02400
370.0,1.02600
370.7,1.02800
369.4,1.03000
373.9,1.03200
371.9,1.03400
373.9,1.03400
374.1,1.03600
372.5,1.03800
375.3,1.04000
375.0,1.04200
376.9,1.04200
377.2,1.04400
377.0,1.04600
379.4,1.04800
377.5,1.05000
381.4,1.05200
380.8,1.05200
381.7,1.05400
384.6,1.05600
383.0,1.05800
381.7,1.06000
385.9,1.06200
-0.3,1.06400


