""
"Test Method","UG Lab Glass 3 Pt Bend mm_N.msm"
"Sample I. D.","Tempered.mss"
"Specimen Number","6"

"Load (N)","Crosshead (mm)"

4.7,0.00000
6.4,0.00200
6.0,0.00200
3.1,0.00200
2.5,0.00400
3.6,0.00400
4.3,0.00600
2.2,0.00600
2.0,0.00800
3.0,0.00800
2.9,0.00800
4.1,0.01000
3.3,0.01000
4.0,0.01000
1.4,0.01200
3.2,0.01200
5.1,0.01400
1.7,0.01400
1.3,0.01600
3.6,0.01600
3.6,0.01800
3.6,0.01800
2.8,0.01800
1.7,0.02000
1.9,0.02000
2.2,0.02000
4.5,0.02200
4.3,0.02200
3.6,0.02400
3.7,0.02400
3.5,0.02600
4.5,0.02600
1.8,0.02600
3.1,0.02800
3.6,0.02800
1.4,0.03000
5.8,0.03000
5.7,0.03200
6.2,0.03200
2.9,0.03200
5.1,0.03400
4.0,0.03400
3.3,0.03400
4.2,0.03600
3.4,0.03600
2.1,0.03800
3.4,0.03800
3.7,0.04000
2.6,0.04000
3.3,0.04200
1.7,0.04200
5.3,0.04200
4.5,0.04400
3.5,0.04400
3.7,0.04400
3.4,0.04600
2.7,0.04600
3.6,0.04800
2.8,0.04800
2.7,0.05000
2.3,0.05000
3.4,0.05000
4.9,0.05200
3.8,0.05200
1.5,0.05400
0.6,0.05400
2.8,0.05600
3.7,0.05600
4.1,0.05600
2.5,0.05800
2.6,0.05800
3.0,0.05800
0.9,0.06000
1.3,0.06000
0.4,0.06200
3.0,0.06200
1.9,0.06400
2.8,0.06400
3.3,0.06600
3.3,0.06600
4.5,0.06600
2.1,0.06800
4.1,0.06800
3.5,0.07000
4.2,0.07000
2.3,0.07200
3.1,0.07200
2.2,0.07200
3.0,0.07400
2.6,0.07400
2.9,0.07400
1.4,0.07600
6.1,0.07600
4.0,0.07800
4.5,0.07800
5.0,0.08000
2.2,0.08000
2.7,0.08200
4.4,0.08200
3.0,0.08200
2.4,0.08400
1.7,0.08400
1.6,0.08400
1.8,0.08600
3.7,0.08800
3.8,0.08800
4.0,0.08800
3.3,0.09000
3.5,0.09000
6.3,0.09000
3.9,0.09200
1.7,0.09200
2.8,0.09400
2.9,0.09400
3.2,0.09600
2.4,0.09600
1.4,0.09800
2.8,0.09800
3.7,0.09800
2.7,0.10000
1.8,0.10000
2.8,0.10000
4.0,0.10200
4.6,0.10200
3.9,0.10400
3.4,0.10400
2.9,0.10600
2.7,0.10600
3.9,0.10600
3.7,0.10800
2.5,0.10800
2.2,0.11000
2.0,0.11000
4.4,0.11200
3.3,0.11200
3.1,0.11200
2.1,0.11400
2.8,0.11400
3.0,0.11400
3.4,0.11600
3.7,0.11600
0.5,0.11800
1.5,0.11800
4.3,0.12000
2.6,0.12000
3.9,0.12200
3.2,0.12200
2.8,0.12200
4.4,0.12400
5.8,0.12400
5.7,0.12400
3.2,0.12600
2.0,0.12600
2.6,0.12800
3.9,0.12800
4.1,0.13000
1.6,0.13000
3.9,0.13000
4.0,0.13200
3.3,0.13200
4.5,0.13400
3.7,0.13400
2.9,0.13600
3.6,0.13600
2.8,0.13600
2.9,0.13800
2.8,0.13800
1.6,0.13800
1.9,0.14000
3.3,0.14000
4.8,0.14200
5.4,0.14200
4.2,0.14400
1.3,0.14400
3.8,0.14600
5.1,0.14600
4.0,0.14600
3.4,0.14800
3.2,0.14800
3.4,0.14800
3.7,0.15000
1.6,0.15200
2.3,0.15200
2.9,0.15200
1.3,0.15400
3.9,0.15400
3.4,0.15400
2.2,0.15600
3.8,0.15600
3.4,0.15800
3.4,0.15800
2.8,0.16000
2.7,0.16000
3.3,0.16200
2.6,0.16200
1.4,0.16200
3.0,0.16400
1.6,0.16400
2.0,0.16400
1.5,0.16600
3.2,0.16600
3.1,0.16800
2.1,0.16800
2.9,0.17000
0.7,0.17000
2.2,0.17000
3.3,0.17200
2.9,0.17200
0.6,0.17400
2.4,0.17400
4.1,0.17600
5.1,0.17600
4.4,0.17600
3.1,0.17800
4.0,0.17800
2.9,0.18000
3.1,0.18000
1.6,0.18000
0.7,0.18200
1.0,0.18200
3.4,0.18400
4.4,0.18400
4.2,0.18600
4.0,0.18600
3.5,0.18600
5.2,0.18800
6.9,0.18800
7.4,0.19000
6.6,0.19000
4.9,0.19200
5.3,0.19200
4.9,0.19200
6.1,0.19400
6.4,0.19400
5.9,0.19400
5.1,0.19600
7.3,0.19600
7.7,0.19800
6.7,0.19800
7.6,0.20000
6.9,0.20000
9.0,0.20200
10.1,0.20200
8.6,0.20200
6.7,0.20400
7.9,0.20400
9.5,0.20400
9.6,0.20600
7.4,0.20600
7.3,0.20800
9.5,0.20800
11.4,0.21000
11.3,0.21000
11.2,0.21000
10.9,0.21200
13.3,0.21200
11.8,0.21400
11.6,0.21400
10.7,0.21600
12.5,0.21600
11.5,0.21800
13.8,0.21800
16.5,0.21800
15.0,0.22000
15.1,0.22000
16.6,0.22000
16.3,0.22200
16.2,0.22200
16.3,0.22400
18.2,0.22400
16.3,0.22600
14.4,0.22600
15.5,0.22600
17.7,0.22800
16.9,0.22800
16.8,0.23000
17.0,0.23000
17.6,0.23200
19.2,0.23200
18.9,0.23200
18.9,0.23400
18.8,0.23400
22.0,0.23400
21.8,0.23600
22.4,0.23600
21.5,0.23800
20.1,0.23800
22.3,0.24000
22.2,0.24000
21.4,0.24200
21.0,0.24200
20.6,0.24200
21.2,0.24400
23.4,0.24400
24.5,0.24600
22.0,0.24600
22.2,0.24800
23.6,0.24800
25.7,0.24800
23.8,0.25000
23.5,0.25000
26.0,0.25000
26.5,0.25200
27.9,0.25200
26.3,0.25400
26.4,0.25400
27.9,0.25600
27.7,0.25600
27.8,0.25800
27.7,0.25800
26.9,0.25800
27.7,0.26000
26.3,0.26000
29.8,0.26000
29.0,0.26200
28.4,0.26200
27.5,0.26400
29.4,0.26400
29.5,0.26600
30.9,0.26600
30.8,0.26600
32.1,0.26800
32.3,0.26800
33.9,0.27000
32.0,0.27000
30.7,0.27200
32.7,0.27200
31.4,0.27400
31.3,0.27400
32.5,0.27400
33.6,0.27600
34.7,0.27600
33.9,0.27600
36.6,0.27800
35.6,0.27800
34.8,0.28000
35.2,0.28000
34.1,0.28200
34.8,0.28200
35.5,0.28200
35.5,0.28400
37.4,0.28400
39.0,0.28600
38.3,0.28600
37.8,0.28800
38.3,0.28800
37.8,0.29000
38.8,0.29000
39.9,0.29000
39.4,0.29200
40.7,0.29200
38.9,0.29200
39.6,0.29400
38.8,0.29400
39.5,0.29600
40.7,0.29600
40.5,0.29800
39.4,0.29800
39.7,0.29800
42.0,0.30000
42.9,0.30000
43.0,0.30200
42.2,0.30200
45.4,0.30400
44.9,0.30400
43.1,0.30400
45.6,0.30600
45.8,0.30600
42.9,0.30600
46.3,0.30800
48.1,0.30800
45.4,0.31000
47.9,0.31000
45.4,0.31200
46.7,0.31200
48.6,0.31400
48.3,0.31400
48.9,0.31400
46.4,0.31600
48.4,0.31600
49.1,0.31600
48.4,0.31800
47.0,0.31800
49.9,0.32000
49.8,0.32000
48.7,0.32200
51.9,0.32200
51.8,0.32200
49.8,0.32400
52.5,0.32400
53.6,0.32600
52.5,0.32600
52.2,0.32800
51.7,0.32800
52.0,0.32800
53.6,0.33000
53.9,0.33000
53.6,0.33000
54.6,0.33200
55.0,0.33200
56.6,0.33400
56.9,0.33400
53.9,0.33600
55.8,0.33600
55.8,0.33800
56.5,0.33800
57.2,0.33800
55.3,0.34000
56.2,0.34000
53.9,0.34000
59.1,0.34200
58.4,0.34200
57.8,0.34400
59.1,0.34400
60.5,0.34600
59.8,0.34600
59.0,0.34600
60.3,0.34800
58.7,0.34800
58.8,0.35000
59.3,0.35000
58.9,0.35200
59.8,0.35200
61.2,0.35200
60.2,0.35400
62.4,0.35400
63.2,0.35400
64.6,0.35600
64.3,0.35600
64.8,0.35800
66.3,0.35800
63.1,0.36000
63.7,0.36000
64.8,0.36200
64.7,0.36200
64.7,0.36200
65.6,0.36400
64.4,0.36400
65.8,0.36400
64.7,0.36600
67.2,0.36600
68.0,0.36800
68.6,0.36800
67.9,0.37000
69.4,0.37000
67.5,0.37000
69.0,0.37200
69.3,0.37200
69.6,0.37400
69.0,0.37400
68.8,0.37600
71.3,0.37600
72.0,0.37600
71.3,0.37800
69.9,0.37800
71.0,0.38000
72.6,0.38000
72.7,0.38000
71.1,0.38200
70.4,0.38200
71.0,0.38400
72.7,0.38400
73.8,0.38600
73.9,0.38600
73.9,0.38600
72.8,0.38800
75.8,0.38800
75.6,0.39000
76.8,0.39000
76.9,0.39200
75.3,0.39200
77.0,0.39200
76.9,0.39400
77.2,0.39400
76.8,0.39400
76.7,0.39600
77.2,0.39600
77.7,0.39800
79.5,0.39800
77.5,0.40000
79.0,0.40000
77.1,0.40200
79.4,0.40200
79.9,0.40200
80.0,0.40400
79.6,0.40400
78.0,0.40600
80.6,0.40600
80.5,0.40800
81.3,0.40800
81.6,0.40800
82.2,0.41000
82.3,0.41000
82.5,0.41000
85.3,0.41200
83.2,0.41200
83.8,0.41400
84.6,0.41400
82.5,0.41600
85.7,0.41600
83.4,0.41800
83.3,0.41800
83.7,0.41800
86.4,0.42000
87.2,0.42000
85.7,0.42000
85.9,0.42200
88.9,0.42200
88.2,0.42400
87.5,0.42400
87.7,0.42600
86.4,0.42600
88.5,0.42600
89.6,0.42800
89.1,0.42800
89.0,0.43000
88.6,0.43000
91.2,0.43200
91.9,0.43200
91.0,0.43200
90.1,0.43400
90.1,0.43400
90.3,0.43400
92.4,0.43600
93.3,0.43600
93.6,0.43800
92.2,0.43800
92.2,0.44000
93.1,0.44000
92.8,0.44200
93.5,0.44200
93.4,0.44200
94.9,0.44400
96.8,0.44400
94.5,0.44400
94.6,0.44600
95.6,0.44800
95.6,0.44800
96.0,0.44800
96.0,0.45000
96.0,0.45000
95.6,0.45000
96.0,0.45200
98.6,0.45200
98.8,0.45400
99.9,0.45400
98.9,0.45600
99.4,0.45600
101.1,0.45600
98.0,0.45800
101.4,0.45800
100.1,0.46000
99.5,0.46000
102.6,0.46000
100.2,0.46200
100.5,0.46200
100.4,0.46400
100.0,0.46400
104.3,0.46600
104.5,0.46600
104.6,0.46600
104.3,0.46800
105.0,0.46800
105.1,0.46800
106.6,0.47000
107.0,0.47200
106.0,0.47200
105.9,0.47200
104.9,0.47400
106.7,0.47400
104.9,0.47400
105.2,0.47600
107.3,0.47600
107.2,0.47800
108.1,0.47800
109.0,0.48000
110.0,0.48000
108.1,0.48200
107.9,0.48200
109.3,0.48200
107.4,0.48400
108.8,0.48400
110.4,0.48400
108.2,0.48600
109.8,0.48600
112.1,0.48800
111.7,0.48800
111.3,0.49000
112.8,0.49000
113.3,0.49000
112.6,0.49200
112.2,0.49200
109.8,0.49400
112.3,0.49400
112.5,0.49600
113.6,0.49600
115.2,0.49600
115.2,0.49800
114.6,0.49800
115.1,0.50000
115.4,0.50000
116.4,0.50000
116.4,0.50200
115.3,0.50200
117.5,0.50400
114.5,0.50400
116.6,0.50600
114.4,0.50600
117.1,0.50600
116.3,0.50800
117.9,0.50800
120.3,0.51000
117.3,0.51000
118.7,0.51200
120.7,0.51200
120.2,0.51200
120.2,0.51400
121.2,0.51400
121.0,0.51400
121.5,0.51600
121.5,0.51600
121.0,0.51800
123.1,0.51800
123.0,0.52000
122.0,0.52000
123.4,0.52200
124.6,0.52200
122.8,0.52200
124.3,0.52400
123.3,0.52400
126.0,0.52400
125.1,0.52600
125.2,0.52600
125.5,0.52800
124.5,0.52800
127.6,0.53000
126.7,0.53000
128.5,0.53000
127.1,0.53200
127.0,0.53200
129.1,0.53400
128.3,0.53400
129.8,0.53600
129.4,0.53600
129.2,0.53600
128.2,0.53800
129.2,0.53800
127.7,0.53800
129.3,0.54000
129.4,0.54000
129.7,0.54200
130.7,0.54200
131.7,0.54400
132.2,0.54400
131.4,0.54600
132.4,0.54600
134.7,0.54600
132.8,0.54800
132.6,0.54800
133.2,0.55000
132.9,0.55000
132.7,0.55200
134.4,0.55200
133.8,0.55200
135.9,0.55400
133.0,0.55400
135.4,0.55400
135.2,0.55600
135.8,0.55600
135.4,0.55800
136.6,0.55800
136.3,0.56000
137.1,0.56000
137.7,0.56200
135.8,0.56200
135.4,0.56200
137.0,0.56400
137.0,0.56400
138.7,0.56400
138.1,0.56600
139.0,0.56600
139.6,0.56800
138.6,0.56800
139.2,0.57000
140.0,0.57000
141.0,0.57000
140.2,0.57200
141.5,0.57200
143.5,0.57400
141.5,0.57400
142.1,0.57600
141.8,0.57600
142.0,0.57800
144.0,0.57800
142.4,0.57800
142.6,0.58000
144.3,0.58000
143.8,0.58000
143.3,0.58200
144.2,0.58200
143.8,0.58400
141.3,0.58400
145.2,0.58600
145.6,0.58600
146.0,0.58600
148.0,0.58800
147.1,0.58800
147.8,0.59000
147.7,0.59000
146.2,0.59200
148.2,0.59200
148.7,0.59200
148.6,0.59400
147.8,0.59400
149.3,0.59600
147.7,0.59600
148.3,0.59600
151.5,0.59800
151.3,0.59800
150.4,0.60000
150.7,0.60000
151.4,0.60200
150.6,0.60200
152.6,0.60200
152.0,0.60400
151.3,0.60400
150.5,0.60600
153.9,0.60600
153.1,0.60800
150.7,0.60800
152.3,0.60800
152.0,0.61000
155.3,0.61000
155.9,0.61200
155.9,0.61200
155.5,0.61200
155.3,0.61400
154.6,0.61400
157.2,0.61600
156.6,0.61600
155.9,0.61800
155.8,0.61800
156.5,0.61800
156.1,0.62000
157.8,0.62000
157.0,0.62000
157.4,0.62200
159.5,0.62200
161.1,0.62400
160.1,0.62400
158.8,0.62600
158.8,0.62600
159.3,0.62600
162.0,0.62800
161.6,0.62800
160.8,0.63000
160.9,0.63000
161.0,0.63200
165.2,0.63200
165.1,0.63200
164.3,0.63400
163.0,0.63400
162.8,0.63400
165.9,0.63600
162.8,0.63600
163.5,0.63800
164.1,0.63800
164.3,0.64000
165.1,0.64000
167.1,0.64200
167.3,0.64200
163.7,0.64200
164.5,0.64400
166.5,0.64400
168.2,0.64400
168.6,0.64600
166.4,0.64600
167.2,0.64800
168.5,0.64800
168.9,0.65000
168.0,0.65000
167.3,0.65000
168.7,0.65200
167.6,0.65200
167.8,0.65400
170.9,0.65400
171.7,0.65600
170.5,0.65600
171.0,0.65600
171.6,0.65800
170.9,0.65800
170.1,0.65800
170.8,0.66000
171.9,0.66000
171.5,0.66200
172.5,0.66200
171.4,0.66400
171.2,0.66400
172.9,0.66600
174.4,0.66600
174.5,0.66600
173.2,0.66800
175.4,0.66800
173.8,0.66800
173.3,0.67000
174.7,0.67000
175.7,0.67200
176.2,0.67200
174.7,0.67400
175.9,0.67400
175.5,0.67400
177.0,0.67600
178.4,0.67600
177.9,0.67800
179.1,0.67800
178.6,0.68000
178.8,0.68000
177.7,0.68000
178.3,0.68200
181.2,0.68200
181.6,0.68400
180.3,0.68400
180.1,0.68400
179.1,0.68600
178.9,0.68600
182.7,0.68800
183.7,0.68800
183.7,0.69000
181.6,0.69000
181.7,0.69000
182.4,0.69200
183.3,0.69200
181.9,0.69400
183.4,0.69400
183.6,0.69600
185.4,0.69600
186.6,0.69600
185.7,0.69800
187.0,0.69800
186.4,0.69800
187.1,0.70000
187.5,0.70000
187.1,0.70200
187.7,0.70200
188.8,0.70400
188.8,0.70400
187.2,0.70400
187.5,0.70600
189.0,0.70600
186.9,0.70800
188.6,0.70800
189.2,0.70800
190.9,0.71000
191.8,0.71000
188.5,0.71200
190.1,0.71200
189.7,0.71400
192.8,0.71400
191.2,0.71400
191.9,0.71600
192.6,0.71600
190.9,0.71800
192.6,0.71800
192.2,0.72000
191.6,0.72000
191.8,0.72000
194.7,0.72200
193.8,0.72200
196.0,0.72400
195.5,0.72400
196.5,0.72400
197.7,0.72600
195.2,0.72600
197.1,0.72800
196.9,0.72800
195.7,0.73000
197.5,0.73000
197.9,0.73000
198.9,0.73200
199.7,0.73200
197.2,0.73200
198.1,0.73400
199.6,0.73600
200.3,0.73600
199.6,0.73600
197.6,0.73800
198.4,0.73800
198.6,0.73800
199.8,0.74000
200.1,0.74000
200.5,0.74200
201.5,0.74200
202.6,0.74400
201.9,0.74400
205.1,0.74400
203.3,0.74600
204.1,0.74600
203.3,0.74800
204.1,0.74800
204.5,0.74800
202.8,0.75000
203.9,0.75000
204.0,0.75200
204.2,0.75200
204.6,0.75400
204.9,0.75400
207.8,0.75400
209.0,0.75600
207.8,0.75600
208.9,0.75800
207.6,0.75800
207.0,0.76000
207.2,0.76000
208.2,0.76000
206.9,0.76200
208.8,0.76200
210.1,0.76200
211.2,0.76400
212.4,0.76400
211.3,0.76600
211.1,0.76600
212.3,0.76800
213.7,0.76800
212.3,0.77000
213.8,0.77000
212.8,0.77000
212.1,0.77200
213.0,0.77200
213.3,0.77200
214.7,0.77400
214.0,0.77400
214.0,0.77600
215.1,0.77600
215.8,0.77800
214.7,0.77800
215.9,0.77800
216.1,0.78000
216.8,0.78000
216.2,0.78200
218.0,0.78200
217.3,0.78400
217.5,0.78400
219.3,0.78600
217.0,0.78600
217.0,0.78600
219.1,0.78800
220.0,0.78800
220.3,0.78800
220.4,0.79000
218.9,0.79000
218.9,0.79200
219.5,0.79200
217.7,0.79400
221.3,0.79400
220.6,0.79400
220.2,0.79600
221.3,0.79600
222.4,0.79800
221.4,0.79800
223.0,0.80000
222.1,0.80000
224.6,0.80000
224.0,0.80200
225.3,0.80200
225.2,0.80400
223.6,0.80400
224.9,0.80400
225.1,0.80600
226.4,0.80600
227.0,0.80800
228.2,0.80800
223.8,0.81000
227.4,0.81000
228.1,0.81000
227.5,0.81200
228.7,0.81200
228.9,0.81400
229.5,0.81400
229.4,0.81600
228.9,0.81600
230.5,0.81600
229.7,0.81800
230.1,0.81800
230.5,0.81800
230.1,0.82000
230.8,0.82000
231.2,0.82200
231.2,0.82200
233.7,0.82400
234.3,0.82400
234.0,0.82600
233.0,0.82600
231.6,0.82600
230.5,0.82800
233.3,0.82800
233.5,0.82800
232.8,0.83000
3.8,0.83000


