""
"Test Method","UG Lab Glass 3 Pt Bend mm_N.msm"
"Sample I. D.","Tempered.mss"
"Specimen Number","10"

"Load (N)","Crosshead (mm)"

2.9,0.00000
0.3,0.00200
-0.1,0.00200
0.3,0.00200
0.9,0.00400
-0.2,0.00400
-0.3,0.00600
0.2,0.00600
-0.4,0.00800
1.7,0.00800
1.7,0.01000
0.0,0.01000
1.5,0.01000
0.5,0.01200
3.4,0.01200
0.6,0.01200
2.3,0.01400
1.7,0.01400
-0.4,0.01600
1.8,0.01600
0.3,0.01800
-0.8,0.01800
-0.3,0.01800
-0.4,0.02000
0.2,0.02000
0.7,0.02200
0.8,0.02200
1.5,0.02400
1.0,0.02400
0.1,0.02400
1.4,0.02600
0.6,0.02600
0.7,0.02600
-0.7,0.02800
0.9,0.02800
-0.3,0.03000
1.9,0.03000
-1.0,0.03200
-0.3,0.03200
2.3,0.03400
1.2,0.03400
0.4,0.03400
0.9,0.03600
0.3,0.03600
1.0,0.03600
1.0,0.03800
1.1,0.03800
-1.6,0.04000
-0.4,0.04000
-0.1,0.04200
0.7,0.04200
0.5,0.04200
-0.4,0.04400
0.8,0.04400
0.9,0.04600
0.9,0.04600
0.9,0.04800
0.6,0.04800
-0.1,0.04800
0.4,0.05000
1.8,0.05000
-0.7,0.05200
0.1,0.05200
0.2,0.05200
-0.5,0.05400
0.9,0.05400
0.3,0.05600
1.2,0.05600
0.2,0.05800
1.8,0.05800
2.2,0.05800
1.5,0.06000
1.2,0.06000
-2.0,0.06200
-0.4,0.06200
-0.4,0.06400
-1.7,0.06400
-2.0,0.06400
0.6,0.06600
-1.0,0.06600
0.7,0.06600
2.2,0.06800
0.7,0.06800
0.1,0.07000
-2.0,0.07000
1.6,0.07200
2.7,0.07200
-0.4,0.07400
-0.2,0.07400
-3.5,0.07400
-0.9,0.07600
0.0,0.07600
-1.1,0.07600
0.1,0.07800
-1.8,0.08000
-2.3,0.08000
1.1,0.08000
1.3,0.08200
-0.3,0.08200
0.2,0.08200
-1.7,0.08400
0.5,0.08400
0.1,0.08600
0.4,0.08600
-0.8,0.08800
-2.8,0.08800
-1.8,0.09000
1.6,0.09000
-1.1,0.09000
-0.7,0.09200
1.1,0.09200
1.0,0.09200
-0.7,0.09400
-0.2,0.09400
-1.0,0.09600
-1.5,0.09600
-0.6,0.09800
0.9,0.09800
1.9,0.09800
-0.2,0.10000
1.3,0.10000
-0.2,0.10200
1.2,0.10200
0.8,0.10400
-1.4,0.10400
-0.9,0.10400
1.1,0.10600
-0.1,0.10600
-0.3,0.10600
0.2,0.10800
-0.8,0.10800
0.3,0.11000
1.9,0.11000
-0.9,0.11200
-0.1,0.11200
-1.0,0.11400
-1.0,0.11400
1.2,0.11400
-0.3,0.11600
-1.1,0.11600
-1.1,0.11600
-0.4,0.11800
1.8,0.12000
0.2,0.12000
0.0,0.12000
-2.7,0.12200
-1.7,0.12200
1.3,0.12200
2.4,0.12400
0.5,0.12400
-0.6,0.12600
-1.6,0.12600
3.4,0.12800
0.4,0.12800
-0.4,0.13000
-0.9,0.13000
-2.0,0.13000
-0.9,0.13200
-0.1,0.13200
0.1,0.13200
0.6,0.13400
-0.7,0.13400
0.8,0.13600
-0.2,0.13600
-0.3,0.13800
1.1,0.13800
-2.0,0.13800
0.6,0.14000
-0.8,0.14000
0.2,0.14200
-0.4,0.14200
-0.2,0.14400
1.7,0.14400
1.7,0.14400
3.4,0.14600
1.4,0.14600
-0.5,0.14800
1.3,0.14800
1.3,0.14800
0.0,0.15000
0.2,0.15000
-1.0,0.15200
-0.4,0.15200
0.3,0.15400
-0.7,0.15400
0.4,0.15400
0.4,0.15600
0.5,0.15600
0.6,0.15800
0.6,0.15800
0.9,0.16000
0.8,0.16000
1.2,0.16000
1.2,0.16200
-1.4,0.16200
0.1,0.16400
1.3,0.16400
-0.1,0.16400
-0.2,0.16600
0.5,0.16600
1.7,0.16800
0.5,0.16800
0.7,0.17000
0.5,0.17000
-0.6,0.17000
1.0,0.17200
-2.2,0.17200
-1.7,0.17400
0.7,0.17400
0.5,0.17600
2.2,0.17600
1.3,0.17600
-0.8,0.17800
1.4,0.17800
1.0,0.17800
2.1,0.18000
1.0,0.18000
-1.2,0.18200
0.1,0.18200
0.9,0.18400
-0.4,0.18400
1.2,0.18600
-0.1,0.18600
0.1,0.18600
0.3,0.18800
-0.6,0.18800
-2.3,0.18800
0.2,0.19000
-1.7,0.19000
1.6,0.19200
0.4,0.19200
0.9,0.19400
0.3,0.19400
-0.8,0.19400
-1.1,0.19600
0.6,0.19600
-0.4,0.19800
0.1,0.19800
-0.4,0.20000
-1.5,0.20000
1.8,0.20000
0.8,0.20200
0.6,0.20200
1.3,0.20200
0.3,0.20400
1.3,0.20400
1.8,0.20600
-1.2,0.20600
-1.7,0.20800
-0.4,0.20800
0.3,0.21000
2.6,0.21000
0.7,0.21000
1.6,0.21200
3.1,0.21200
-0.4,0.21200
1.0,0.21400
-1.3,0.21400
-0.6,0.21600
1.2,0.21600
0.1,0.21800
-0.2,0.21800
1.0,0.21800
0.4,0.22000
1.0,0.22000
0.8,0.22200
-0.5,0.22200
1.6,0.22400
-0.4,0.22400
0.5,0.22400
3.1,0.22600
0.8,0.22600
0.8,0.22800
-1.3,0.22800
-1.0,0.22800
0.4,0.23000
0.2,0.23000
-2.0,0.23200
-0.9,0.23200
-0.3,0.23400
0.9,0.23400
2.5,0.23400
2.8,0.23600
0.8,0.23600
0.6,0.23600
1.3,0.23800
1.4,0.23800
1.6,0.24000
0.3,0.24000
-1.2,0.24200
1.7,0.24200
0.7,0.24200
1.0,0.24400
1.2,0.24400
0.4,0.24600
1.8,0.24600
0.3,0.24800
1.3,0.24800
0.8,0.24800
1.5,0.25000
2.3,0.25000
3.4,0.25200
3.3,0.25200
3.5,0.25200
4.2,0.25400
2.7,0.25400
4.9,0.25600
5.3,0.25600
4.8,0.25800
6.2,0.25800
5.4,0.25800
6.2,0.26000
6.6,0.26000
6.3,0.26200
8.0,0.26200
7.3,0.26400
6.4,0.26400
6.4,0.26400
7.2,0.26600
6.2,0.26600
7.4,0.26800
8.9,0.26800
7.5,0.26800
11.1,0.27000
9.9,0.27000
11.3,0.27200
11.1,0.27200
11.7,0.27400
11.3,0.27400
10.8,0.27400
10.6,0.27600
11.8,0.27600
12.3,0.27800
12.7,0.27800
14.7,0.28000
12.2,0.28000
13.8,0.28000
16.5,0.28200
15.6,0.28200
13.9,0.28200
14.0,0.28400
13.8,0.28400
15.1,0.28600
15.8,0.28600
14.6,0.28800
15.2,0.28800
17.5,0.29000
17.6,0.29000
18.7,0.29000
15.9,0.29200
18.9,0.29200
17.4,0.29200
18.3,0.29400
18.4,0.29600
19.7,0.29600
18.7,0.29600
19.4,0.29800
19.8,0.29800
18.6,0.29800
18.7,0.30000
21.2,0.30000
22.8,0.30200
23.5,0.30200
24.2,0.30400
23.3,0.30400
22.6,0.30400
22.1,0.30600
24.1,0.30600
22.4,0.30800
21.9,0.30800
22.9,0.30800
22.4,0.31000
25.2,0.31000
25.4,0.31200
24.2,0.31200
24.8,0.31400
24.5,0.31400
25.7,0.31400
26.6,0.31600
27.8,0.31600
25.9,0.31800
25.1,0.31800
26.3,0.32000
26.8,0.32000
28.2,0.32000
28.5,0.32200
26.1,0.32200
28.1,0.32200
28.6,0.32400
29.0,0.32400
28.8,0.32600
29.2,0.32600
30.9,0.32800
30.1,0.32800
30.7,0.33000
30.4,0.33000
31.2,0.33000
30.7,0.33200
30.8,0.33200
32.4,0.33200
34.3,0.33400
31.5,0.33400
33.9,0.33600
35.2,0.33600
34.3,0.33800
32.0,0.33800
33.4,0.33800
32.5,0.34000
33.9,0.34000
34.5,0.34200
35.9,0.34200
35.4,0.34400
35.8,0.34400
36.8,0.34400
36.2,0.34600
38.8,0.34600
37.0,0.34800
36.5,0.34800
38.1,0.34800
38.0,0.35000
37.8,0.35000
36.9,0.35200
38.1,0.35200
40.0,0.35400
38.1,0.35400
39.9,0.35400
38.6,0.35600
38.7,0.35600
40.8,0.35800
42.0,0.35800
41.3,0.36000
41.4,0.36000
41.5,0.36000
41.6,0.36200
41.5,0.36200
42.7,0.36200
41.7,0.36400
42.5,0.36400
42.1,0.36600
44.5,0.36600
44.0,0.36800
46.9,0.36800
43.9,0.37000
43.7,0.37000
48.5,0.37000
47.3,0.37200
44.8,0.37200
45.7,0.37200
45.6,0.37400
46.1,0.37400
46.9,0.37600
47.0,0.37600
47.8,0.37800
47.6,0.37800
49.4,0.37800
48.9,0.38000
50.2,0.38000
49.4,0.38200
50.5,0.38200
53.6,0.38400
51.2,0.38400
51.7,0.38400
51.6,0.38600
51.4,0.38600
52.5,0.38600
51.9,0.38800
51.5,0.38800
53.4,0.39000
52.3,0.39000
55.4,0.39200
54.3,0.39200
54.8,0.39400
53.9,0.39400
53.9,0.39400
55.3,0.39600
54.7,0.39600
55.4,0.39600
57.0,0.39800
55.4,0.39800
56.6,0.40000
58.1,0.40000
56.8,0.40200
56.0,0.40200
57.5,0.40200
55.9,0.40400
59.5,0.40400
59.0,0.40600
58.2,0.40600
56.3,0.40800
58.6,0.40800
59.8,0.40800
59.9,0.41000
61.6,0.41000
62.6,0.41000
63.5,0.41200
63.8,0.41200
61.1,0.41400
63.1,0.41400
62.9,0.41600
61.8,0.41600
62.2,0.41800
62.2,0.41800
64.0,0.41800
61.6,0.42000
63.2,0.42000
63.8,0.42000
64.4,0.42200
65.4,0.42200
64.1,0.42400
64.9,0.42400
67.8,0.42600
66.3,0.42600
65.3,0.42600
67.3,0.42800
66.0,0.42800
66.2,0.43000
67.3,0.43000
67.3,0.43200
67.4,0.43200
67.7,0.43200
67.9,0.43400
70.9,0.43400
70.0,0.43400
70.9,0.43600
69.0,0.43600
71.1,0.43800
71.8,0.43800
70.6,0.44000
69.9,0.44000
71.3,0.44200
73.0,0.44200
72.4,0.44200
72.5,0.44400
71.5,0.44400
74.8,0.44400
74.0,0.44600
73.7,0.44600
74.4,0.44800
74.8,0.44800
74.5,0.45000
73.7,0.45000
76.7,0.45000
76.6,0.45200
77.2,0.45200
76.7,0.45400
77.3,0.45400
77.7,0.45600
78.3,0.45600
77.5,0.45800
78.8,0.45800
80.7,0.45800
80.1,0.46000
79.6,0.46000
80.5,0.46000
80.5,0.46200
79.4,0.46200
78.8,0.46400
81.4,0.46400
82.1,0.46600
79.8,0.46600
81.8,0.46600
81.3,0.46800
83.2,0.46800
84.0,0.47000
82.9,0.47000
85.0,0.47200
85.1,0.47200
84.9,0.47200
83.6,0.47400
83.3,0.47400
84.1,0.47600
84.3,0.47600
85.6,0.47600
83.7,0.47800
85.8,0.47800
85.5,0.48000
86.9,0.48000
88.2,0.48200
87.7,0.48200
87.2,0.48200
86.8,0.48400
87.1,0.48400
90.0,0.48600
89.2,0.48600
89.3,0.48800
89.1,0.48800
90.1,0.48800
89.9,0.49000
90.1,0.49000
92.3,0.49200
92.8,0.49200
90.7,0.49200
90.9,0.49400
92.5,0.49400
92.6,0.49600
93.2,0.49600
92.2,0.49800
94.1,0.49800
93.5,0.49800
92.3,0.50000
95.5,0.50000
93.6,0.50200
97.7,0.50200
97.4,0.50400
97.0,0.50400
95.6,0.50400
94.2,0.50600
96.4,0.50600
96.5,0.50600
96.1,0.50800
97.5,0.50800
95.5,0.51000
93.7,0.51000
97.0,0.51200
98.9,0.51200
97.0,0.51400
97.4,0.51400
98.8,0.51400
99.6,0.51600
99.7,0.51600
100.5,0.51600
100.3,0.51800
100.1,0.51800
102.2,0.52000
101.3,0.52000
102.7,0.52200
100.7,0.52200
104.5,0.52200
104.8,0.52400
104.2,0.52400
104.5,0.52600
105.0,0.52600
104.6,0.52800
105.6,0.52800
105.9,0.52800
107.6,0.53000
105.5,0.53000
106.6,0.53200
107.2,0.53200
108.7,0.53200
107.6,0.53400
106.9,0.53400
109.5,0.53600
109.0,0.53600
110.4,0.53800
111.4,0.53800
109.6,0.53800
111.1,0.54000
109.1,0.54000
110.3,0.54000
110.1,0.54200
110.2,0.54400
110.9,0.54400
113.1,0.54400
110.5,0.54600
114.2,0.54600
111.9,0.54600
111.6,0.54800
112.7,0.54800
114.4,0.55000
112.2,0.55000
113.5,0.55200
114.6,0.55200
113.4,0.55400
115.9,0.55400
115.1,0.55400
117.0,0.55600
117.9,0.55600
115.8,0.55600
119.6,0.55800
118.1,0.55800
119.2,0.56000
117.7,0.56000
117.8,0.56200
117.4,0.56200
118.3,0.56200
120.5,0.56400
117.8,0.56400
118.7,0.56600
118.9,0.56600
121.6,0.56800
121.5,0.56800
121.9,0.56800
118.8,0.57000
122.0,0.57000
122.1,0.57000
121.6,0.57200
121.5,0.57200
121.2,0.57400
123.4,0.57400
122.9,0.57600
123.4,0.57600
124.5,0.57800
123.4,0.57800
123.8,0.57800
127.2,0.58000
125.9,0.58000
125.9,0.58000
123.5,0.58200
126.6,0.58400
127.6,0.58400
127.2,0.58400
127.8,0.58600
127.7,0.58600
126.2,0.58600
127.5,0.58800
128.0,0.58800
129.5,0.59000
128.0,0.59000
128.9,0.59200
129.2,0.59200
131.7,0.59400
130.1,0.59400
130.5,0.59400
131.5,0.59600
131.4,0.59600
134.0,0.59600
132.1,0.59800
132.2,0.59800
132.9,0.60000
133.4,0.60000
133.5,0.60200
134.5,0.60200
134.5,0.60200
134.2,0.60400
134.8,0.60400
135.8,0.60600
135.6,0.60600
134.0,0.60800
133.5,0.60800
136.1,0.60800
137.8,0.61000
136.1,0.61000
136.0,0.61000
135.9,0.61200
137.3,0.61200
138.1,0.61400
137.1,0.61400
138.4,0.61600
137.9,0.61600
137.8,0.61800
139.6,0.61800
140.1,0.61800
138.5,0.62000
139.9,0.62000
139.7,0.62200
140.2,0.62200
143.8,0.62400
142.8,0.62400
143.7,0.62400
142.4,0.62600
144.9,0.62600
143.8,0.62600
144.0,0.62800
142.3,0.62800
142.6,0.63000
143.0,0.63000
143.3,0.63200
143.8,0.63200
143.5,0.63400
143.4,0.63400
146.6,0.63400
146.2,0.63600
146.2,0.63600
144.6,0.63600
146.2,0.63800
147.3,0.64000
146.3,0.64000
146.9,0.64000
148.0,0.64200
148.4,0.64200
149.8,0.64200
149.3,0.64400
148.7,0.64400
149.7,0.64600
148.2,0.64600
150.5,0.64800
151.2,0.64800
151.2,0.65000
151.6,0.65000
149.8,0.65000
149.2,0.65200
152.7,0.65200
150.3,0.65200
149.7,0.65400
152.0,0.65400
152.6,0.65600
152.0,0.65600
153.0,0.65800
154.9,0.65800
152.3,0.65800
155.2,0.66000
154.5,0.66000
155.7,0.66200
154.6,0.66200
154.2,0.66400
154.7,0.66400
158.7,0.66400
158.1,0.66600
157.0,0.66600
158.7,0.66800
157.8,0.66800
159.9,0.66800
159.7,0.67000
160.9,0.67000
160.2,0.67200
158.0,0.67200
158.7,0.67400
161.0,0.67400
161.9,0.67400
159.7,0.67600
158.7,0.67600
161.0,0.67800
159.7,0.67800
160.3,0.68000
161.8,0.68000
162.8,0.68000
163.1,0.68200
165.0,0.68200
164.5,0.68200
163.5,0.68400
163.7,0.68400
164.3,0.68600
163.1,0.68600
163.4,0.68800
162.5,0.68800
163.7,0.69000
166.1,0.69000
165.2,0.69000
166.7,0.69200
166.4,0.69200
168.2,0.69200
164.4,0.69400
167.7,0.69400
168.6,0.69600
167.5,0.69600
168.0,0.69800
168.0,0.69800
170.9,0.69800
169.8,0.70000
170.1,0.70000
171.1,0.70200
170.2,0.70200
171.9,0.70400
171.1,0.70400
171.7,0.70400
172.6,0.70600
172.1,0.70600
171.8,0.70600
173.6,0.70800
173.1,0.70800
172.5,0.71000
172.7,0.71000
173.2,0.71200
175.8,0.71200
173.5,0.71400
175.2,0.71400
175.9,0.71400
175.3,0.71600
177.0,0.71600
173.5,0.71600
176.4,0.71800
175.7,0.71800
176.0,0.72000
177.7,0.72000
175.8,0.72200
176.2,0.72200
175.9,0.72200
178.6,0.72400
177.2,0.72400
179.0,0.72600
177.6,0.72600
179.8,0.72800
178.1,0.72800
179.2,0.72800
181.4,0.73000
181.3,0.73000
180.6,0.73000
180.8,0.73200
180.7,0.73200
184.1,0.73400
183.3,0.73400
183.5,0.73600
182.2,0.73600
185.1,0.73800
183.8,0.73800
184.8,0.73800
183.6,0.74000
183.5,0.74000
184.2,0.74000
184.0,0.74200
185.4,0.74200
185.4,0.74400
184.6,0.74400
187.2,0.74600
186.9,0.74600
186.4,0.74600
185.9,0.74800
185.9,0.74800
188.9,0.75000
188.3,0.75000
186.6,0.75200
187.8,0.75200
186.8,0.75200
187.0,0.75400
190.6,0.75400
189.8,0.75600
189.8,0.75600
189.3,0.75600
189.9,0.75800
195.0,0.75800
193.1,0.76000
191.9,0.76000
192.6,0.76200
-0.1,0.76200


