""
"Test Method","UG Lab Glass 3 Pt Bend mm_N.msm"
"Sample I. D.","Water.mss"
"Specimen Number","7"

"Load (N)","Crosshead (mm)"

-0.7,0.00000
0.5,0.00200
0.7,0.00200
0.5,0.00200
-0.8,0.00400
-1.1,0.00400
-0.7,0.00600
-0.5,0.00600
-2.6,0.00800
-1.4,0.00800
-0.5,0.00800
-0.2,0.01000
0.3,0.01000
0.4,0.01000
0.9,0.01200
1.5,0.01200
0.6,0.01400
-0.6,0.01400
-1.9,0.01600
-2.5,0.01600
-0.3,0.01800
-1.8,0.01800
-1.9,0.01800
-2.6,0.02000
-2.2,0.02000
1.4,0.02000
-1.5,0.02200
0.9,0.02200
0.5,0.02400
0.1,0.02400
0.4,0.02600
1.2,0.02600
1.2,0.02600
-1.2,0.02800
-1.1,0.02800
-0.8,0.03000
-0.2,0.03000
-0.6,0.03200
0.8,0.03200
-0.1,0.03200
-0.5,0.03400
1.6,0.03400
3.2,0.03400
2.3,0.03600
0.1,0.03600
1.0,0.03800
-0.2,0.03800
0.8,0.04000
1.6,0.04000
2.3,0.04200
1.9,0.04200
3.8,0.04200
6.5,0.04400
3.7,0.04400
4.6,0.04400
5.3,0.04600
5.3,0.04600
5.2,0.04800
4.0,0.04800
6.2,0.05000
6.4,0.05000
7.1,0.05000
8.6,0.05200
6.9,0.05200
7.7,0.05400
7.3,0.05400
9.4,0.05600
10.6,0.05600
8.3,0.05600
9.6,0.05800
10.0,0.05800
10.0,0.06000
9.5,0.06000
10.5,0.06000
9.8,0.06200
12.0,0.06200
10.2,0.06400
11.0,0.06400
13.3,0.06600
11.8,0.06600
11.7,0.06600
12.2,0.06800
12.6,0.06800
16.0,0.06800
13.4,0.07000
13.6,0.07200
13.0,0.07200
14.0,0.07200
17.2,0.07400
13.7,0.07400
14.7,0.07400
14.2,0.07600
18.4,0.07600
17.4,0.07800
16.9,0.07800
17.5,0.08000
18.1,0.08000
18.8,0.08200
20.6,0.08200
17.7,0.08200
18.1,0.08400
19.0,0.08400
19.2,0.08400
17.2,0.08600
19.2,0.08800
20.3,0.08800
19.3,0.08800
17.9,0.09000
20.6,0.09000
21.0,0.09000
21.6,0.09200
20.4,0.09200
23.6,0.09400
22.6,0.09400
22.8,0.09600
21.9,0.09600
22.4,0.09800
22.9,0.09800
24.0,0.09800
25.0,0.10000
23.7,0.10000
25.7,0.10000
26.4,0.10200
24.9,0.10200
25.0,0.10400
24.3,0.10400
27.2,0.10600
26.4,0.10600
26.4,0.10600
27.2,0.10800
27.1,0.10800
29.0,0.11000
29.2,0.11000
31.6,0.11200
29.7,0.11200
31.2,0.11200
30.1,0.11400
30.1,0.11400
31.6,0.11400
29.7,0.11600
32.0,0.11600
31.1,0.11800
30.3,0.11800
32.5,0.12000
32.7,0.12000
34.2,0.12200
31.9,0.12200
32.4,0.12200
34.6,0.12400
34.1,0.12400
33.0,0.12400
34.7,0.12600
32.9,0.12800
35.0,0.12800
33.9,0.12800
35.9,0.13000
35.2,0.13000
34.2,0.13000
37.6,0.13200
38.9,0.13200
36.8,0.13400
36.1,0.13400
36.0,0.13600
39.9,0.13600
37.0,0.13600
39.4,0.13800
38.5,0.13800
37.5,0.14000
40.4,0.14000
41.7,0.14000
41.0,0.14200
39.0,0.14200
40.1,0.14400
40.7,0.14400
42.0,0.14600
41.0,0.14600
42.2,0.14600
42.6,0.14800
42.3,0.14800
41.0,0.15000
42.3,0.15000
41.6,0.15200
42.8,0.15200
43.1,0.15200
44.8,0.15400
45.5,0.15400
43.4,0.15400
45.5,0.15600
45.3,0.15600
48.1,0.15800
47.2,0.15800
45.2,0.16000
48.4,0.16000
47.1,0.16200
46.8,0.16200
47.7,0.16200
48.7,0.16400
49.8,0.16400
46.9,0.16400
49.4,0.16600
51.0,0.16600
50.4,0.16800
50.5,0.16800
51.2,0.17000
52.8,0.17000
50.7,0.17000
51.1,0.17200
50.6,0.17200
52.2,0.17400
52.5,0.17400
53.0,0.17600
51.1,0.17600
52.7,0.17800
52.6,0.17800
53.6,0.17800
55.6,0.18000
54.1,0.18000
54.4,0.18000
53.4,0.18200
54.9,0.18200
55.2,0.18400
54.0,0.18400
54.9,0.18600
55.1,0.18600
56.0,0.18600
59.4,0.18800
57.9,0.18800
57.5,0.19000
57.7,0.19000
56.6,0.19200
58.6,0.19200
59.1,0.19400
59.4,0.19400
56.7,0.19400
59.5,0.19600
61.7,0.19600
60.3,0.19600
61.6,0.19800
59.8,0.19800
60.7,0.20000
62.8,0.20000
62.4,0.20200
62.4,0.20200
63.5,0.20200
64.0,0.20400
62.9,0.20400
63.0,0.20600
64.6,0.20600
62.5,0.20800
64.7,0.20800
64.4,0.20800
66.6,0.21000
66.0,0.21000
67.1,0.21000
66.0,0.21200
69.4,0.21200
68.5,0.21400
68.1,0.21400
68.7,0.21600
66.8,0.21600
67.0,0.21800
68.6,0.21800
69.3,0.21800
70.9,0.22000
69.7,0.22000
69.8,0.22000
70.3,0.22200
70.8,0.22400
71.2,0.22400
72.2,0.22400
71.6,0.22600
72.3,0.22600
71.1,0.22600
72.1,0.22800
71.2,0.22800
73.0,0.23000
73.3,0.23000
73.7,0.23200
71.8,0.23200
74.8,0.23200
74.7,0.23400
76.0,0.23400
76.3,0.23400
76.2,0.23600
75.1,0.23600
72.9,0.23800
78.1,0.23800
76.3,0.24000
76.8,0.24000
75.1,0.24200
75.6,0.24200
80.3,0.24200
79.7,0.24400
79.0,0.24400
76.9,0.24400
79.3,0.24600
81.0,0.24800
83.7,0.24800
79.4,0.24800
80.0,0.25000
80.0,0.25000
81.4,0.25000
78.8,0.25200
80.1,0.25200
80.3,0.25400
81.4,0.25400
81.9,0.25600
83.1,0.25600
84.1,0.25600
81.2,0.25800
83.8,0.25800
84.0,0.26000
83.6,0.26000
85.3,0.26000
84.7,0.26200
84.0,0.26200
85.9,0.26400
87.5,0.26400
87.1,0.26600
88.7,0.26600
87.9,0.26600
87.3,0.26800
87.2,0.26800
89.2,0.27000
89.2,0.27000
88.8,0.27200
88.7,0.27200
89.3,0.27200
88.9,0.27400
92.2,0.27400
91.3,0.27400
90.6,0.27600
92.3,0.27600
92.7,0.27800
93.7,0.27800
92.8,0.28000
95.2,0.28000
94.2,0.28200
92.1,0.28200
93.2,0.28200
93.3,0.28400
91.4,0.28400
92.6,0.28600
94.8,0.28600
96.3,0.28800
95.4,0.28800
96.1,0.28800
98.3,0.29000
98.4,0.29000
98.5,0.29000
97.6,0.29200
95.1,0.29200
94.7,0.29400
97.5,0.29400
97.2,0.29600
96.1,0.29600
97.6,0.29800
99.1,0.29800
101.8,0.29800
100.2,0.30000
100.1,0.30000
100.2,0.30000
101.9,0.30200
102.6,0.30400
102.4,0.30400
100.0,0.30400
100.1,0.30600
100.6,0.30600
100.7,0.30600
103.0,0.30800
103.7,0.30800
103.1,0.31000
105.6,0.31000
104.0,0.31200
105.2,0.31200
106.5,0.31200
106.4,0.31400
104.3,0.31400
105.2,0.31600
104.7,0.31600
105.5,0.31600
105.1,0.31800
104.4,0.31800
108.5,0.32000
108.2,0.32000
108.9,0.32200
107.4,0.32200
108.7,0.32200
111.2,0.32400
111.8,0.32400
110.6,0.32600
109.3,0.32600
108.2,0.32800
109.0,0.32800
112.6,0.32800
109.8,0.33000
111.3,0.33000
110.5,0.33000
111.1,0.33200
113.3,0.33200
114.3,0.33400
114.1,0.33400
116.1,0.33600
113.9,0.33600
115.6,0.33800
114.6,0.33800
115.2,0.33800
116.6,0.34000
115.8,0.34000
117.1,0.34000
116.4,0.34200
118.6,0.34200
115.6,0.34400
117.1,0.34400
117.0,0.34600
118.5,0.34600
117.0,0.34600
118.4,0.34800
119.3,0.34800
118.8,0.35000
118.3,0.35000
118.2,0.35200
120.4,0.35200
118.9,0.35200
121.4,0.35400
122.7,0.35400
122.9,0.35400
122.0,0.35600
123.4,0.35600
124.4,0.35800
123.5,0.35800
124.3,0.36000
124.2,0.36000
123.9,0.36200
123.0,0.36200
124.9,0.36200
125.2,0.36400
125.4,0.36400
125.0,0.36400
126.7,0.36600
126.4,0.36800
125.5,0.36800
126.3,0.36800
128.5,0.37000
126.8,0.37000
127.1,0.37000
128.8,0.37200
128.6,0.37200
127.3,0.37400
128.6,0.37400
129.9,0.37600
131.4,0.37600
131.1,0.37800
130.1,0.37800
128.6,0.37800
130.7,0.38000
133.8,0.38000
132.7,0.38000
131.5,0.38200
132.1,0.38200
134.7,0.38400
132.4,0.38400
132.6,0.38600
133.6,0.38600
132.6,0.38600
136.1,0.38800
135.5,0.38800
136.3,0.39000
135.8,0.39000
135.7,0.39200
137.7,0.39200
136.0,0.39200
135.9,0.39400
138.4,0.39400
138.2,0.39600
137.4,0.39600
139.1,0.39600
139.2,0.39800
140.4,0.39800
139.2,0.40000
140.2,0.40000
141.7,0.40200
142.4,0.40200
141.8,0.40200
141.6,0.40400
140.7,0.40400
143.2,0.40600
142.3,0.40600
143.0,0.40800
143.0,0.40800
143.0,0.40800
142.8,0.41000
145.0,0.41000
145.1,0.41000
143.0,0.41200
145.4,0.41200
146.6,0.41400
147.7,0.41400
147.0,0.41600
148.1,0.41600
145.8,0.41800
147.2,0.41800
146.5,0.41800
147.9,0.42000
148.7,0.42000
147.9,0.42000
149.5,0.42200
151.0,0.42400
148.3,0.42400
148.5,0.42400
150.2,0.42600
149.6,0.42600
151.3,0.42600
149.6,0.42800
152.1,0.42800
149.6,0.43000
150.7,0.43000
153.4,0.43200
153.5,0.43200
152.0,0.43200
150.9,0.43400
152.9,0.43400
154.1,0.43400
154.8,0.43600
153.9,0.43600
153.8,0.43800
154.2,0.43800
156.8,0.44000
157.4,0.44000
156.4,0.44200
158.2,0.44200
158.3,0.44200
160.0,0.44400
158.9,0.44400
157.1,0.44400
158.2,0.44600
158.7,0.44600
158.9,0.44800
158.5,0.44800
159.4,0.45000
158.1,0.45000
158.9,0.45000
160.3,0.45200
157.2,0.45200
159.4,0.45400
160.4,0.45400
161.9,0.45600
163.6,0.45600
161.7,0.45600
162.6,0.45800
161.5,0.45800
161.0,0.45800
162.8,0.46000
162.9,0.46000
162.0,0.46200
162.1,0.46200
163.0,0.46400
164.2,0.46400
165.7,0.46600
166.2,0.46600
166.4,0.46600
164.9,0.46800
166.9,0.46800
167.9,0.46800
166.7,0.47000
166.7,0.47000
166.5,0.47200
168.5,0.47200
169.5,0.47400
170.3,0.47400
169.2,0.47400
168.9,0.47600
168.0,0.47600
170.6,0.47800
170.8,0.47800
170.6,0.48000
171.3,0.48000
171.7,0.48200
170.5,0.48200
172.2,0.48200
171.3,0.48400
172.7,0.48400
172.1,0.48400
173.5,0.48600
174.1,0.48600
172.8,0.48800
173.6,0.48800
174.3,0.49000
175.1,0.49000
176.5,0.49000
175.0,0.49200
174.2,0.49200
173.6,0.49400
175.2,0.49400
176.5,0.49600
177.0,0.49600
175.6,0.49800
176.7,0.49800
178.2,0.49800
179.9,0.50000
179.9,0.50000
179.2,0.50000
180.8,0.50200
179.4,0.50200
181.3,0.50400
178.8,0.50400
179.1,0.50600
179.7,0.50600
179.3,0.50600
182.8,0.50800
180.8,0.50800
180.1,0.51000
181.1,0.51000
183.6,0.51200
184.3,0.51200
182.5,0.51400
182.8,0.51400
182.8,0.51400
181.7,0.51600
183.5,0.51600
182.1,0.51600
182.7,0.51800
182.6,0.51800
184.4,0.52000
185.7,0.52000
186.4,0.52200
186.2,0.52200
186.1,0.52200
185.4,0.52400
187.8,0.52400
187.6,0.52600
188.0,0.52600
186.6,0.52800
187.6,0.52800
186.7,0.52800
186.2,0.53000
186.8,0.53000
187.4,0.53000
190.4,0.53200
192.9,0.53200
194.3,0.53400
191.1,0.53400
192.2,0.53600
192.2,0.53600
192.5,0.53800
190.7,0.53800
194.7,0.53800
195.6,0.54000
195.1,0.54000
193.0,0.54000
194.8,0.54200
196.3,0.54200
196.0,0.54400
198.3,0.54400
196.7,0.54600
198.2,0.54600
197.7,0.54600
198.1,0.54800
197.0,0.54800
197.1,0.55000
199.9,0.55000
198.8,0.55200
200.0,0.55200
199.5,0.55400
199.3,0.55400
201.0,0.55400
199.9,0.55600
200.0,0.55600
201.6,0.55600
200.2,0.55800
201.7,0.55800
201.6,0.56000
202.1,0.56000
202.6,0.56200
201.7,0.56200
202.7,0.56200
202.5,0.56400
205.6,0.56400
204.1,0.56600
205.0,0.56600
0.6,0.56800


